FAPMU40  DFHMSD TYPE=MAP,LANG=COBOL,TERM=3270,MODE=INOUT,              X
               TIOAPFX=YES,MAPATTS=(COLOR,HILIGHT),                    X
               DSATTS=(COLOR,HILIGHT)
FAPMU40  DFHMDI SIZE=(24,80),LINE=1,COLUMN=1,CTRL=FREEKB,TIOAPFX=YES
         DFHMDF POS=(01,01),LENGTH=0007,ATTRB=(PROT,ASKIP),            X
               INITIAL='FAPMU40',COLOR=BLUE,HILIGHT=OFF
* 'TRMNL-ID-SY00'
ZFLD002  DFHMDF POS=(01,10),LENGTH=0008,ATTRB=(PROT),COLOR=BLUE,       X
               HILIGHT=OFF
         DFHMDF POS=(01,19),LENGTH=0,ATTRB=(ASKIP,NORM)
* 'FULL-NAME-6001-SY00'
ZFLD003  DFHMDF POS=(01,23),LENGTH=0035,ATTRB=(PROT),COLOR=BLUE,       X
               HILIGHT=OFF
         DFHMDF POS=(01,59),LENGTH=0,ATTRB=(ASKIP,NORM)
* 'AGR-DATE'
ZFLD004  DFHMDF POS=(01,64),LENGTH=0008,ATTRB=(PROT),COLOR=BLUE,       X
               HILIGHT=OFF
* 'WORK-HH-MM-TIME-SY00'
ZFLD005  DFHMDF POS=(01,73),LENGTH=0005,ATTRB=(PROT),COLOR=BLUE,       X
               HILIGHT=OFF
* 'AM-PM-FLAG-SY00'
ZFLD006  DFHMDF POS=(01,79),LENGTH=0001,ATTRB=(PROT),COLOR=BLUE,       X
               HILIGHT=OFF
* 'AGR-USER-ID'
ZFLD007  DFHMDF POS=(02,01),LENGTH=0008,ATTRB=(PROT),COLOR=BLUE,       X
               HILIGHT=OFF
         DFHMDF POS=(02,10),LENGTH=0,ATTRB=(ASKIP,NORM)
* 'CURR-RSPNS-ID-SY00'
ZFLD008  DFHMDF POS=(02,21),LENGTH=0008,ATTRB=(PROT,BRT),              X
               COLOR=DEFAULT,HILIGHT=OFF
         DFHMDF POS=(02,30),LENGTH=0001,ATTRB=(PROT,ASKIP),            X
               INITIAL=':',COLOR=DEFAULT,HILIGHT=OFF
* 'AGR-FUNC-DESCRIPTION'
ZFLD009  DFHMDF POS=(02,32),LENGTH=0028,ATTRB=(PROT,BRT),              X
               COLOR=DEFAULT,HILIGHT=OFF
         DFHMDF POS=(02,61),LENGTH=0,ATTRB=(ASKIP,NORM)
* 'PAGE-STATUS-CODE-SY00'
ZFLD010  DFHMDF POS=(02,64),LENGTH=0010,ATTRB=(PROT,BRT),              X
               COLOR=DEFAULT,HILIGHT=OFF
         DFHMDF POS=(02,75),LENGTH=0,ATTRB=(ASKIP,NORM)
         DFHMDF POS=(04,01),LENGTH=0011,ATTRB=(PROT),                  X
               INITIAL='ACTION(AC):',COLOR=BLUE,HILIGHT=OFF
* 'ACTN-CODE-AP40'
ZFLD011  DFHMDF POS=(04,14),LENGTH=0001,ATTRB=(UNPROT,IC),             X
               COLOR=DEFAULT,HILIGHT=OFF
         DFHMDF POS=(04,16),LENGTH=0,ATTRB=(ASKIP,NORM)
         DFHMDF POS=(04,20),LENGTH=0009,ATTRB=(PROT,ASKIP),            X
               INITIAL='DOCUMENT:',COLOR=BLUE,HILIGHT=OFF
* 'DCMNT-NMBR-4150-AP40'
ZFLD012  DFHMDF POS=(04,30),LENGTH=0008,ATTRB=(UNPROT),COLOR=DEFAULT,  X
               HILIGHT=UNDERLINE
         DFHMDF POS=(04,39),LENGTH=0,ATTRB=(ASKIP,NORM)
         DFHMDF POS=(04,40),LENGTH=0009,ATTRB=(PROT,ASKIP),            X
               INITIAL='PAY TYPE:',COLOR=BLUE,HILIGHT=OFF
* 'SUB-DCMNT-TYPE-AP40'
ZFLD013  DFHMDF POS=(04,50),LENGTH=0003,ATTRB=(UNPROT),COLOR=DEFAULT,  X
               HILIGHT=UNDERLINE
         DFHMDF POS=(04,54),LENGTH=0,ATTRB=(ASKIP,NORM)
         DFHMDF POS=(04,55),LENGTH=0010,ATTRB=(PROT,ASKIP),            X
               INITIAL='DOC REF #:',COLOR=BLUE,HILIGHT=OFF
* 'DCMNT-REF-NMBR-AP40'
ZFLD014  DFHMDF POS=(04,66),LENGTH=0010,ATTRB=(UNPROT),COLOR=DEFAULT,  X
               HILIGHT=UNDERLINE
         DFHMDF POS=(04,77),LENGTH=0,ATTRB=(ASKIP,NORM)
         DFHMDF POS=(05,01),LENGTH=0007,ATTRB=(PROT,ASKIP),            X
               INITIAL='VENDOR:',COLOR=BLUE,HILIGHT=OFF
* 'VNDR-ID-LAST-NINE-4073-AP40'
ZFLD015  DFHMDF POS=(05,09),LENGTH=0009,ATTRB=(UNPROT),COLOR=DEFAULT,  X
               HILIGHT=UNDERLINE
         DFHMDF POS=(05,19),LENGTH=0,ATTRB=(ASKIP,NORM)
         DFHMDF POS=(05,20),LENGTH=0009,ATTRB=(PROT,ASKIP),            X
               INITIAL='ADR TYPE:',COLOR=BLUE,HILIGHT=OFF
* 'ADR-TYPE-CODE-4150-AP40'
ZFLD016  DFHMDF POS=(05,30),LENGTH=0002,ATTRB=(UNPROT),COLOR=DEFAULT,  X
               HILIGHT=UNDERLINE
         DFHMDF POS=(05,33),LENGTH=0,ATTRB=(ASKIP,NORM)
         DFHMDF POS=(05,34),LENGTH=0005,ATTRB=(PROT,ASKIP),            X
               INITIAL='1099:',COLOR=BLUE,HILIGHT=OFF
* '1099-IND-4150-AP40'
ZFLD017  DFHMDF POS=(05,40),LENGTH=0001,ATTRB=(UNPROT),COLOR=DEFAULT,  X
               HILIGHT=UNDERLINE
         DFHMDF POS=(05,42),LENGTH=0,ATTRB=(ASKIP,NORM)
         DFHMDF POS=(05,43),LENGTH=0011,ATTRB=(PROT,ASKIP),            X
               INITIAL='VENDOR INV:',COLOR=BLUE,HILIGHT=OFF
* 'VNDR-INV-NMBR-4150-AP40'
ZFLD018  DFHMDF POS=(05,55),LENGTH=0009,ATTRB=(UNPROT),COLOR=DEFAULT,  X
               HILIGHT=UNDERLINE
         DFHMDF POS=(05,65),LENGTH=0,ATTRB=(ASKIP,NORM)
         DFHMDF POS=(05,66),LENGTH=0005,ATTRB=(PROT,ASKIP),            X
               INITIAL='DATE:',COLOR=BLUE,HILIGHT=OFF
* 'TRANS-DATE-4150-AP40'
ZFLD019  DFHMDF POS=(05,72),LENGTH=0008,ATTRB=(PROT),COLOR=BLUE,       X
               HILIGHT=OFF
* 'VNDR-NAME-GP-AP40'
ZFLD020  DFHMDF POS=(06,01),LENGTH=0035,ATTRB=(PROT),COLOR=BLUE,       X
               HILIGHT=UNDERLINE
         DFHMDF POS=(06,37),LENGTH=0025,ATTRB=(PROT,ASKIP),            X
               INITIAL='             TOTAL AMOUNT',COLOR=BLUE,         X
               HILIGHT=OFF
         DFHMDF POS=(06,66),LENGTH=0008,ATTRB=(PROT,ASKIP),            X
               INITIAL='INC TYP:',COLOR=BLUE,HILIGHT=OFF
* 'INC-TYP-AP40'
ZFLD070  DFHMDF POS=(06,75),LENGTH=0002,ATTRB=(UNPROT),COLOR=DEFAULT,  X
               HILIGHT=UNDERLINE
         DFHMDF POS=(06,78),LENGTH=0,ATTRB=(ASKIP,NORM)
* 'LINE-ADR-AP40'
ZFLD021  DFHMDF POS=(07,01),LENGTH=0035,ATTRB=(PROT),COLOR=BLUE,       X
               HILIGHT=UNDERLINE
         DFHMDF POS=(07,37),LENGTH=0012,ATTRB=(PROT,ASKIP),            X
               INITIAL='     AMOUNT:',COLOR=BLUE,HILIGHT=OFF
* 'APRVD-AMT-AP40'
ZFLD022  DFHMDF POS=(07,50),LENGTH=0013,ATTRB=(UNPROT),COLOR=DEFAULT,  X
               HILIGHT=UNDERLINE
         DFHMDF POS=(07,64),LENGTH=0,ATTRB=(ASKIP,NORM)
         DFHMDF POS=(07,66),LENGTH=0008,ATTRB=(PROT,ASKIP),            X
               INITIAL='592 IND:',COLOR=BLUE,HILIGHT=OFF
* '592-IND-AP40'
ZFLD592  DFHMDF POS=(07,75),LENGTH=0001,ATTRB=(UNPROT),COLOR=DEFAULT,  X
               HILIGHT=UNDERLINE
         DFHMDF POS=(07,77),LENGTH=0,ATTRB=(ASKIP,NORM)
* 'LINE-ADR-AP40'
ZFLD023  DFHMDF POS=(08,01),LENGTH=0035,ATTRB=(PROT),COLOR=BLUE,       X
               HILIGHT=UNDERLINE
         DFHMDF POS=(08,37),LENGTH=0012,ATTRB=(PROT,ASKIP),            X
               INITIAL='        TAX:',COLOR=BLUE,HILIGHT=OFF
* 'TAX-AMT-AP40'
ZFLD024  DFHMDF POS=(08,50),LENGTH=0013,ATTRB=(PROT),COLOR=BLUE,       X
               HILIGHT=OFF
         DFHMDF POS=(08,64),LENGTH=0,ATTRB=(ASKIP,NORM)
         DFHMDF POS=(08,65),LENGTH=0001,ATTRB=(PROT,ASKIP),            X
               INITIAL='N',COLOR=BLUE,HILIGHT=OFF
* 'NO-TAX-IND-AP40'
ZFLD025  DFHMDF POS=(08,67),LENGTH=0001,ATTRB=(UNPROT),COLOR=DEFAULT,  X
               HILIGHT=UNDERLINE
         DFHMDF POS=(08,69),LENGTH=0001,ATTRB=(PROT,ASKIP),            X
               INITIAL='S',COLOR=BLUE,HILIGHT=OFF
* 'SALES-TAX-IND-AP40'
ZFLD026  DFHMDF POS=(08,71),LENGTH=0001,ATTRB=(UNPROT),COLOR=DEFAULT,  X
               HILIGHT=UNDERLINE
         DFHMDF POS=(08,73),LENGTH=0001,ATTRB=(PROT,ASKIP),            X
               INITIAL='U',COLOR=BLUE,HILIGHT=OFF
* 'USE-TAX-IND-AP40'
ZFLD027  DFHMDF POS=(08,75),LENGTH=0001,ATTRB=(UNPROT),COLOR=DEFAULT,  X
               HILIGHT=UNDERLINE
         DFHMDF POS=(08,77),LENGTH=0,ATTRB=(ASKIP,NORM)
* 'LINE-ADR-AP40'
ZFLD028  DFHMDF POS=(09,01),LENGTH=0035,ATTRB=(PROT),COLOR=BLUE,       X
               HILIGHT=UNDERLINE
         DFHMDF POS=(09,37),LENGTH=0012,ATTRB=(PROT,ASKIP),            X
               INITIAL='      OTHER:',COLOR=BLUE,HILIGHT=OFF
* 'ADDL-CHRG-AP40'
ZFLD029  DFHMDF POS=(09,50),LENGTH=0013,ATTRB=(UNPROT),COLOR=DEFAULT,  X
               HILIGHT=UNDERLINE
         DFHMDF POS=(09,64),LENGTH=0007,ATTRB=(PROT,ASKIP),            X
               INITIAL='TT IND:',COLOR=BLUE,HILIGHT=OFF
* 'TAX-TREATY-IND-AP40'
ZFLD068  DFHMDF POS=(09,72),LENGTH=0001,ATTRB=(UNPROT),COLOR=DEFAULT,  X
               HILIGHT=UNDERLINE
         DFHMDF POS=(09,74),LENGTH=0,ATTRB=(ASKIP,NORM)
* 'CITY-NAME-AP40'
ZFLD031  DFHMDF POS=(10,01),LENGTH=0018,ATTRB=(PROT),COLOR=BLUE,       X
               HILIGHT=UNDERLINE
* 'STATE-CODE-AP40'
ZFLD032  DFHMDF POS=(10,20),LENGTH=0002,ATTRB=(PROT),COLOR=BLUE,       X
               HILIGHT=UNDERLINE
* 'ZIP-CODE-AP40'
ZFLD033  DFHMDF POS=(10,23),LENGTH=0010,ATTRB=(PROT),COLOR=BLUE,       X
               HILIGHT=UNDERLINE
         DFHMDF POS=(10,34),LENGTH=0,ATTRB=(ASKIP,NORM)
         DFHMDF POS=(10,37),LENGTH=0012,ATTRB=(PROT,ASKIP),            X
               INITIAL='  TOTAL AMT:',COLOR=BLUE,HILIGHT=OFF
* 'NET-AMT-AP40'
ZFLD034  DFHMDF POS=(10,50),LENGTH=0013,ATTRB=(PROT),COLOR=BLUE,       X
               HILIGHT=OFF
         DFHMDF POS=(10,64),LENGTH=0007,ATTRB=(PROT,ASKIP),            X
               INITIAL='IRS CD:',COLOR=BLUE,HILIGHT=OFF
* 'IRS-INCOME-CD-AP40'
ZFLD069  DFHMDF POS=(10,72),LENGTH=0002,ATTRB=(UNPROT),COLOR=DEFAULT,  X
               HILIGHT=UNDERLINE
         DFHMDF POS=(10,75),LENGTH=0,ATTRB=(ASKIP,NORM)
         DFHMDF POS=(11,01),LENGTH=0003,ATTRB=(PROT,ASKIP),            X
               INITIAL='FR:',COLOR=BLUE,HILIGHT=OFF
* 'FED-RPT-AMT-AP40'
ZFLDFD1  DFHMDF POS=(11,05),LENGTH=0013,ATTRB=(UNPROT),                X
               COLOR=DEFAULT,HILIGHT=UNDERLINE
         DFHMDF POS=(11,19),LENGTH=0,ATTRB=(ASKIP,NORM)
         DFHMDF POS=(11,21),LENGTH=0003,ATTRB=(PROT,ASKIP),            X
               INITIAL='FW:',COLOR=BLUE,HILIGHT=OFF
* 'FED-WH-AMT-AP40'
ZFLDFD2  DFHMDF POS=(11,25),LENGTH=0013,ATTRB=(UNPROT),                X
               COLOR=DEFAULT,HILIGHT=UNDERLINE
         DFHMDF POS=(11,41),LENGTH=0,ATTRB=(ASKIP,NORM)
         DFHMDF POS=(11,43),LENGTH=0003,ATTRB=(PROT,ASKIP),            X
               INITIAL='CR:',COLOR=BLUE,HILIGHT=OFF
* 'CA-RPT-AMT-AP40'
ZFLDFED  DFHMDF POS=(11,47),LENGTH=0013,ATTRB=(UNPROT),                X
               COLOR=DEFAULT,HILIGHT=UNDERLINE
         DFHMDF POS=(11,61),LENGTH=0,ATTRB=(ASKIP,NORM)
         DFHMDF POS=(11,63),LENGTH=0003,ATTRB=(PROT,ASKIP),            X
               INITIAL='CW:',COLOR=BLUE,HILIGHT=OFF
* 'CA-WH-AMT-AP40'
ZFLDCA   DFHMDF POS=(11,67),LENGTH=0013,ATTRB=(UNPROT),                X
               COLOR=DEFAULT,HILIGHT=UNDERLINE
* 'CHECK-TEXT-AP40'
ZFLD035  DFHMDF POS=(12,01),LENGTH=0055,ATTRB=(UNPROT),COLOR=DEFAULT,  X
               HILIGHT=UNDERLINE
         DFHMDF POS=(12,57),LENGTH=0,ATTRB=(ASKIP,NORM)
         DFHMDF POS=(12,58),LENGTH=0014,ATTRB=(PROT,ASKIP),            X
               INITIAL='OPEN/PAID IND:',COLOR=BLUE,HILIGHT=OFF
* 'OPEN-PAID-IND-4150-AP40'
ZFLD036  DFHMDF POS=(12,73),LENGTH=0001,ATTRB=(PROT),COLOR=BLUE,       X
               HILIGHT=OFF
         DFHMDF POS=(12,75),LENGTH=0,ATTRB=(ASKIP,NORM)
* 'CHECK-TEXT-AP40'
ZFLD037  DFHMDF POS=(13,01),LENGTH=0055,ATTRB=(UNPROT),COLOR=DEFAULT,  X
               HILIGHT=UNDERLINE
         DFHMDF POS=(13,57),LENGTH=0,ATTRB=(ASKIP,NORM)
         DFHMDF POS=(13,58),LENGTH=0012,ATTRB=(PROT,ASKIP),            X
               INITIAL='TEXT CLAUSE:',COLOR=BLUE,HILIGHT=OFF
* 'CLAUSE-CODE-4169-AP40'
ZFLD038  DFHMDF POS=(13,71),LENGTH=0008,ATTRB=(PROT),COLOR=BLUE,       X
               HILIGHT=OFF
         DFHMDF POS=(13,80),LENGTH=0,ATTRB=(ASKIP,NORM)
* 'CHECK-TEXT-AP40'
ZFLD039  DFHMDF POS=(14,01),LENGTH=0055,ATTRB=(UNPROT),COLOR=DEFAULT,  X
               HILIGHT=UNDERLINE
         DFHMDF POS=(14,57),LENGTH=0,ATTRB=(ASKIP,NORM)
         DFHMDF POS=(14,58),LENGTH=12,INITIAL='FORCE CHECK:',          *00002050
               ATTRB=(ASKIP,NORM),COLOR=BLUE                            00002060
* 'FORCE-CHK-AP40'                                                      00002070
DFH0001  DFHMDF POS=(14,71),LENGTH=1,ATTRB=(UNPROT,NORM),              *00002080
               HILIGHT=UNDERLINE                                        00002090
         DFHMDF POS=(14,73),LENGTH=1,ATTRB=(ASKIP,NORM)                 00002100
         DFHMDF POS=(15,01),LENGTH=0074,ATTRB=(PROT,ASKIP),            X
               INITIAL='ACT   SEQ   COA    INDEX      FUND    ORGN    AX
               CCT    PROG    ACTY    LOCN',COLOR=BLUE,HILIGHT=OFF
* 'ITEM-ACTN-CODE-AP40'
ZFLD040  DFHMDF POS=(16,02),LENGTH=0001,ATTRB=(UNPROT),COLOR=DEFAULT,  X
               HILIGHT=OFF
         DFHMDF POS=(16,04),LENGTH=0,ATTRB=(ASKIP,NORM)
* 'SEQ-NMBR-WK-AP40'
ZFLD041  DFHMDF POS=(16,07),LENGTH=0004,ATTRB=(PROT),COLOR=BLUE,       X
               HILIGHT=OFF
         DFHMDF POS=(16,12),LENGTH=0,ATTRB=(ASKIP,NORM)
* 'COA-CODE-AP40'
ZFLD042  DFHMDF POS=(16,14),LENGTH=0001,ATTRB=(UNPROT),COLOR=DEFAULT,  X
               HILIGHT=UNDERLINE
         DFHMDF POS=(16,16),LENGTH=0,ATTRB=(ASKIP,NORM)
* 'ACCT-INDX-CODE-4152-AP40'
ZFLD043  DFHMDF POS=(16,17),LENGTH=0010,ATTRB=(UNPROT),COLOR=DEFAULT,  X
               HILIGHT=UNDERLINE
         DFHMDF POS=(16,28),LENGTH=0,ATTRB=(ASKIP,NORM)
* 'FUND-CODE-4152-AP40'
ZFLD044  DFHMDF POS=(16,29),LENGTH=0006,ATTRB=(UNPROT),COLOR=DEFAULT,  X
               HILIGHT=UNDERLINE
         DFHMDF POS=(16,36),LENGTH=0,ATTRB=(ASKIP,NORM)
* 'ORGZN-CODE-4152-AP40'
ZFLD045  DFHMDF POS=(16,37),LENGTH=0006,ATTRB=(UNPROT),COLOR=DEFAULT,  X
               HILIGHT=UNDERLINE
         DFHMDF POS=(16,44),LENGTH=0,ATTRB=(ASKIP,NORM)
* 'ACCT-CODE-4152-AP40'
ZFLD046  DFHMDF POS=(16,45),LENGTH=0006,ATTRB=(UNPROT),COLOR=DEFAULT,  X
               HILIGHT=UNDERLINE
         DFHMDF POS=(16,52),LENGTH=0,ATTRB=(ASKIP,NORM)
* 'PRGRM-CODE-4152-AP40'
ZFLD047  DFHMDF POS=(16,53),LENGTH=0006,ATTRB=(UNPROT),COLOR=DEFAULT,  X
               HILIGHT=UNDERLINE
         DFHMDF POS=(16,60),LENGTH=0,ATTRB=(ASKIP,NORM)
* 'ACTVY-CODE-4152-AP40'
ZFLD048  DFHMDF POS=(16,61),LENGTH=0006,ATTRB=(UNPROT),COLOR=DEFAULT,  X
               HILIGHT=UNDERLINE
         DFHMDF POS=(16,68),LENGTH=0,ATTRB=(ASKIP,NORM)
* 'LCTN-CODE-4152-AP40'
ZFLD049  DFHMDF POS=(16,69),LENGTH=0006,ATTRB=(UNPROT),COLOR=DEFAULT,  X
               HILIGHT=UNDERLINE
         DFHMDF POS=(16,76),LENGTH=0,ATTRB=(ASKIP,NORM)
         DFHMDF POS=(17,02),LENGTH=0072,ATTRB=(PROT,ASKIP),            X
               INITIAL='   AMOUNT              TAX                OTHERX
                            TOTAL AMOUNT',COLOR=BLUE,HILIGHT=OFF
* 'ACCT-APRVD-AMT-AP40'
ZFLD050  DFHMDF POS=(18,02),LENGTH=0013,ATTRB=(UNPROT),COLOR=DEFAULT,  X
               HILIGHT=UNDERLINE
         DFHMDF POS=(18,16),LENGTH=0,ATTRB=(ASKIP,NORM)
* 'ACCT-TAX-AMT-AP40'
ZFLD051  DFHMDF POS=(18,21),LENGTH=0013,ATTRB=(UNPROT),COLOR=DEFAULT,  X
               HILIGHT=UNDERLINE
         DFHMDF POS=(18,35),LENGTH=0,ATTRB=(ASKIP,NORM)
* 'ACCT-ADDL-CHRG-AP40'
ZFLD052  DFHMDF POS=(18,40),LENGTH=0013,ATTRB=(UNPROT),COLOR=DEFAULT,  X
               HILIGHT=UNDERLINE
         DFHMDF POS=(18,54),LENGTH=0,ATTRB=(ASKIP,NORM)
* 'ACCT-NET-AMT-AP40'
ZFLD053  DFHMDF POS=(18,60),LENGTH=0013,ATTRB=(UNPROT),COLOR=BLUE,     X
               HILIGHT=OFF
         DFHMDF POS=(18,74),LENGTH=0,ATTRB=(ASKIP,NORM)
         DFHMDF POS=(19,01),LENGTH=0077,ATTRB=(PROT,ASKIP),            X
               INITIAL='===============================================X
               ==============================',COLOR=DEFAULT,          X
               HILIGHT=OFF
         DFHMDF POS=(20,01),LENGTH=0009,ATTRB=(PROT,ASKIP),            X
               INITIAL='DOC TEXT:',COLOR=BLUE,HILIGHT=OFF
* 'TEXT-IND-AP40'
ZFLD054  DFHMDF POS=(20,11),LENGTH=0001,ATTRB=(PROT),COLOR=BLUE,       X
               HILIGHT=OFF
         DFHMDF POS=(20,13),LENGTH=0005,ATTRB=(PROT,ASKIP),            X
               INITIAL='(Y/N)',COLOR=BLUE,HILIGHT=OFF
         DFHMDF POS=(20,20),LENGTH=0013,ATTRB=(PROT,ASKIP),            X
               INITIAL='GROUPING IND:',COLOR=BLUE,HILIGHT=OFF
* 'CHECK-GRPNG-IND-4150-AP40'
ZFLD055  DFHMDF POS=(20,34),LENGTH=0001,ATTRB=(PROT),COLOR=BLUE,       X
               HILIGHT=OFF
         DFHMDF POS=(20,36),LENGTH=0,ATTRB=(ASKIP,NORM)
         DFHMDF POS=(20,37),LENGTH=0010,ATTRB=(PROT,ASKIP),            X
               INITIAL='CHECK/ACH:',COLOR=BLUE,HILIGHT=OFF
* 'CHECK-NMBR-AP40'
ZFLD056  DFHMDF POS=(20,48),LENGTH=0008,ATTRB=(PROT),COLOR=BLUE,       X
               HILIGHT=OFF
         DFHMDF POS=(20,57),LENGTH=0,ATTRB=(ASKIP,NORM)
         DFHMDF POS=(20,58),LENGTH=0011,ATTRB=(PROT,ASKIP),            X
               INITIAL='ISSUE DATE:',COLOR=BLUE,HILIGHT=OFF
* 'CHECK-DATE-AP40'
ZFLD057  DFHMDF POS=(20,70),LENGTH=0008,ATTRB=(PROT),COLOR=BLUE,       X
               HILIGHT=OFF
         DFHMDF POS=(20,79),LENGTH=0,ATTRB=(ASKIP,NORM)
         DFHMDF POS=(21,09),LENGTH=0009,ATTRB=(PROT,ASKIP),            X
               INITIAL='COMPLETE:',COLOR=BLUE,HILIGHT=OFF
* 'CMPLT-IND-4150-AP40'
ZFLD058  DFHMDF POS=(21,19),LENGTH=0001,ATTRB=(UNPROT),COLOR=DEFAULT,  X
               HILIGHT=UNDERLINE
         DFHMDF POS=(21,21),LENGTH=0,ATTRB=(ASKIP,NORM)
         DFHMDF POS=(21,22),LENGTH=0009,ATTRB=(PROT,ASKIP),            X
               INITIAL='APPROVAL:',COLOR=BLUE,HILIGHT=OFF
* 'APRVL-IND-4150-AP40'
ZFLD059  DFHMDF POS=(21,32),LENGTH=0001,ATTRB=(UNPROT),COLOR=DEFAULT,  X
               HILIGHT=UNDERLINE
         DFHMDF POS=(21,34),LENGTH=0,ATTRB=(ASKIP,NORM)
         DFHMDF POS=(21,35),LENGTH=0009,ATTRB=(PROT,ASKIP),            X
               INITIAL='TEMPLATE:',COLOR=BLUE,HILIGHT=OFF
* 'APRVL-TMPLT-CODE-AP40'
ZFLD060  DFHMDF POS=(21,45),LENGTH=0003,ATTRB=(UNPROT),COLOR=DEFAULT,  X
               HILIGHT=UNDERLINE
         DFHMDF POS=(21,49),LENGTH=0,ATTRB=(ASKIP,NORM)
         DFHMDF POS=(21,51),LENGTH=0007,ATTRB=(PROT,ASKIP),            X
               INITIAL='CANCEL:',COLOR=BLUE,HILIGHT=OFF
* 'CNCL-IND-4150-AP40'
ZFLD061  DFHMDF POS=(21,59),LENGTH=0001,ATTRB=(UNPROT),COLOR=DEFAULT,  X
               HILIGHT=UNDERLINE
         DFHMDF POS=(21,61),LENGTH=0,ATTRB=(ASKIP,NORM)
* 'DELETE-LIT-AP40'
ZFLD062  DFHMDF POS=(21,62),LENGTH=0010,ATTRB=(PROT,ASKIP),            X
               COLOR=DEFAULT,HILIGHT=OFF
         DFHMDF POS=(21,73),LENGTH=0,ATTRB=(ASKIP,NORM)
* 'CONFIRM-DELETE-AP40'
ZFLD063  DFHMDF POS=(21,74),LENGTH=0001,ATTRB=(PROT,DRK),              X
               COLOR=DEFAULT,HILIGHT=UNDERLINE
         DFHMDF POS=(21,76),LENGTH=0,ATTRB=(ASKIP,NORM)
* 'DCLINK-MESSAGE'
ZFLD064  DFHMDF POS=(21,80),LENGTH=0160,ATTRB=(PROT,BRT),              X
               COLOR=DEFAULT,HILIGHT=OFF
         DFHMDF POS=(24,01),LENGTH=0012,ATTRB=(PROT,ASKIP,NUM),        X
               INITIAL='NEXT SCREEN:',COLOR=BLUE,HILIGHT=OFF
* 'AGR-PASSED-ONE'
ZFLD065  DFHMDF POS=(24,14),LENGTH=0030,ATTRB=(UNPROT),COLOR=DEFAULT,  X
               HILIGHT=UNDERLINE
         DFHMDF POS=(24,45),LENGTH=0009,ATTRB=(PROT,ASKIP),            X
               INITIAL='RESPONSE:',COLOR=BLUE,HILIGHT=OFF
* 'AGR-MAP-RESPONSE'
ZFLD066  DFHMDF POS=(24,55),LENGTH=0008,ATTRB=(UNPROT),COLOR=DEFAULT,  X
               HILIGHT=UNDERLINE
         DFHMDF POS=(24,64),LENGTH=0,ATTRB=(ASKIP,NORM)
* 'ERROR-TEXT-SY00'
ZFLD067  DFHMDF POS=(24,65),LENGTH=0014,ATTRB=(PROT,DRK),              X
               COLOR=DEFAULT,HILIGHT=OFF
         DFHMSD TYPE=FINAL
         END
