FAPMI06  DFHMSD TYPE=MAP,LANG=COBOL,TERM=3270,MODE=INOUT,              X
               TIOAPFX=YES,MAPATTS=(COLOR,HILIGHT),                    X
               DSATTS=(COLOR,HILIGHT)
FAPMI06  DFHMDI SIZE=(24,80),LINE=1,COLUMN=1,CTRL=FREEKB,TIOAPFX=YES
         DFHMDF POS=(01,01),LENGTH=0007,ATTRB=(PROT,ASKIP),            X
               INITIAL='FAPMI06',COLOR=BLUE,HILIGHT=OFF
* 'TRMNL-ID-SY00'
ZFLD002  DFHMDF POS=(01,10),LENGTH=0008,ATTRB=(PROT),COLOR=BLUE,       X
               HILIGHT=OFF
         DFHMDF POS=(01,19),LENGTH=0,ATTRB=(ASKIP,NORM)
* 'FULL-NAME-6001-SY00'
ZFLD003  DFHMDF POS=(01,23),LENGTH=0035,ATTRB=(PROT),COLOR=BLUE,       X
               HILIGHT=OFF
         DFHMDF POS=(01,59),LENGTH=0,ATTRB=(ASKIP,NORM)
* 'AGR-DATE'
ZFLD004  DFHMDF POS=(01,64),LENGTH=0008,ATTRB=(PROT),COLOR=BLUE,       X
               HILIGHT=OFF
* 'WORK-HH-MM-TIME-SY00'
ZFLD005  DFHMDF POS=(01,73),LENGTH=0005,ATTRB=(PROT),COLOR=BLUE,       X
               HILIGHT=OFF
* 'AM-PM-FLAG-SY00'
ZFLD006  DFHMDF POS=(01,79),LENGTH=0001,ATTRB=(PROT),COLOR=BLUE,       X
               HILIGHT=OFF
* 'AGR-USER-ID'
ZFLD007  DFHMDF POS=(02,01),LENGTH=0008,ATTRB=(PROT),COLOR=BLUE,       X
               HILIGHT=OFF
         DFHMDF POS=(02,10),LENGTH=0,ATTRB=(ASKIP,NORM)
* 'CURR-RSPNS-ID-SY00'
ZFLD008  DFHMDF POS=(02,21),LENGTH=0008,ATTRB=(PROT,BRT),              X
               COLOR=DEFAULT,HILIGHT=OFF
         DFHMDF POS=(02,30),LENGTH=0001,ATTRB=(PROT,ASKIP,BRT),        X
               INITIAL=':',COLOR=DEFAULT,HILIGHT=OFF
* 'AGR-FUNC-DESCRIPTION'
ZFLD009  DFHMDF POS=(02,32),LENGTH=0028,ATTRB=(PROT,BRT),              X
               COLOR=DEFAULT,HILIGHT=OFF
         DFHMDF POS=(02,61),LENGTH=0,ATTRB=(ASKIP,NORM)
* 'PAGE-STATUS-CODE-SY00'
ZFLD010  DFHMDF POS=(02,64),LENGTH=0010,ATTRB=(PROT,BRT),              X
               COLOR=DEFAULT,HILIGHT=OFF
         DFHMDF POS=(02,75),LENGTH=0,ATTRB=(ASKIP,NORM)
         DFHMDF POS=(05,01),LENGTH=0007,ATTRB=(PROT,ASKIP),            X
               INITIAL='VENDOR:',COLOR=BLUE,HILIGHT=OFF
* 'VNDR-ID-LAST-NINE-AP06'
ZFLD011  DFHMDF POS=(05,09),LENGTH=0009,ATTRB=(UNPROT,IC),             X
               COLOR=DEFAULT,HILIGHT=UNDERLINE
         DFHMDF POS=(05,19),LENGTH=0,ATTRB=(ASKIP,NORM)
* 'NAME-KEY-AP06'
ZFLD012  DFHMDF POS=(05,20),LENGTH=0035,ATTRB=(PROT),COLOR=TURQUOISE,  X
               HILIGHT=OFF
         DFHMDF POS=(05,56),LENGTH=0,ATTRB=(ASKIP,NORM)
         DFHMDF POS=(07,01),LENGTH=0077,ATTRB=(PROT,ASKIP),            X
               INITIAL='SEL DOCUMENT  CHK DATE  CHK NO      REPORT  AMTX
                  FED WITHHELD STATE WITHHELD',COLOR=BLUE,HILIGHT=OFF
         DFHMDF POS=(07,80),LENGTH=0005,ATTRB=(PROT,ASKIP),            X
               INITIAL='(L/S)',COLOR=BLUE,HILIGHT=OFF
* 'ACTN-CODE-AP06'
ZFLD013  DFHMDF POS=(09,02),LENGTH=0001,ATTRB=(UNPROT),COLOR=DEFAULT,  X
               HILIGHT=OFF
         DFHMDF POS=(09,04),LENGTH=0,ATTRB=(ASKIP,NORM)
* 'DCMNT-NMBR-AP06'
ZFLD014  DFHMDF POS=(09,05),LENGTH=0008,ATTRB=(PROT),COLOR=TURQUOISE,  X
               HILIGHT=OFF
         DFHMDF POS=(09,14),LENGTH=0,ATTRB=(ASKIP,NORM)
* 'CHECK-DATE-AP06'
ZFLD015  DFHMDF POS=(09,15),LENGTH=0008,ATTRB=(PROT,ASKIP),            X
               COLOR=TURQUOISE,HILIGHT=OFF
         DFHMDF POS=(09,24),LENGTH=0,ATTRB=(ASKIP,NORM)
* 'CHECK-NMBR-AP06'
ZFLD016  DFHMDF POS=(09,25),LENGTH=0008,ATTRB=(PROT),COLOR=TURQUOISE,  X
               HILIGHT=OFF
         DFHMDF POS=(09,34),LENGTH=0,ATTRB=(ASKIP,NORM)
* 'RPRT-AMT-AP06'
ZFLD017  DFHMDF POS=(09,37),LENGTH=0013,ATTRB=(PROT,ASKIP),            X
               COLOR=TURQUOISE,HILIGHT=OFF
         DFHMDF POS=(09,51),LENGTH=0,ATTRB=(ASKIP,NORM)
* 'FDRL-WTHHLD-AP06'
ZFLD018  DFHMDF POS=(09,53),LENGTH=0009,ATTRB=(PROT,ASKIP),            X
               COLOR=TURQUOISE,HILIGHT=OFF
         DFHMDF POS=(09,63),LENGTH=0,ATTRB=(ASKIP,NORM)
* 'STATE-WTHHLD-AP06'
ZFLD019  DFHMDF POS=(09,65),LENGTH=0009,ATTRB=(PROT,ASKIP),            X
               COLOR=TURQUOISE,HILIGHT=OFF
         DFHMDF POS=(09,75),LENGTH=0,ATTRB=(ASKIP,NORM)
* 'ACTN-CODE-AP06'
ZFLD020  DFHMDF POS=(10,02),LENGTH=0001,ATTRB=(UNPROT),COLOR=DEFAULT,  X
               HILIGHT=OFF
         DFHMDF POS=(10,04),LENGTH=0,ATTRB=(ASKIP,NORM)
* 'DCMNT-NMBR-AP06'
ZFLD021  DFHMDF POS=(10,05),LENGTH=0008,ATTRB=(PROT),COLOR=TURQUOISE,  X
               HILIGHT=OFF
         DFHMDF POS=(10,14),LENGTH=0,ATTRB=(ASKIP,NORM)
* 'CHECK-DATE-AP06'
ZFLD022  DFHMDF POS=(10,15),LENGTH=0008,ATTRB=(PROT,ASKIP),            X
               COLOR=TURQUOISE,HILIGHT=OFF
         DFHMDF POS=(10,24),LENGTH=0,ATTRB=(ASKIP,NORM)
* 'CHECK-NMBR-AP06'
ZFLD023  DFHMDF POS=(10,25),LENGTH=0008,ATTRB=(PROT),COLOR=TURQUOISE,  X
               HILIGHT=OFF
         DFHMDF POS=(10,34),LENGTH=0,ATTRB=(ASKIP,NORM)
* 'RPRT-AMT-AP06'
ZFLD024  DFHMDF POS=(10,37),LENGTH=0013,ATTRB=(PROT,ASKIP),            X
               COLOR=TURQUOISE,HILIGHT=OFF
         DFHMDF POS=(10,51),LENGTH=0,ATTRB=(ASKIP,NORM)
* 'FDRL-WTHHLD-AP06'
ZFLD025  DFHMDF POS=(10,53),LENGTH=0009,ATTRB=(PROT,ASKIP),            X
               COLOR=TURQUOISE,HILIGHT=OFF
         DFHMDF POS=(10,63),LENGTH=0,ATTRB=(ASKIP,NORM)
* 'STATE-WTHHLD-AP06'
ZFLD026  DFHMDF POS=(10,65),LENGTH=0009,ATTRB=(PROT,ASKIP),            X
               COLOR=TURQUOISE,HILIGHT=OFF
         DFHMDF POS=(10,75),LENGTH=0,ATTRB=(ASKIP,NORM)
* 'ACTN-CODE-AP06'
ZFLD027  DFHMDF POS=(11,02),LENGTH=0001,ATTRB=(UNPROT),COLOR=DEFAULT,  X
               HILIGHT=OFF
         DFHMDF POS=(11,04),LENGTH=0,ATTRB=(ASKIP,NORM)
* 'DCMNT-NMBR-AP06'
ZFLD028  DFHMDF POS=(11,05),LENGTH=0008,ATTRB=(PROT),COLOR=TURQUOISE,  X
               HILIGHT=OFF
         DFHMDF POS=(11,14),LENGTH=0,ATTRB=(ASKIP,NORM)
* 'CHECK-DATE-AP06'
ZFLD029  DFHMDF POS=(11,15),LENGTH=0008,ATTRB=(PROT,ASKIP),            X
               COLOR=TURQUOISE,HILIGHT=OFF
         DFHMDF POS=(11,24),LENGTH=0,ATTRB=(ASKIP,NORM)
* 'CHECK-NMBR-AP06'
ZFLD030  DFHMDF POS=(11,25),LENGTH=0008,ATTRB=(PROT),COLOR=TURQUOISE,  X
               HILIGHT=OFF
         DFHMDF POS=(11,34),LENGTH=0,ATTRB=(ASKIP,NORM)
* 'RPRT-AMT-AP06'
ZFLD031  DFHMDF POS=(11,37),LENGTH=0013,ATTRB=(PROT,ASKIP),            X
               COLOR=TURQUOISE,HILIGHT=OFF
         DFHMDF POS=(11,51),LENGTH=0,ATTRB=(ASKIP,NORM)
* 'FDRL-WTHHLD-AP06'
ZFLD032  DFHMDF POS=(11,53),LENGTH=0009,ATTRB=(PROT,ASKIP),            X
               COLOR=TURQUOISE,HILIGHT=OFF
         DFHMDF POS=(11,63),LENGTH=0,ATTRB=(ASKIP,NORM)
* 'STATE-WTHHLD-AP06'
ZFLD033  DFHMDF POS=(11,65),LENGTH=0009,ATTRB=(PROT,ASKIP),            X
               COLOR=TURQUOISE,HILIGHT=OFF
         DFHMDF POS=(11,75),LENGTH=0,ATTRB=(ASKIP,NORM)
* 'ACTN-CODE-AP06'
ZFLD034  DFHMDF POS=(12,02),LENGTH=0001,ATTRB=(UNPROT),COLOR=DEFAULT,  X
               HILIGHT=OFF
         DFHMDF POS=(12,04),LENGTH=0,ATTRB=(ASKIP,NORM)
* 'DCMNT-NMBR-AP06'
ZFLD035  DFHMDF POS=(12,05),LENGTH=0008,ATTRB=(PROT),COLOR=TURQUOISE,  X
               HILIGHT=OFF
         DFHMDF POS=(12,14),LENGTH=0,ATTRB=(ASKIP,NORM)
* 'CHECK-DATE-AP06'
ZFLD036  DFHMDF POS=(12,15),LENGTH=0008,ATTRB=(PROT,ASKIP),            X
               COLOR=TURQUOISE,HILIGHT=OFF
         DFHMDF POS=(12,24),LENGTH=0,ATTRB=(ASKIP,NORM)
* 'CHECK-NMBR-AP06'
ZFLD037  DFHMDF POS=(12,25),LENGTH=0008,ATTRB=(PROT),COLOR=TURQUOISE,  X
               HILIGHT=OFF
         DFHMDF POS=(12,34),LENGTH=0,ATTRB=(ASKIP,NORM)
* 'RPRT-AMT-AP06'
ZFLD038  DFHMDF POS=(12,37),LENGTH=0013,ATTRB=(PROT,ASKIP),            X
               COLOR=TURQUOISE,HILIGHT=OFF
         DFHMDF POS=(12,51),LENGTH=0,ATTRB=(ASKIP,NORM)
* 'FDRL-WTHHLD-AP06'
ZFLD039  DFHMDF POS=(12,53),LENGTH=0009,ATTRB=(PROT,ASKIP),            X
               COLOR=TURQUOISE,HILIGHT=OFF
         DFHMDF POS=(12,63),LENGTH=0,ATTRB=(ASKIP,NORM)
* 'STATE-WTHHLD-AP06'
ZFLD040  DFHMDF POS=(12,65),LENGTH=0009,ATTRB=(PROT,ASKIP),            X
               COLOR=TURQUOISE,HILIGHT=OFF
         DFHMDF POS=(12,75),LENGTH=0,ATTRB=(ASKIP,NORM)
* 'ACTN-CODE-AP06'
ZFLD041  DFHMDF POS=(13,02),LENGTH=0001,ATTRB=(UNPROT),COLOR=DEFAULT,  X
               HILIGHT=OFF
         DFHMDF POS=(13,04),LENGTH=0,ATTRB=(ASKIP,NORM)
* 'DCMNT-NMBR-AP06'
ZFLD042  DFHMDF POS=(13,05),LENGTH=0008,ATTRB=(PROT),COLOR=TURQUOISE,  X
               HILIGHT=OFF
         DFHMDF POS=(13,14),LENGTH=0,ATTRB=(ASKIP,NORM)
* 'CHECK-DATE-AP06'
ZFLD043  DFHMDF POS=(13,15),LENGTH=0008,ATTRB=(PROT,ASKIP),            X
               COLOR=TURQUOISE,HILIGHT=OFF
         DFHMDF POS=(13,24),LENGTH=0,ATTRB=(ASKIP,NORM)
* 'CHECK-NMBR-AP06'
ZFLD044  DFHMDF POS=(13,25),LENGTH=0008,ATTRB=(PROT),COLOR=TURQUOISE,  X
               HILIGHT=OFF
         DFHMDF POS=(13,34),LENGTH=0,ATTRB=(ASKIP,NORM)
* 'RPRT-AMT-AP06'
ZFLD045  DFHMDF POS=(13,37),LENGTH=0013,ATTRB=(PROT,ASKIP),            X
               COLOR=TURQUOISE,HILIGHT=OFF
         DFHMDF POS=(13,51),LENGTH=0,ATTRB=(ASKIP,NORM)
* 'FDRL-WTHHLD-AP06'
ZFLD046  DFHMDF POS=(13,53),LENGTH=0009,ATTRB=(PROT,ASKIP),            X
               COLOR=TURQUOISE,HILIGHT=OFF
         DFHMDF POS=(13,63),LENGTH=0,ATTRB=(ASKIP,NORM)
* 'STATE-WTHHLD-AP06'
ZFLD047  DFHMDF POS=(13,65),LENGTH=0009,ATTRB=(PROT,ASKIP),            X
               COLOR=TURQUOISE,HILIGHT=OFF
         DFHMDF POS=(13,75),LENGTH=0,ATTRB=(ASKIP,NORM)
* 'ACTN-CODE-AP06'
ZFLD048  DFHMDF POS=(14,02),LENGTH=0001,ATTRB=(UNPROT),COLOR=DEFAULT,  X
               HILIGHT=OFF
         DFHMDF POS=(14,04),LENGTH=0,ATTRB=(ASKIP,NORM)
* 'DCMNT-NMBR-AP06'
ZFLD049  DFHMDF POS=(14,05),LENGTH=0008,ATTRB=(PROT),COLOR=TURQUOISE,  X
               HILIGHT=OFF
         DFHMDF POS=(14,14),LENGTH=0,ATTRB=(ASKIP,NORM)
* 'CHECK-DATE-AP06'
ZFLD050  DFHMDF POS=(14,15),LENGTH=0008,ATTRB=(PROT,ASKIP),            X
               COLOR=TURQUOISE,HILIGHT=OFF
         DFHMDF POS=(14,24),LENGTH=0,ATTRB=(ASKIP,NORM)
* 'CHECK-NMBR-AP06'
ZFLD051  DFHMDF POS=(14,25),LENGTH=0008,ATTRB=(PROT),COLOR=TURQUOISE,  X
               HILIGHT=OFF
         DFHMDF POS=(14,34),LENGTH=0,ATTRB=(ASKIP,NORM)
* 'RPRT-AMT-AP06'
ZFLD052  DFHMDF POS=(14,37),LENGTH=0013,ATTRB=(PROT,ASKIP),            X
               COLOR=TURQUOISE,HILIGHT=OFF
         DFHMDF POS=(14,51),LENGTH=0,ATTRB=(ASKIP,NORM)
* 'FDRL-WTHHLD-AP06'
ZFLD053  DFHMDF POS=(14,53),LENGTH=0009,ATTRB=(PROT,ASKIP),            X
               COLOR=TURQUOISE,HILIGHT=OFF
         DFHMDF POS=(14,63),LENGTH=0,ATTRB=(ASKIP,NORM)
* 'STATE-WTHHLD-AP06'
ZFLD054  DFHMDF POS=(14,65),LENGTH=0009,ATTRB=(PROT,ASKIP),            X
               COLOR=TURQUOISE,HILIGHT=OFF
         DFHMDF POS=(14,75),LENGTH=0,ATTRB=(ASKIP,NORM)
* 'ACTN-CODE-AP06'
ZFLD055  DFHMDF POS=(15,02),LENGTH=0001,ATTRB=(UNPROT),COLOR=DEFAULT,  X
               HILIGHT=OFF
         DFHMDF POS=(15,04),LENGTH=0,ATTRB=(ASKIP,NORM)
* 'DCMNT-NMBR-AP06'
ZFLD056  DFHMDF POS=(15,05),LENGTH=0008,ATTRB=(PROT),COLOR=TURQUOISE,  X
               HILIGHT=OFF
         DFHMDF POS=(15,14),LENGTH=0,ATTRB=(ASKIP,NORM)
* 'CHECK-DATE-AP06'
ZFLD057  DFHMDF POS=(15,15),LENGTH=0008,ATTRB=(PROT,ASKIP),            X
               COLOR=TURQUOISE,HILIGHT=OFF
         DFHMDF POS=(15,24),LENGTH=0,ATTRB=(ASKIP,NORM)
* 'CHECK-NMBR-AP06'
ZFLD058  DFHMDF POS=(15,25),LENGTH=0008,ATTRB=(PROT),COLOR=TURQUOISE,  X
               HILIGHT=OFF
         DFHMDF POS=(15,34),LENGTH=0,ATTRB=(ASKIP,NORM)
* 'RPRT-AMT-AP06'
ZFLD059  DFHMDF POS=(15,37),LENGTH=0013,ATTRB=(PROT,ASKIP),            X
               COLOR=TURQUOISE,HILIGHT=OFF
         DFHMDF POS=(15,51),LENGTH=0,ATTRB=(ASKIP,NORM)
* 'FDRL-WTHHLD-AP06'
ZFLD060  DFHMDF POS=(15,53),LENGTH=0009,ATTRB=(PROT,ASKIP),            X
               COLOR=TURQUOISE,HILIGHT=OFF
         DFHMDF POS=(15,63),LENGTH=0,ATTRB=(ASKIP,NORM)
* 'STATE-WTHHLD-AP06'
ZFLD061  DFHMDF POS=(15,65),LENGTH=0009,ATTRB=(PROT,ASKIP),            X
               COLOR=TURQUOISE,HILIGHT=OFF
         DFHMDF POS=(15,75),LENGTH=0,ATTRB=(ASKIP,NORM)
* 'ACTN-CODE-AP06'
ZFLD062  DFHMDF POS=(16,02),LENGTH=0001,ATTRB=(UNPROT),COLOR=DEFAULT,  X
               HILIGHT=OFF
         DFHMDF POS=(16,04),LENGTH=0,ATTRB=(ASKIP,NORM)
* 'DCMNT-NMBR-AP06'
ZFLD063  DFHMDF POS=(16,05),LENGTH=0008,ATTRB=(PROT),COLOR=TURQUOISE,  X
               HILIGHT=OFF
         DFHMDF POS=(16,14),LENGTH=0,ATTRB=(ASKIP,NORM)
* 'CHECK-DATE-AP06'
ZFLD064  DFHMDF POS=(16,15),LENGTH=0008,ATTRB=(PROT,ASKIP),            X
               COLOR=TURQUOISE,HILIGHT=OFF
         DFHMDF POS=(16,24),LENGTH=0,ATTRB=(ASKIP,NORM)
* 'CHECK-NMBR-AP06'
ZFLD065  DFHMDF POS=(16,25),LENGTH=0008,ATTRB=(PROT),COLOR=TURQUOISE,  X
               HILIGHT=OFF
         DFHMDF POS=(16,34),LENGTH=0,ATTRB=(ASKIP,NORM)
* 'RPRT-AMT-AP06'
ZFLD066  DFHMDF POS=(16,37),LENGTH=0013,ATTRB=(PROT,ASKIP),            X
               COLOR=TURQUOISE,HILIGHT=OFF
         DFHMDF POS=(16,51),LENGTH=0,ATTRB=(ASKIP,NORM)
* 'FDRL-WTHHLD-AP06'
ZFLD067  DFHMDF POS=(16,53),LENGTH=0009,ATTRB=(PROT,ASKIP),            X
               COLOR=TURQUOISE,HILIGHT=OFF
         DFHMDF POS=(16,63),LENGTH=0,ATTRB=(ASKIP,NORM)
* 'STATE-WTHHLD-AP06'
ZFLD068  DFHMDF POS=(16,65),LENGTH=0009,ATTRB=(PROT,ASKIP),            X
               COLOR=TURQUOISE,HILIGHT=OFF
         DFHMDF POS=(16,75),LENGTH=0,ATTRB=(ASKIP,NORM)
* 'ACTN-CODE-AP06'
ZFLD069  DFHMDF POS=(17,02),LENGTH=0001,ATTRB=(UNPROT),COLOR=DEFAULT,  X
               HILIGHT=OFF
         DFHMDF POS=(17,04),LENGTH=0,ATTRB=(ASKIP,NORM)
* 'DCMNT-NMBR-AP06'
ZFLD070  DFHMDF POS=(17,05),LENGTH=0008,ATTRB=(PROT),COLOR=TURQUOISE,  X
               HILIGHT=OFF
         DFHMDF POS=(17,14),LENGTH=0,ATTRB=(ASKIP,NORM)
* 'CHECK-DATE-AP06'
ZFLD071  DFHMDF POS=(17,15),LENGTH=0008,ATTRB=(PROT,ASKIP),            X
               COLOR=TURQUOISE,HILIGHT=OFF
         DFHMDF POS=(17,24),LENGTH=0,ATTRB=(ASKIP,NORM)
* 'CHECK-NMBR-AP06'
ZFLD072  DFHMDF POS=(17,25),LENGTH=0008,ATTRB=(PROT),COLOR=TURQUOISE,  X
               HILIGHT=OFF
         DFHMDF POS=(17,34),LENGTH=0,ATTRB=(ASKIP,NORM)
* 'RPRT-AMT-AP06'
ZFLD073  DFHMDF POS=(17,37),LENGTH=0013,ATTRB=(PROT,ASKIP),            X
               COLOR=TURQUOISE,HILIGHT=OFF
         DFHMDF POS=(17,51),LENGTH=0,ATTRB=(ASKIP,NORM)
* 'FDRL-WTHHLD-AP06'
ZFLD074  DFHMDF POS=(17,53),LENGTH=0009,ATTRB=(PROT,ASKIP),            X
               COLOR=TURQUOISE,HILIGHT=OFF
         DFHMDF POS=(17,63),LENGTH=0,ATTRB=(ASKIP,NORM)
* 'STATE-WTHHLD-AP06'
ZFLD075  DFHMDF POS=(17,65),LENGTH=0009,ATTRB=(PROT,ASKIP),            X
               COLOR=TURQUOISE,HILIGHT=OFF
         DFHMDF POS=(17,75),LENGTH=0,ATTRB=(ASKIP,NORM)
* 'ACTN-CODE-AP06'
ZFLD076  DFHMDF POS=(18,02),LENGTH=0001,ATTRB=(UNPROT),COLOR=DEFAULT,  X
               HILIGHT=OFF
         DFHMDF POS=(18,04),LENGTH=0,ATTRB=(ASKIP,NORM)
* 'DCMNT-NMBR-AP06'
ZFLD077  DFHMDF POS=(18,05),LENGTH=0008,ATTRB=(PROT),COLOR=TURQUOISE,  X
               HILIGHT=OFF
         DFHMDF POS=(18,14),LENGTH=0,ATTRB=(ASKIP,NORM)
* 'CHECK-DATE-AP06'
ZFLD078  DFHMDF POS=(18,15),LENGTH=0008,ATTRB=(PROT,ASKIP),            X
               COLOR=TURQUOISE,HILIGHT=OFF
         DFHMDF POS=(18,24),LENGTH=0,ATTRB=(ASKIP,NORM)
* 'CHECK-NMBR-AP06'
ZFLD079  DFHMDF POS=(18,25),LENGTH=0008,ATTRB=(PROT),COLOR=TURQUOISE,  X
               HILIGHT=OFF
         DFHMDF POS=(18,34),LENGTH=0,ATTRB=(ASKIP,NORM)
* 'RPRT-AMT-AP06'
ZFLD080  DFHMDF POS=(18,37),LENGTH=0013,ATTRB=(PROT,ASKIP),            X
               COLOR=TURQUOISE,HILIGHT=OFF
         DFHMDF POS=(18,51),LENGTH=0,ATTRB=(ASKIP,NORM)
* 'FDRL-WTHHLD-AP06'
ZFLD081  DFHMDF POS=(18,53),LENGTH=0009,ATTRB=(PROT,ASKIP),            X
               COLOR=TURQUOISE,HILIGHT=OFF
         DFHMDF POS=(18,63),LENGTH=0,ATTRB=(ASKIP,NORM)
* 'STATE-WTHHLD-AP06'
ZFLD082  DFHMDF POS=(18,65),LENGTH=0009,ATTRB=(PROT,ASKIP),            X
               COLOR=TURQUOISE,HILIGHT=OFF
         DFHMDF POS=(18,75),LENGTH=0,ATTRB=(ASKIP,NORM)
         DFHMDF POS=(20,01),LENGTH=0017,ATTRB=(PROT,ASKIP),            X
               INITIAL='DOCUMENT REQUEST:',COLOR=BLUE,HILIGHT=OFF
* 'RQST-DCMNT-NMBR-AP06'
ZFLD083  DFHMDF POS=(20,19),LENGTH=0008,ATTRB=(UNPROT),COLOR=DEFAULT,  X
               HILIGHT=UNDERLINE
         DFHMDF POS=(20,28),LENGTH=0,ATTRB=(ASKIP,NORM)
         DFHMDF POS=(20,29),LENGTH=0007,ATTRB=(PROT,ASKIP),            X
               INITIAL='TOTALS:',COLOR=BLUE,HILIGHT=OFF
* 'MAP-TOT-RPT-AMT-AP06'
ZFLD084  DFHMDF POS=(20,37),LENGTH=0013,ATTRB=(PROT,ASKIP),            X
               COLOR=TURQUOISE,HILIGHT=OFF
         DFHMDF POS=(20,51),LENGTH=0,ATTRB=(ASKIP,NORM)
* 'MAP-TOT-FDRL-WTHHLD-AP06'
ZFLD085  DFHMDF POS=(20,53),LENGTH=0009,ATTRB=(PROT,ASKIP),            X
               COLOR=TURQUOISE,HILIGHT=OFF
         DFHMDF POS=(20,63),LENGTH=0,ATTRB=(ASKIP,NORM)
* 'MAP-TOT-STATE-WTHHLD-AP06'
ZFLD086  DFHMDF POS=(20,65),LENGTH=0009,ATTRB=(PROT,ASKIP),            X
               COLOR=TURQUOISE,HILIGHT=OFF
         DFHMDF POS=(20,75),LENGTH=0,ATTRB=(ASKIP,NORM)
* 'DCLINK-MESSAGE'
ZFLD087  DFHMDF POS=(21,80),LENGTH=0160,ATTRB=(PROT,BRT),              X
               COLOR=DEFAULT,HILIGHT=OFF
         DFHMDF POS=(24,01),LENGTH=0012,ATTRB=(PROT,ASKIP,NUM),        X
               INITIAL='NEXT SCREEN:',COLOR=BLUE,HILIGHT=OFF
* 'AGR-PASSED-ONE'
ZFLD088  DFHMDF POS=(24,14),LENGTH=0030,ATTRB=(UNPROT),COLOR=DEFAULT,  X
               HILIGHT=UNDERLINE
         DFHMDF POS=(24,45),LENGTH=0009,ATTRB=(PROT,ASKIP),            X
               INITIAL='RESPONSE:',COLOR=BLUE,HILIGHT=OFF
* 'AGR-MAP-RESPONSE'
ZFLD089  DFHMDF POS=(24,55),LENGTH=0008,ATTRB=(UNPROT),COLOR=DEFAULT,  X
               HILIGHT=UNDERLINE
         DFHMDF POS=(24,64),LENGTH=0,ATTRB=(ASKIP,NORM)
* 'ERROR-TEXT-SY00'
ZFLD090  DFHMDF POS=(24,65),LENGTH=0014,ATTRB=(PROT,DRK),              X
               COLOR=DEFAULT,HILIGHT=OFF
         DFHMSD TYPE=FINAL
         END
