FAPMU02  DFHMSD TYPE=MAP,LANG=COBOL,TERM=3270,MODE=INOUT,              X
               TIOAPFX=YES,MAPATTS=(COLOR,HILIGHT),                    X
               DSATTS=(COLOR,HILIGHT)
FAPMU02  DFHMDI SIZE=(24,80),LINE=1,COLUMN=1,CTRL=FREEKB,TIOAPFX=YES
         DFHMDF POS=(01,01),LENGTH=0007,ATTRB=(PROT,ASKIP),            X
               INITIAL='FAPMU02',COLOR=BLUE,HILIGHT=OFF
* 'TRMNL-ID-SY00'
ZFLD002  DFHMDF POS=(01,10),LENGTH=0008,ATTRB=(PROT),COLOR=BLUE,       X
               HILIGHT=OFF
         DFHMDF POS=(01,19),LENGTH=0,ATTRB=(ASKIP,NORM)
* 'FULL-NAME-6001-SY00'
ZFLD003  DFHMDF POS=(01,23),LENGTH=0035,ATTRB=(PROT),COLOR=BLUE,       X
               HILIGHT=OFF
         DFHMDF POS=(01,59),LENGTH=0,ATTRB=(ASKIP,NORM)
* 'AGR-DATE'
ZFLD004  DFHMDF POS=(01,64),LENGTH=0008,ATTRB=(PROT),COLOR=BLUE,       X
               HILIGHT=OFF
* 'WORK-HH-MM-TIME-SY00'
ZFLD005  DFHMDF POS=(01,73),LENGTH=0005,ATTRB=(PROT),COLOR=BLUE,       X
               HILIGHT=OFF
* 'AM-PM-FLAG-SY00'
ZFLD006  DFHMDF POS=(01,79),LENGTH=0001,ATTRB=(PROT),COLOR=BLUE,       X
               HILIGHT=OFF
* 'AGR-USER-ID'
ZFLD007  DFHMDF POS=(02,01),LENGTH=0008,ATTRB=(PROT),COLOR=BLUE,       X
               HILIGHT=OFF
         DFHMDF POS=(02,10),LENGTH=0,ATTRB=(ASKIP,NORM)
* 'CURR-RSPNS-ID-SY00'
ZFLD008  DFHMDF POS=(02,21),LENGTH=0008,ATTRB=(PROT,BRT),              X
               COLOR=DEFAULT,HILIGHT=OFF
         DFHMDF POS=(02,30),LENGTH=0001,ATTRB=(PROT,ASKIP,BRT),        X
               INITIAL=':',COLOR=DEFAULT,HILIGHT=OFF
* 'AGR-FUNC-DESCRIPTION'
ZFLD009  DFHMDF POS=(02,32),LENGTH=0028,ATTRB=(PROT,BRT),              X
               COLOR=DEFAULT,HILIGHT=OFF
         DFHMDF POS=(02,61),LENGTH=0,ATTRB=(ASKIP,NORM)
* 'PAGE-STATUS-CODE-SY00'
ZFLD010  DFHMDF POS=(02,64),LENGTH=0010,ATTRB=(PROT,BRT),              X
               COLOR=DEFAULT,HILIGHT=OFF
         DFHMDF POS=(02,75),LENGTH=0,ATTRB=(ASKIP,NORM)
         DFHMDF POS=(04,05),LENGTH=0011,ATTRB=(PROT,ASKIP),            X
               INITIAL='DOCUMENT #:',COLOR=BLUE,HILIGHT=OFF
* 'DCMNT-NMBR-4150-AP02'
ZFLD011  DFHMDF POS=(04,17),LENGTH=0008,ATTRB=(UNPROT,IC),             X
               COLOR=DEFAULT,HILIGHT=UNDERLINE
         DFHMDF POS=(04,26),LENGTH=0,ATTRB=(ASKIP,NORM)
         DFHMDF POS=(04,34),LENGTH=0017,ATTRB=(PROT,ASKIP),            X
               INITIAL='PURCHASE ORDER #:',COLOR=BLUE,HILIGHT=OFF
* 'PO-NMBR-4150-AP02'
ZFLD012  DFHMDF POS=(04,52),LENGTH=0008,ATTRB=(PROT,ASKIP),            X
               COLOR=TURQUOISE,HILIGHT=OFF
         DFHMDF POS=(04,61),LENGTH=0004,ATTRB=(PROT,ASKIP),            X
               INITIAL='#CO:',COLOR=BLUE,HILIGHT=OFF
* 'TOTAL-C-O-AP02'
ZFLD013  DFHMDF POS=(04,66),LENGTH=0003,ATTRB=(PROT),COLOR=TURQUOISE,  X
               HILIGHT=OFF
         DFHMDF POS=(04,70),LENGTH=0,ATTRB=(ASKIP,NORM)
         DFHMDF POS=(05,05),LENGTH=0011,ATTRB=(PROT,ASKIP),            X
               INITIAL='VENDOR    :',COLOR=BLUE,HILIGHT=OFF
* 'VNDR-CODE-4150-AP02'
ZFLD014  DFHMDF POS=(05,17),LENGTH=0009,ATTRB=(PROT,ASKIP),            X
               COLOR=TURQUOISE,HILIGHT=OFF
* 'VNDR-NAME-AP02'
ZFLD015  DFHMDF POS=(05,27),LENGTH=0035,ATTRB=(PROT),COLOR=TURQUOISE,  X
               HILIGHT=OFF
         DFHMDF POS=(05,63),LENGTH=0,ATTRB=(ASKIP,NORM)
         DFHMDF POS=(05,65),LENGTH=0011,ATTRB=(PROT,ASKIP),            X
               INITIAL='TOL. OVRDE:',COLOR=BLUE,HILIGHT=OFF
* 'TLRNC-OVRDE-IND-4151-AP02'
ZFLD029  DFHMDF POS=(05,77),LENGTH=0001,ATTRB=(UNPROT),COLOR=DEFAULT,  X
               HILIGHT=UNDERLINE
         DFHMDF POS=(05,79),LENGTH=0,ATTRB=(ASKIP,NORM)
         DFHMDF POS=(06,01),LENGTH=0010,ATTRB=(PROT,ASKIP),            X
               INITIAL='ACT (ACD):',COLOR=BLUE,HILIGHT=OFF
* 'ACTN-CODE-AP02'
ZFLD016  DFHMDF POS=(06,12),LENGTH=0001,ATTRB=(UNPROT),COLOR=DEFAULT,  X
               HILIGHT=OFF
         DFHMDF POS=(06,14),LENGTH=0,ATTRB=(ASKIP,NORM)
         DFHMDF POS=(06,22),LENGTH=0010,ATTRB=(PROT,ASKIP),            X
               INITIAL='COMM ERRS:',COLOR=BLUE,HILIGHT=OFF
* 'DTL-ERROR-IND-AP02'
ZFLD017  DFHMDF POS=(06,33),LENGTH=0001,ATTRB=(PROT,ASKIP),            X
               COLOR=TURQUOISE,HILIGHT=OFF
         DFHMDF POS=(06,35),LENGTH=0,ATTRB=(ASKIP,NORM)
         DFHMDF POS=(06,42),LENGTH=0010,ATTRB=(PROT,ASKIP),            X
               INITIAL='DOC TXT  :',COLOR=BLUE,HILIGHT=OFF
* 'DOC-TEXT-IND-AP02'
ZFLDDOC  DFHMDF POS=(06,53),LENGTH=0001,ATTRB=(UNPROT),                X
               COLOR=DEFAULT,HILIGHT=UNDERLINE
         DFHMDF POS=(06,55),LENGTH=0,ATTRB=(ASKIP,NORM)
         DFHMDF POS=(06,60),LENGTH=0016,ATTRB=(PROT,ASKIP),            X
               INITIAL='AWARD TXT      :',COLOR=BLUE,HILIGHT=OFF
* 'AWARD-TEXT-IND-AP02'
ZFLDAWD  DFHMDF POS=(06,77),LENGTH=0001,ATTRB=(UNPROT),COLOR=DEFAULT,  X
               HILIGHT=UNDERLINE
         DFHMDF POS=(06,79),LENGTH=0,ATTRB=(ASKIP,NORM)
         DFHMDF POS=(07,06),LENGTH=0005,ATTRB=(PROT,ASKIP),            X
               INITIAL='ITEM:',COLOR=BLUE,HILIGHT=OFF
* 'ITEM-NMBR-4151-AP02'
ZFLD019  DFHMDF POS=(07,12),LENGTH=0004,ATTRB=(UNPROT),COLOR=DEFAULT,  X
               HILIGHT=UNDERLINE
         DFHMDF POS=(07,17),LENGTH=0,ATTRB=(ASKIP,NORM)
         DFHMDF POS=(07,22),LENGTH=0010,ATTRB=(PROT,ASKIP),            X
               INITIAL='P.O. ITEM:',COLOR=BLUE,HILIGHT=OFF
* 'PO-ITEM-NMBR-4151-AP02'
ZFLD021  DFHMDF POS=(07,33),LENGTH=0004,ATTRB=(UNPROT),COLOR=DEFAULT,  X
               HILIGHT=UNDERLINE
         DFHMDF POS=(07,38),LENGTH=0,ATTRB=(ASKIP,NORM)
         DFHMDF POS=(07,42),LENGTH=0010,ATTRB=(PROT,ASKIP),            X
               INITIAL='ACCT ERRS:',COLOR=BLUE,HILIGHT=OFF
* 'DTL-CNTR-ACCT-AP02'
ZFLD018  DFHMDF POS=(07,53),LENGTH=0004,ATTRB=(PROT,ASKIP),            X
               COLOR=TURQUOISE,HILIGHT=OFF
         DFHMDF POS=(07,58),LENGTH=0,ATTRB=(ASKIP,NORM)
         DFHMDF POS=(07,60),LENGTH=0016,ATTRB=(PROT,ASKIP),            X
               INITIAL='TRADE IN       :',COLOR=BLUE,HILIGHT=OFF
* 'TRADE-IN-IND-AP02'
ZFLD057  DFHMDF POS=(07,77),LENGTH=0001,ATTRB=(UNPROT),COLOR=DEFAULT,  X
               HILIGHT=UNDERLINE
         DFHMDF POS=(07,79),LENGTH=0,ATTRB=(ASKIP,NORM)
         DFHMDF POS=(08,01),LENGTH=0010,ATTRB=(PROT,ASKIP),            X
               INITIAL='COMMODITY:',COLOR=BLUE,HILIGHT=OFF
* 'CMDTY-CODE-4151-AP02'
ZFLD023  DFHMDF POS=(08,12),LENGTH=0008,ATTRB=(UNPROT),COLOR=DEFAULT,  X
               HILIGHT=UNDERLINE
         DFHMDF POS=(08,21),LENGTH=0,ATTRB=(ASKIP,NORM)
* 'CMDTY-DESC-4151-AP02'
ZFLD024  DFHMDF POS=(08,22),LENGTH=0035,ATTRB=(UNPROT),COLOR=DEFAULT,  X
               HILIGHT=UNDERLINE
         DFHMDF POS=(08,58),LENGTH=0,ATTRB=(ASKIP,NORM)
         DFHMDF POS=(08,60),LENGTH=0016,ATTRB=(PROT,ASKIP),            X
               INITIAL='PO TAX IND     :',COLOR=BLUE,HILIGHT=OFF
* 'TAX-IND-AP02'
ZFLD022  DFHMDF POS=(08,77),LENGTH=0001,ATTRB=(PROT),COLOR=TURQUOISE,  X
               HILIGHT=OFF
         DFHMDF POS=(08,79),LENGTH=0,ATTRB=(ASKIP,NORM)
         DFHMDF POS=(09,01),LENGTH=0010,ATTRB=(PROT,ASKIP),            X
               INITIAL='U/M      :',COLOR=BLUE,HILIGHT=OFF
* 'UNIT-MEA-CODE-4151-AP02'
ZFLD026  DFHMDF POS=(09,12),LENGTH=0003,ATTRB=(UNPROT),COLOR=DEFAULT,  X
               HILIGHT=UNDERLINE
         DFHMDF POS=(09,16),LENGTH=0,ATTRB=(ASKIP,NORM)
* 'UNIT-MEA-DESC-4075-AP02'
ZFLD027  DFHMDF POS=(09,22),LENGTH=0035,ATTRB=(PROT),COLOR=TURQUOISE,  X
               HILIGHT=OFF
         DFHMDF POS=(09,58),LENGTH=0,ATTRB=(ASKIP,NORM)
         DFHMDF POS=(09,60),LENGTH=0016,ATTRB=(PROT,ASKIP),            X
               INITIAL='ADD COMMODITY? :',COLOR=BLUE,HILIGHT=OFF
* 'CMDTY-ADD-IND-AP02'
ZFLD025  DFHMDF POS=(09,77),LENGTH=0001,ATTRB=(UNPROT),COLOR=DEFAULT,  X
               HILIGHT=UNDERLINE
         DFHMDF POS=(09,79),LENGTH=0,ATTRB=(ASKIP,NORM)
         DFHMDF POS=(10,01),LENGTH=0014,ATTRB=(PROT,ASKIP),            X
               INITIAL='PO ITEM TOTAL:',COLOR=BLUE,HILIGHT=OFF
* 'PO-ITEM-TOTAL-AP02'
ZFLD030  DFHMDF POS=(10,17),LENGTH=0012,ATTRB=(PROT,ASKIP),            X
               COLOR=TURQUOISE,HILIGHT=OFF
         DFHMDF POS=(10,30),LENGTH=0,ATTRB=(ASKIP,NORM)
         DFHMDF POS=(10,48),LENGTH=0014,ATTRB=(PROT,ASKIP),            X
               INITIAL='PAID BY CHECK:',COLOR=BLUE,HILIGHT=OFF
* 'PREV-PAID-AMT-AP02'
ZFLD031  DFHMDF POS=(10,63),LENGTH=0016,ATTRB=(PROT),COLOR=TURQUOISE,  X
               HILIGHT=OFF
         DFHMDF POS=(10,80),LENGTH=0,ATTRB=(ASKIP,NORM)
         DFHMDF POS=(11,01),LENGTH=0014,ATTRB=(PROT,ASKIP),            X
               INITIAL='PO ITEM LEFT :',COLOR=BLUE,HILIGHT=OFF
* 'PO-ITEM-LEFT-AP02'
ZFLD032  DFHMDF POS=(11,16),LENGTH=0013,ATTRB=(PROT,ASKIP),            X
               COLOR=TURQUOISE,HILIGHT=OFF
         DFHMDF POS=(11,30),LENGTH=0,ATTRB=(ASKIP,NORM)
         DFHMDF POS=(11,48),LENGTH=0014,ATTRB=(PROT,ASKIP),            X
               INITIAL='LEFT TO PAY  :',COLOR=BLUE,HILIGHT=OFF
* 'TO-BE-PAID-AMT-AP02'
ZFLD033  DFHMDF POS=(11,63),LENGTH=0016,ATTRB=(PROT),COLOR=TURQUOISE,  X
               HILIGHT=OFF
         DFHMDF POS=(11,80),LENGTH=0,ATTRB=(ASKIP,NORM)
         DFHMDF POS=(12,01),LENGTH=0076,ATTRB=(PROT,ASKIP),            X
               INITIAL='          QUANTITY       UNIT PRICE     EXTENDEX
               D PRICE               PO INFO',COLOR=BLUE,HILIGHT=OFF
         DFHMDF POS=(13,01),LENGTH=0007,ATTRB=(PROT,ASKIP),            X
               INITIAL='ORDERED',COLOR=BLUE,HILIGHT=OFF
* 'ORDRD-QTY-4085-AP02'
ZFLD034  DFHMDF POS=(13,10),LENGTH=0010,ATTRB=(PROT),COLOR=TURQUOISE,  X
               HILIGHT=OFF
* 'ORDRD-UNIT-PRICE-4085-AP02'
ZFLD035  DFHMDF POS=(13,21),LENGTH=0018,ATTRB=(PROT),COLOR=TURQUOISE,  X
               HILIGHT=OFF
* 'ORDRD-EXTND-PRICE-AP02'
ZFLD036  DFHMDF POS=(13,40),LENGTH=0016,ATTRB=(PROT),COLOR=TURQUOISE,  X
               HILIGHT=OFF
         DFHMDF POS=(13,57),LENGTH=0,ATTRB=(ASKIP,NORM)
         DFHMDF POS=(13,58),LENGTH=0010,ATTRB=(PROT,ASKIP),            X
               INITIAL='  ORDERED:',COLOR=BLUE,HILIGHT=OFF
* 'TOTAL-AMT-ORDERED-AP02'
ZFLD037  DFHMDF POS=(13,69),LENGTH=0011,ATTRB=(PROT,ASKIP),            X
               COLOR=TURQUOISE,HILIGHT=OFF
         DFHMDF POS=(14,01),LENGTH=0008,ATTRB=(PROT,ASKIP),            X
               INITIAL='ACCEPTED',COLOR=BLUE,HILIGHT=OFF
* 'ACCPT-QTY-4151-AP02'
ZFLD038  DFHMDF POS=(14,10),LENGTH=0010,ATTRB=(PROT),COLOR=TURQUOISE,  X
               HILIGHT=OFF
* 'ACCPT-UNIT-PRICE-4151-AP02'
ZFLD039  DFHMDF POS=(14,21),LENGTH=0018,ATTRB=(PROT),COLOR=TURQUOISE,  X
               HILIGHT=OFF
* 'ACCPT-EXTND-PRICE-AP02'
ZFLD040  DFHMDF POS=(14,40),LENGTH=0016,ATTRB=(PROT),COLOR=TURQUOISE,  X
               HILIGHT=OFF
         DFHMDF POS=(14,57),LENGTH=0,ATTRB=(ASKIP,NORM)
         DFHMDF POS=(14,58),LENGTH=0010,ATTRB=(PROT,ASKIP),            X
               INITIAL='- PO DISC:',COLOR=BLUE,HILIGHT=OFF
* 'PO-DSCNT-AMT-AP02'
ZFLD041  DFHMDF POS=(14,69),LENGTH=0011,ATTRB=(PROT,ASKIP),            X
               COLOR=TURQUOISE,HILIGHT=OFF
         DFHMDF POS=(15,01),LENGTH=0008,ATTRB=(PROT,ASKIP),            X
               INITIAL='INVOICED',COLOR=BLUE,HILIGHT=OFF
* 'INVD-QTY-4151-AP02'
ZFLD042  DFHMDF POS=(15,10),LENGTH=0010,ATTRB=(UNPROT),COLOR=DEFAULT,  X
               HILIGHT=UNDERLINE
* 'INVD-UNIT-PRICE-4151-AP02'
ZFLD043  DFHMDF POS=(15,21),LENGTH=0018,ATTRB=(UNPROT),COLOR=DEFAULT,  X
               HILIGHT=UNDERLINE
* 'INVD-EXTND-PRICE-AP02'
ZFLD044  DFHMDF POS=(15,40),LENGTH=0016,ATTRB=(PROT,ASKIP),            X
               COLOR=TURQUOISE,HILIGHT=OFF
         DFHMDF POS=(15,57),LENGTH=0,ATTRB=(ASKIP,NORM)
         DFHMDF POS=(15,58),LENGTH=0010,ATTRB=(PROT,ASKIP),            X
               INITIAL='- ITEM DS:',COLOR=BLUE,HILIGHT=OFF
* 'ITEM-DSCNT-AMT-AP02'
ZFLD045  DFHMDF POS=(15,69),LENGTH=0011,ATTRB=(PROT,ASKIP),            X
               COLOR=TURQUOISE,HILIGHT=OFF
         DFHMDF POS=(16,01),LENGTH=0008,ATTRB=(PROT,ASKIP),            X
               INITIAL='APPROVED',COLOR=BLUE,HILIGHT=OFF
* 'APRVD-QTY-4151-AP02'
ZFLD046  DFHMDF POS=(16,10),LENGTH=0010,ATTRB=(UNPROT),COLOR=DEFAULT,  X
               HILIGHT=UNDERLINE
* 'APRVD-UNIT-PRICE-4151-AP02'
ZFLD047  DFHMDF POS=(16,21),LENGTH=0018,ATTRB=(UNPROT),COLOR=DEFAULT,  X
               HILIGHT=UNDERLINE
* 'APRVD-EXTND-PRICE-AP02'
ZFLD048  DFHMDF POS=(16,40),LENGTH=0016,ATTRB=(PROT,ASKIP),            X
               COLOR=TURQUOISE,HILIGHT=OFF
         DFHMDF POS=(16,57),LENGTH=0,ATTRB=(ASKIP,NORM)
         DFHMDF POS=(16,58),LENGTH=0010,ATTRB=(PROT,ASKIP),            X
               INITIAL='- TRD IN :',COLOR=BLUE,HILIGHT=OFF
* 'TRADE-IN-AMT-2-AP02'
ZFLD145  DFHMDF POS=(16,69),LENGTH=0011,ATTRB=(PROT,ASKIP),            X
               COLOR=TURQUOISE,HILIGHT=OFF
         DFHMDF POS=(17,01),LENGTH=0008,ATTRB=(PROT,ASKIP),            X
               INITIAL='TERM DSC',COLOR=BLUE,HILIGHT=OFF
* 'DSCNT-AMT-4151-AP02'
ZFLD049  DFHMDF POS=(17,40),LENGTH=0016,ATTRB=(UNPROT),COLOR=DEFAULT,  X
               HILIGHT=UNDERLINE
         DFHMDF POS=(17,57),LENGTH=0,ATTRB=(ASKIP,NORM)
         DFHMDF POS=(17,58),LENGTH=0022,ATTRB=(PROT,ASKIP),            X
               INITIAL='----------------------',COLOR=BLUE,            X
               HILIGHT=OFF
         DFHMDF POS=(18,01),LENGTH=0008,ATTRB=(PROT,ASKIP),            X
               INITIAL='PROD DSC',COLOR=BLUE,HILIGHT=OFF
* 'PRD-DSCNT-AMT-4151-AP02'
ZFLD149  DFHMDF POS=(18,40),LENGTH=0016,ATTRB=(PROT,ASKIP),            X
               COLOR=TURQUOISE,HILIGHT=OFF
         DFHMDF POS=(18,57),LENGTH=0,ATTRB=(ASKIP,NORM)
         DFHMDF POS=(19,01),LENGTH=0008,ATTRB=(PROT,ASKIP),            X
               INITIAL='TRADE-IN',COLOR=BLUE,HILIGHT=OFF
* 'TRADE-IN-AMT-AP02'
ZFLD058  DFHMDF POS=(19,40),LENGTH=0016,ATTRB=(UNPROT),COLOR=DEFAULT,  X
               HILIGHT=UNDERLINE
         DFHMDF POS=(19,57),LENGTH=0,ATTRB=(ASKIP,NORM)
         DFHMDF POS=(19,58),LENGTH=0010,ATTRB=(PROT,ASKIP),            X
               INITIAL='  NET AMT:',COLOR=BLUE,HILIGHT=OFF
* 'TOTAL-NET-AMT-AP02'
ZFLD050  DFHMDF POS=(19,69),LENGTH=0011,ATTRB=(PROT,ASKIP),            X
               COLOR=TURQUOISE,HILIGHT=OFF
         DFHMDF POS=(20,01),LENGTH=0003,ATTRB=(PROT,ASKIP),            X
               INITIAL='TAX',COLOR=BLUE,HILIGHT=OFF
* 'TAX-AMT-4151-AP02'
ZFLD051  DFHMDF POS=(20,40),LENGTH=0016,ATTRB=(UNPROT),COLOR=DEFAULT,  X
               HILIGHT=UNDERLINE
         DFHMDF POS=(20,57),LENGTH=0,ATTRB=(ASKIP,NORM)
         DFHMDF POS=(21,01),LENGTH=0005,ATTRB=(PROT,ASKIP),            X
               INITIAL='ADD''L',COLOR=BLUE,HILIGHT=OFF
* 'ADDL-AMT-AP02'
ZFLD052  DFHMDF POS=(21,40),LENGTH=0016,ATTRB=(PROT),COLOR=TURQUOISE,  X
               HILIGHT=OFF
         DFHMDF POS=(21,57),LENGTH=0,ATTRB=(ASKIP,NORM)
* 'DCLINK-MESSAGE'
ZFLD053  DFHMDF POS=(21,80),LENGTH=0160,ATTRB=(PROT,BRT),              X
               COLOR=DEFAULT,HILIGHT=OFF
         DFHMDF POS=(24,01),LENGTH=0012,ATTRB=(PROT,ASKIP,NUM),        X
               INITIAL='NEXT SCREEN:',COLOR=BLUE,HILIGHT=OFF
* 'AGR-PASSED-ONE'
ZFLD054  DFHMDF POS=(24,14),LENGTH=0030,ATTRB=(UNPROT),COLOR=DEFAULT,  X
               HILIGHT=UNDERLINE
         DFHMDF POS=(24,45),LENGTH=0009,ATTRB=(PROT,ASKIP),            X
               INITIAL='RESPONSE:',COLOR=BLUE,HILIGHT=OFF
* 'AGR-MAP-RESPONSE'
ZFLD055  DFHMDF POS=(24,55),LENGTH=0008,ATTRB=(UNPROT),COLOR=DEFAULT,  X
               HILIGHT=UNDERLINE
         DFHMDF POS=(24,64),LENGTH=0,ATTRB=(ASKIP,NORM)
* 'ERROR-TEXT-SY00'
ZFLD056  DFHMDF POS=(24,65),LENGTH=0014,ATTRB=(PROT,DRK),              X
               COLOR=DEFAULT,HILIGHT=OFF
         DFHMSD TYPE=FINAL
         END
