FCHMU62  DFHMSD TYPE=MAP,LANG=COBOL,TERM=3270,MODE=INOUT,              X
               TIOAPFX=YES,MAPATTS=(COLOR,HILIGHT),                    X
               DSATTS=(COLOR,HILIGHT)
FCHMU62  DFHMDI SIZE=(24,80),LINE=1,COLUMN=1,CTRL=FREEKB,TIOAPFX=YES
         DFHMDF POS=(01,01),LENGTH=0007,ATTRB=(PROT,ASKIP),            X
               INITIAL='FCHMU62',COLOR=BLUE,HILIGHT=OFF
* 'TRMNL-ID-SY00'
ZFLD002  DFHMDF POS=(01,10),LENGTH=0008,ATTRB=(PROT),COLOR=BLUE,       X
               HILIGHT=OFF
         DFHMDF POS=(01,19),LENGTH=0,ATTRB=(ASKIP,NORM)
* 'FULL-NAME-6001-SY00'
ZFLD003  DFHMDF POS=(01,23),LENGTH=0035,ATTRB=(PROT),COLOR=BLUE,       X
               HILIGHT=OFF
         DFHMDF POS=(01,59),LENGTH=0,ATTRB=(ASKIP,NORM)
* 'AGR-DATE'
ZFLD004  DFHMDF POS=(01,64),LENGTH=0008,ATTRB=(PROT),COLOR=BLUE,       X
               HILIGHT=OFF
* 'WORK-HH-MM-TIME-SY00'
ZFLD005  DFHMDF POS=(01,73),LENGTH=0005,ATTRB=(PROT),COLOR=BLUE,       X
               HILIGHT=OFF
* 'AM-PM-FLAG-SY00'
ZFLD006  DFHMDF POS=(01,79),LENGTH=0001,ATTRB=(PROT),COLOR=BLUE,       X
               HILIGHT=OFF
* 'AGR-USER-ID'
ZFLD007  DFHMDF POS=(02,01),LENGTH=0008,ATTRB=(PROT),COLOR=BLUE,       X
               HILIGHT=OFF
         DFHMDF POS=(02,10),LENGTH=0,ATTRB=(ASKIP,NORM)
* 'CURR-RSPNS-ID-SY00'
ZFLD008  DFHMDF POS=(02,21),LENGTH=0008,ATTRB=(PROT,BRT),              X
               COLOR=DEFAULT,HILIGHT=OFF
         DFHMDF POS=(02,30),LENGTH=0001,ATTRB=(PROT,ASKIP,BRT),        X
               INITIAL=':',COLOR=DEFAULT,HILIGHT=OFF
* 'AGR-FUNC-DESCRIPTION'
ZFLD009  DFHMDF POS=(02,32),LENGTH=0028,ATTRB=(PROT,BRT),              X
               COLOR=DEFAULT,HILIGHT=OFF
         DFHMDF POS=(02,61),LENGTH=0,ATTRB=(ASKIP,NORM)
* 'PAGE-STATUS-CODE-SY00'
ZFLD010  DFHMDF POS=(02,64),LENGTH=0010,ATTRB=(PROT,BRT),              X
               COLOR=DEFAULT,HILIGHT=OFF
         DFHMDF POS=(02,75),LENGTH=0,ATTRB=(ASKIP,NORM)
         DFHMDF POS=(05,01),LENGTH=0008,ATTRB=(PROT,ASKIP),            X
               INITIAL='BANK ID:',COLOR=BLUE,HILIGHT=OFF
* 'BANK-ID-LAST-NINE-4046-CH62'
ZFLD011  DFHMDF POS=(05,10),LENGTH=0009,ATTRB=(UNPROT,IC),             X
               COLOR=DEFAULT,HILIGHT=UNDERLINE
         DFHMDF POS=(05,20),LENGTH=0,ATTRB=(ASKIP,NORM)
* 'NAME-KEY-6311-CH62'
ZFLD012  DFHMDF POS=(05,22),LENGTH=0035,ATTRB=(PROT),COLOR=TURQUOISE,  X
               HILIGHT=OFF
         DFHMDF POS=(05,58),LENGTH=0,ATTRB=(ASKIP,NORM)
         DFHMDF POS=(05,60),LENGTH=0007,ATTRB=(PROT,ASKIP),            X
               INITIAL='STATUS:',COLOR=BLUE,HILIGHT=OFF
* 'STATUS-4046-CH62'
ZFLD013  DFHMDF POS=(05,68),LENGTH=0008,ATTRB=(PROT),COLOR=TURQUOISE,  X
               HILIGHT=OFF
         DFHMDF POS=(05,77),LENGTH=0,ATTRB=(ASKIP,NORM)
         DFHMDF POS=(07,01),LENGTH=0071,ATTRB=(PROT,ASKIP),            X
               INITIAL=' ACT    BANK ACCOUNT           BANK ACCOUNT DESX
               CRIPTION          STATUS',COLOR=BLUE,HILIGHT=OFF
         DFHMDF POS=(08,01),LENGTH=0016,ATTRB=(PROT,ASKIP),            X
               INITIAL='(ACR)     NUMBER',COLOR=BLUE,HILIGHT=OFF
* 'ACTN-CODE-CH62'
ZFLD014  DFHMDF POS=(09,03),LENGTH=0001,ATTRB=(UNPROT),COLOR=DEFAULT,  X
               HILIGHT=OFF
         DFHMDF POS=(09,05),LENGTH=0,ATTRB=(ASKIP,NORM)
* 'BANK-ACCT-NMBR-4213-CH62'
ZFLD015  DFHMDF POS=(09,08),LENGTH=0015,ATTRB=(UNPROT),COLOR=DEFAULT,  X
               HILIGHT=UNDERLINE
         DFHMDF POS=(09,24),LENGTH=0,ATTRB=(ASKIP,NORM)
* 'BANK-ACCT-DESC-4213-CH62'
ZFLD016  DFHMDF POS=(09,27),LENGTH=0035,ATTRB=(UNPROT),COLOR=DEFAULT,  X
               HILIGHT=UNDERLINE
         DFHMDF POS=(09,63),LENGTH=0,ATTRB=(ASKIP,NORM)
* 'STATUS-4213-CH62'
ZFLD017  DFHMDF POS=(09,66),LENGTH=0008,ATTRB=(PROT),COLOR=TURQUOISE,  X
               HILIGHT=OFF
         DFHMDF POS=(09,75),LENGTH=0,ATTRB=(ASKIP,NORM)
* 'ACTN-CODE-CH62'
ZFLD018  DFHMDF POS=(10,03),LENGTH=0001,ATTRB=(UNPROT),COLOR=DEFAULT,  X
               HILIGHT=OFF
         DFHMDF POS=(10,05),LENGTH=0,ATTRB=(ASKIP,NORM)
* 'BANK-ACCT-NMBR-4213-CH62'
ZFLD019  DFHMDF POS=(10,08),LENGTH=0015,ATTRB=(UNPROT),COLOR=DEFAULT,  X
               HILIGHT=UNDERLINE
         DFHMDF POS=(10,24),LENGTH=0,ATTRB=(ASKIP,NORM)
* 'BANK-ACCT-DESC-4213-CH62'
ZFLD020  DFHMDF POS=(10,27),LENGTH=0035,ATTRB=(UNPROT),COLOR=DEFAULT,  X
               HILIGHT=UNDERLINE
         DFHMDF POS=(10,63),LENGTH=0,ATTRB=(ASKIP,NORM)
* 'STATUS-4213-CH62'
ZFLD021  DFHMDF POS=(10,66),LENGTH=0008,ATTRB=(PROT),COLOR=TURQUOISE,  X
               HILIGHT=OFF
         DFHMDF POS=(10,75),LENGTH=0,ATTRB=(ASKIP,NORM)
* 'ACTN-CODE-CH62'
ZFLD022  DFHMDF POS=(11,03),LENGTH=0001,ATTRB=(UNPROT),COLOR=DEFAULT,  X
               HILIGHT=OFF
         DFHMDF POS=(11,05),LENGTH=0,ATTRB=(ASKIP,NORM)
* 'BANK-ACCT-NMBR-4213-CH62'
ZFLD023  DFHMDF POS=(11,08),LENGTH=0015,ATTRB=(UNPROT),COLOR=DEFAULT,  X
               HILIGHT=UNDERLINE
         DFHMDF POS=(11,24),LENGTH=0,ATTRB=(ASKIP,NORM)
* 'BANK-ACCT-DESC-4213-CH62'
ZFLD024  DFHMDF POS=(11,27),LENGTH=0035,ATTRB=(UNPROT),COLOR=DEFAULT,  X
               HILIGHT=UNDERLINE
         DFHMDF POS=(11,63),LENGTH=0,ATTRB=(ASKIP,NORM)
* 'STATUS-4213-CH62'
ZFLD025  DFHMDF POS=(11,66),LENGTH=0008,ATTRB=(PROT),COLOR=TURQUOISE,  X
               HILIGHT=OFF
         DFHMDF POS=(11,75),LENGTH=0,ATTRB=(ASKIP,NORM)
* 'ACTN-CODE-CH62'
ZFLD026  DFHMDF POS=(12,03),LENGTH=0001,ATTRB=(UNPROT),COLOR=DEFAULT,  X
               HILIGHT=OFF
         DFHMDF POS=(12,05),LENGTH=0,ATTRB=(ASKIP,NORM)
* 'BANK-ACCT-NMBR-4213-CH62'
ZFLD027  DFHMDF POS=(12,08),LENGTH=0015,ATTRB=(UNPROT),COLOR=DEFAULT,  X
               HILIGHT=UNDERLINE
         DFHMDF POS=(12,24),LENGTH=0,ATTRB=(ASKIP,NORM)
* 'BANK-ACCT-DESC-4213-CH62'
ZFLD028  DFHMDF POS=(12,27),LENGTH=0035,ATTRB=(UNPROT),COLOR=DEFAULT,  X
               HILIGHT=UNDERLINE
         DFHMDF POS=(12,63),LENGTH=0,ATTRB=(ASKIP,NORM)
* 'STATUS-4213-CH62'
ZFLD029  DFHMDF POS=(12,66),LENGTH=0008,ATTRB=(PROT),COLOR=TURQUOISE,  X
               HILIGHT=OFF
         DFHMDF POS=(12,75),LENGTH=0,ATTRB=(ASKIP,NORM)
* 'ACTN-CODE-CH62'
ZFLD030  DFHMDF POS=(13,03),LENGTH=0001,ATTRB=(UNPROT),COLOR=DEFAULT,  X
               HILIGHT=OFF
         DFHMDF POS=(13,05),LENGTH=0,ATTRB=(ASKIP,NORM)
* 'BANK-ACCT-NMBR-4213-CH62'
ZFLD031  DFHMDF POS=(13,08),LENGTH=0015,ATTRB=(UNPROT),COLOR=DEFAULT,  X
               HILIGHT=UNDERLINE
         DFHMDF POS=(13,24),LENGTH=0,ATTRB=(ASKIP,NORM)
* 'BANK-ACCT-DESC-4213-CH62'
ZFLD032  DFHMDF POS=(13,27),LENGTH=0035,ATTRB=(UNPROT),COLOR=DEFAULT,  X
               HILIGHT=UNDERLINE
         DFHMDF POS=(13,63),LENGTH=0,ATTRB=(ASKIP,NORM)
* 'STATUS-4213-CH62'
ZFLD033  DFHMDF POS=(13,66),LENGTH=0008,ATTRB=(PROT),COLOR=TURQUOISE,  X
               HILIGHT=OFF
         DFHMDF POS=(13,75),LENGTH=0,ATTRB=(ASKIP,NORM)
* 'ACTN-CODE-CH62'
ZFLD034  DFHMDF POS=(14,03),LENGTH=0001,ATTRB=(UNPROT),COLOR=DEFAULT,  X
               HILIGHT=OFF
         DFHMDF POS=(14,05),LENGTH=0,ATTRB=(ASKIP,NORM)
* 'BANK-ACCT-NMBR-4213-CH62'
ZFLD035  DFHMDF POS=(14,08),LENGTH=0015,ATTRB=(UNPROT),COLOR=DEFAULT,  X
               HILIGHT=UNDERLINE
         DFHMDF POS=(14,24),LENGTH=0,ATTRB=(ASKIP,NORM)
* 'BANK-ACCT-DESC-4213-CH62'
ZFLD036  DFHMDF POS=(14,27),LENGTH=0035,ATTRB=(UNPROT),COLOR=DEFAULT,  X
               HILIGHT=UNDERLINE
         DFHMDF POS=(14,63),LENGTH=0,ATTRB=(ASKIP,NORM)
* 'STATUS-4213-CH62'
ZFLD037  DFHMDF POS=(14,66),LENGTH=0008,ATTRB=(PROT),COLOR=TURQUOISE,  X
               HILIGHT=OFF
         DFHMDF POS=(14,75),LENGTH=0,ATTRB=(ASKIP,NORM)
* 'ACTN-CODE-CH62'
ZFLD038  DFHMDF POS=(15,03),LENGTH=0001,ATTRB=(UNPROT),COLOR=DEFAULT,  X
               HILIGHT=OFF
         DFHMDF POS=(15,05),LENGTH=0,ATTRB=(ASKIP,NORM)
* 'BANK-ACCT-NMBR-4213-CH62'
ZFLD039  DFHMDF POS=(15,08),LENGTH=0015,ATTRB=(UNPROT),COLOR=DEFAULT,  X
               HILIGHT=UNDERLINE
         DFHMDF POS=(15,24),LENGTH=0,ATTRB=(ASKIP,NORM)
* 'BANK-ACCT-DESC-4213-CH62'
ZFLD040  DFHMDF POS=(15,27),LENGTH=0035,ATTRB=(UNPROT),COLOR=DEFAULT,  X
               HILIGHT=UNDERLINE
         DFHMDF POS=(15,63),LENGTH=0,ATTRB=(ASKIP,NORM)
* 'STATUS-4213-CH62'
ZFLD041  DFHMDF POS=(15,66),LENGTH=0008,ATTRB=(PROT),COLOR=TURQUOISE,  X
               HILIGHT=OFF
         DFHMDF POS=(15,75),LENGTH=0,ATTRB=(ASKIP,NORM)
* 'ACTN-CODE-CH62'
ZFLD042  DFHMDF POS=(16,03),LENGTH=0001,ATTRB=(UNPROT),COLOR=DEFAULT,  X
               HILIGHT=OFF
         DFHMDF POS=(16,05),LENGTH=0,ATTRB=(ASKIP,NORM)
* 'BANK-ACCT-NMBR-4213-CH62'
ZFLD043  DFHMDF POS=(16,08),LENGTH=0015,ATTRB=(UNPROT),COLOR=DEFAULT,  X
               HILIGHT=UNDERLINE
         DFHMDF POS=(16,24),LENGTH=0,ATTRB=(ASKIP,NORM)
* 'BANK-ACCT-DESC-4213-CH62'
ZFLD044  DFHMDF POS=(16,27),LENGTH=0035,ATTRB=(UNPROT),COLOR=DEFAULT,  X
               HILIGHT=UNDERLINE
         DFHMDF POS=(16,63),LENGTH=0,ATTRB=(ASKIP,NORM)
* 'STATUS-4213-CH62'
ZFLD045  DFHMDF POS=(16,66),LENGTH=0008,ATTRB=(PROT),COLOR=TURQUOISE,  X
               HILIGHT=OFF
         DFHMDF POS=(16,75),LENGTH=0,ATTRB=(ASKIP,NORM)
* 'ACTN-CODE-CH62'
ZFLD046  DFHMDF POS=(17,03),LENGTH=0001,ATTRB=(UNPROT),COLOR=DEFAULT,  X
               HILIGHT=OFF
         DFHMDF POS=(17,05),LENGTH=0,ATTRB=(ASKIP,NORM)
* 'BANK-ACCT-NMBR-4213-CH62'
ZFLD047  DFHMDF POS=(17,08),LENGTH=0015,ATTRB=(UNPROT),COLOR=DEFAULT,  X
               HILIGHT=UNDERLINE
         DFHMDF POS=(17,24),LENGTH=0,ATTRB=(ASKIP,NORM)
* 'BANK-ACCT-DESC-4213-CH62'
ZFLD048  DFHMDF POS=(17,27),LENGTH=0035,ATTRB=(UNPROT),COLOR=DEFAULT,  X
               HILIGHT=UNDERLINE
         DFHMDF POS=(17,63),LENGTH=0,ATTRB=(ASKIP,NORM)
* 'STATUS-4213-CH62'
ZFLD049  DFHMDF POS=(17,66),LENGTH=0008,ATTRB=(PROT),COLOR=TURQUOISE,  X
               HILIGHT=OFF
         DFHMDF POS=(17,75),LENGTH=0,ATTRB=(ASKIP,NORM)
* 'ACTN-CODE-CH62'
ZFLD050  DFHMDF POS=(18,03),LENGTH=0001,ATTRB=(UNPROT),COLOR=DEFAULT,  X
               HILIGHT=OFF
         DFHMDF POS=(18,05),LENGTH=0,ATTRB=(ASKIP,NORM)
* 'BANK-ACCT-NMBR-4213-CH62'
ZFLD051  DFHMDF POS=(18,08),LENGTH=0015,ATTRB=(UNPROT),COLOR=DEFAULT,  X
               HILIGHT=UNDERLINE
         DFHMDF POS=(18,24),LENGTH=0,ATTRB=(ASKIP,NORM)
* 'BANK-ACCT-DESC-4213-CH62'
ZFLD052  DFHMDF POS=(18,27),LENGTH=0035,ATTRB=(UNPROT),COLOR=DEFAULT,  X
               HILIGHT=UNDERLINE
         DFHMDF POS=(18,63),LENGTH=0,ATTRB=(ASKIP,NORM)
* 'STATUS-4213-CH62'
ZFLD053  DFHMDF POS=(18,66),LENGTH=0008,ATTRB=(PROT),COLOR=TURQUOISE,  X
               HILIGHT=OFF
         DFHMDF POS=(18,75),LENGTH=0,ATTRB=(ASKIP,NORM)
         DFHMDF POS=(20,01),LENGTH=0028,ATTRB=(PROT,ASKIP),            X
               INITIAL='BANK ACCOUNT NUMBER REQUEST:',COLOR=BLUE,      X
               HILIGHT=OFF
* 'RQST-BANK-ACCT-NMBR-CH62'
ZFLD054  DFHMDF POS=(20,30),LENGTH=0015,ATTRB=(UNPROT),COLOR=DEFAULT,  X
               HILIGHT=UNDERLINE
         DFHMDF POS=(20,46),LENGTH=0,ATTRB=(ASKIP,NORM)
* 'DCLINK-MESSAGE'
ZFLD055  DFHMDF POS=(21,80),LENGTH=0160,ATTRB=(PROT,BRT),              X
               COLOR=DEFAULT,HILIGHT=OFF
         DFHMDF POS=(24,01),LENGTH=0012,ATTRB=(PROT,ASKIP,NUM),        X
               INITIAL='NEXT SCREEN:',COLOR=BLUE,HILIGHT=OFF
* 'AGR-PASSED-ONE'
ZFLD056  DFHMDF POS=(24,14),LENGTH=0030,ATTRB=(UNPROT),COLOR=DEFAULT,  X
               HILIGHT=UNDERLINE
         DFHMDF POS=(24,45),LENGTH=0009,ATTRB=(PROT,ASKIP),            X
               INITIAL='RESPONSE:',COLOR=BLUE,HILIGHT=OFF
* 'AGR-MAP-RESPONSE'
ZFLD057  DFHMDF POS=(24,55),LENGTH=0008,ATTRB=(UNPROT),COLOR=DEFAULT,  X
               HILIGHT=UNDERLINE
         DFHMDF POS=(24,64),LENGTH=0,ATTRB=(ASKIP,NORM)
* 'ERROR-TEXT-SY00'
ZFLD058  DFHMDF POS=(24,65),LENGTH=0014,ATTRB=(PROT,DRK),              X
               COLOR=DEFAULT,HILIGHT=OFF
         DFHMSD TYPE=FINAL
         END
