FCHMU43  DFHMSD TYPE=MAP,LANG=COBOL,TERM=3270,MODE=INOUT,              X
               TIOAPFX=YES,MAPATTS=(COLOR,HILIGHT),                    X
               DSATTS=(COLOR,HILIGHT)
FCHMU43  DFHMDI SIZE=(24,80),LINE=1,COLUMN=1,CTRL=FREEKB,TIOAPFX=YES
         DFHMDF POS=(01,01),LENGTH=0007,ATTRB=(PROT,ASKIP),            X
               INITIAL='FCHMU43',COLOR=BLUE,HILIGHT=OFF
* 'TRMNL-ID-SY00'
ZFLD002  DFHMDF POS=(01,10),LENGTH=0008,ATTRB=(PROT),COLOR=BLUE,       X
               HILIGHT=OFF
         DFHMDF POS=(01,19),LENGTH=0,ATTRB=(ASKIP,NORM)
* 'FULL-NAME-6001-SY00'
ZFLD003  DFHMDF POS=(01,23),LENGTH=0035,ATTRB=(PROT),COLOR=BLUE,       X
               HILIGHT=OFF
         DFHMDF POS=(01,59),LENGTH=0,ATTRB=(ASKIP,NORM)
* 'AGR-DATE'
ZFLD004  DFHMDF POS=(01,64),LENGTH=0008,ATTRB=(PROT),COLOR=BLUE,       X
               HILIGHT=OFF
* 'WORK-HH-MM-TIME-SY00'
ZFLD005  DFHMDF POS=(01,73),LENGTH=0005,ATTRB=(PROT),COLOR=BLUE,       X
               HILIGHT=OFF
* 'AM-PM-FLAG-SY00'
ZFLD006  DFHMDF POS=(01,79),LENGTH=0001,ATTRB=(PROT),COLOR=BLUE,       X
               HILIGHT=OFF
* 'AGR-USER-ID'
ZFLD007  DFHMDF POS=(02,01),LENGTH=0008,ATTRB=(PROT),COLOR=BLUE,       X
               HILIGHT=OFF
         DFHMDF POS=(02,10),LENGTH=0,ATTRB=(ASKIP,NORM)
* 'CURR-RSPNS-ID-SY00'
ZFLD008  DFHMDF POS=(02,21),LENGTH=0008,ATTRB=(PROT,BRT),              X
               COLOR=DEFAULT,HILIGHT=OFF
         DFHMDF POS=(02,30),LENGTH=0001,ATTRB=(PROT,ASKIP,BRT),        X
               INITIAL=':',COLOR=DEFAULT,HILIGHT=OFF
* 'AGR-FUNC-DESCRIPTION'
ZFLD009  DFHMDF POS=(02,32),LENGTH=0028,ATTRB=(PROT,BRT),              X
               COLOR=DEFAULT,HILIGHT=OFF
         DFHMDF POS=(02,61),LENGTH=0,ATTRB=(ASKIP,NORM)
* 'PAGE-STATUS-CODE-SY00'
ZFLD010  DFHMDF POS=(02,64),LENGTH=0010,ATTRB=(PROT,BRT),              X
               COLOR=DEFAULT,HILIGHT=OFF
         DFHMDF POS=(02,75),LENGTH=0,ATTRB=(ASKIP,NORM)
         DFHMDF POS=(04,15),LENGTH=0006,ATTRB=(PROT,ASKIP),            X
               INITIAL='MASTER',COLOR=BLUE,HILIGHT=OFF
         DFHMDF POS=(05,03),LENGTH=0004,ATTRB=(PROT,ASKIP),            X
               INITIAL='COA:',COLOR=BLUE,HILIGHT=OFF
* 'MSTR-COA-CODE-4045-CH43'
ZFLD011  DFHMDF POS=(05,09),LENGTH=0001,ATTRB=(UNPROT,IC),             X
               COLOR=DEFAULT,HILIGHT=UNDERLINE
         DFHMDF POS=(05,11),LENGTH=0,ATTRB=(ASKIP,NORM)
         DFHMDF POS=(05,15),LENGTH=0010,ATTRB=(PROT,ASKIP),            X
               INITIAL='ACCT INDX:',COLOR=BLUE,HILIGHT=OFF
* 'MSTR-ACCT-INDX-CODE-4045-CH43'
ZFLD012  DFHMDF POS=(05,27),LENGTH=0007,ATTRB=(UNPROT),COLOR=DEFAULT,  X
               HILIGHT=UNDERLINE
         DFHMDF POS=(05,35),LENGTH=0,ATTRB=(ASKIP,NORM)
* 'MSTR-ACCT-INDX-TITLE-4067-CH43'
ZFLD013  DFHMDF POS=(05,36),LENGTH=0035,ATTRB=(UNPROT),COLOR=DEFAULT,  X
               HILIGHT=UNDERLINE
         DFHMDF POS=(05,72),LENGTH=0,ATTRB=(ASKIP,NORM)
         DFHMDF POS=(07,03),LENGTH=0013,ATTRB=(PROT,ASKIP),            X
               INITIAL='ACTION  (AC):',COLOR=BLUE,HILIGHT=OFF
* 'ACTN-CODE-CH43'
ZFLD014  DFHMDF POS=(07,18),LENGTH=0001,ATTRB=(UNPROT),COLOR=DEFAULT,  X
               HILIGHT=UNDERLINE
         DFHMDF POS=(07,20),LENGTH=0,ATTRB=(ASKIP,NORM)
         DFHMDF POS=(09,15),LENGTH=0010,ATTRB=(PROT,ASKIP),            X
               INITIAL='ADDITIONAL',COLOR=BLUE,HILIGHT=OFF
         DFHMDF POS=(10,03),LENGTH=0004,ATTRB=(PROT,ASKIP),            X
               INITIAL='COA:',COLOR=BLUE,HILIGHT=OFF
* 'COA-CODE-4045-CH43'
ZFLD015  DFHMDF POS=(10,09),LENGTH=0001,ATTRB=(PROT),COLOR=TURQUOISE,  X
               HILIGHT=OFF
         DFHMDF POS=(10,11),LENGTH=0,ATTRB=(ASKIP,NORM)
         DFHMDF POS=(10,15),LENGTH=0010,ATTRB=(PROT,ASKIP),            X
               INITIAL='ACCT INDX:',COLOR=BLUE,HILIGHT=OFF
* 'ACCT-INDX-CODE-4045-CH43'
ZFLD016  DFHMDF POS=(10,27),LENGTH=0007,ATTRB=(UNPROT),COLOR=DEFAULT,  X
               HILIGHT=UNDERLINE
         DFHMDF POS=(10,35),LENGTH=0,ATTRB=(ASKIP,NORM)
* 'ACCT-INDX-TITLE-4067-CH43'
ZFLD017  DFHMDF POS=(10,36),LENGTH=0035,ATTRB=(UNPROT),COLOR=DEFAULT,  X
               HILIGHT=UNDERLINE
         DFHMDF POS=(10,72),LENGTH=0,ATTRB=(ASKIP,NORM)
         DFHMDF POS=(12,03),LENGTH=0016,ATTRB=(PROT,ASKIP),            X
               INITIAL=' EFFECTIVE DATE:',COLOR=BLUE,HILIGHT=OFF
* 'START-DATE-4067-CH43'
ZFLD018  DFHMDF POS=(12,20),LENGTH=0008,ATTRB=(UNPROT),COLOR=DEFAULT,  X
               HILIGHT=UNDERLINE
         DFHMDF POS=(12,29),LENGTH=0,ATTRB=(ASKIP,NORM)
         DFHMDF POS=(12,30),LENGTH=0016,ATTRB=(PROT,ASKIP),            X
               INITIAL=' NEXT CHGD DATE:',COLOR=BLUE,HILIGHT=OFF
* 'NXT-CHANGE-DATE-CH43'
ZFLD019  DFHMDF POS=(12,47),LENGTH=0008,ATTRB=(PROT),COLOR=TURQUOISE,  X
               HILIGHT=OFF
         DFHMDF POS=(12,56),LENGTH=0,ATTRB=(ASKIP,NORM)
         DFHMDF POS=(12,61),LENGTH=0007,ATTRB=(PROT,ASKIP),            X
               INITIAL='STATUS:',COLOR=BLUE,HILIGHT=OFF
* 'STATUS-DESC-CH43'
ZFLD020  DFHMDF POS=(12,69),LENGTH=0008,ATTRB=(PROT),COLOR=TURQUOISE,  X
               HILIGHT=OFF
         DFHMDF POS=(12,78),LENGTH=0,ATTRB=(ASKIP,NORM)
         DFHMDF POS=(13,01),LENGTH=0018,ATTRB=(PROT,ASKIP),            X
               INITIAL='EARLY INACTV DATE:',COLOR=BLUE,HILIGHT=OFF
* 'EARLY-INACTV-DATE-4067-CH43'
ZFLD021  DFHMDF POS=(13,20),LENGTH=0008,ATTRB=(UNPROT),COLOR=DEFAULT,  X
               HILIGHT=UNDERLINE
         DFHMDF POS=(13,29),LENGTH=0,ATTRB=(ASKIP,NORM)
         DFHMDF POS=(13,30),LENGTH=0016,ATTRB=(PROT,ASKIP),            X
               INITIAL='LAST ACTVY DATE:',COLOR=BLUE,HILIGHT=OFF
* 'LAST-ACTVY-DATE-4045-CH43'
ZFLD022  DFHMDF POS=(13,47),LENGTH=0008,ATTRB=(PROT),COLOR=TURQUOISE,  X
               HILIGHT=OFF
         DFHMDF POS=(13,56),LENGTH=0,ATTRB=(ASKIP,NORM)
         DFHMDF POS=(13,57),LENGTH=0011,ATTRB=(PROT,ASKIP),            X
               INITIAL='EFCTV TIME:',COLOR=BLUE,HILIGHT=OFF
* 'TIME-STAMP-4067-CH43'
ZFLD023  DFHMDF POS=(13,69),LENGTH=0005,ATTRB=(PROT),COLOR=TURQUOISE,  X
               HILIGHT=OFF
* 'AM-PM-FLAG-CH43'
ZFLD024  DFHMDF POS=(13,75),LENGTH=0001,ATTRB=(PROT),COLOR=TURQUOISE,  X
               HILIGHT=OFF
         DFHMDF POS=(13,77),LENGTH=0,ATTRB=(ASKIP,NORM)
         DFHMDF POS=(14,04),LENGTH=0015,ATTRB=(PROT,ASKIP),            X
               INITIAL='     TERM DATE:',COLOR=BLUE,HILIGHT=OFF
* 'END-DATE-4067-CH43'
ZFLD025  DFHMDF POS=(14,20),LENGTH=0008,ATTRB=(PROT),COLOR=TURQUOISE,  X
               HILIGHT=OFF
         DFHMDF POS=(14,29),LENGTH=0,ATTRB=(ASKIP,NORM)
         DFHMDF POS=(15,22),LENGTH=0049,ATTRB=(PROT,ASKIP),            X
               INITIAL='ACCOUNTING DISTRIBUTION                  OVERRIX
               DE',COLOR=BLUE,HILIGHT=OFF
         DFHMDF POS=(16,10),LENGTH=0005,ATTRB=(PROT,ASKIP),            X
               INITIAL='FUND:',COLOR=BLUE,HILIGHT=OFF
* 'FUND-CODE-4067-CH43'
ZFLD026  DFHMDF POS=(16,16),LENGTH=0006,ATTRB=(PROT),COLOR=TURQUOISE,  X
               HILIGHT=OFF
         DFHMDF POS=(16,23),LENGTH=0,ATTRB=(ASKIP,NORM)
* 'FUND-TITLE-4005-CH43'
ZFLD027  DFHMDF POS=(16,24),LENGTH=0035,ATTRB=(PROT),COLOR=TURQUOISE,  X
               HILIGHT=OFF
         DFHMDF POS=(16,60),LENGTH=0,ATTRB=(ASKIP,NORM)
* 'FUND-OVRDE-4067-CH43'
ZFLD028  DFHMDF POS=(16,67),LENGTH=0001,ATTRB=(PROT),COLOR=TURQUOISE,  X
               HILIGHT=OFF
         DFHMDF POS=(16,69),LENGTH=0,ATTRB=(ASKIP,NORM)
         DFHMDF POS=(17,02),LENGTH=0013,ATTRB=(PROT,ASKIP),            X
               INITIAL='ORGANIZATION:',COLOR=BLUE,HILIGHT=OFF
* 'ORGZN-CODE-4067-CH43'
ZFLD029  DFHMDF POS=(17,16),LENGTH=0006,ATTRB=(PROT),COLOR=TURQUOISE,  X
               HILIGHT=OFF
         DFHMDF POS=(17,23),LENGTH=0,ATTRB=(ASKIP,NORM)
* 'ORGZN-TITLE-4010-CH43'
ZFLD030  DFHMDF POS=(17,24),LENGTH=0035,ATTRB=(PROT),COLOR=TURQUOISE,  X
               HILIGHT=OFF
         DFHMDF POS=(17,60),LENGTH=0,ATTRB=(ASKIP,NORM)
* 'ORGZN-OVRDE-4067-CH43'
ZFLD031  DFHMDF POS=(17,67),LENGTH=0001,ATTRB=(PROT),COLOR=TURQUOISE,  X
               HILIGHT=OFF
         DFHMDF POS=(17,69),LENGTH=0,ATTRB=(ASKIP,NORM)
         DFHMDF POS=(18,07),LENGTH=0008,ATTRB=(PROT,ASKIP),            X
               INITIAL='ACCOUNT:',COLOR=BLUE,HILIGHT=OFF
* 'ACCT-CODE-4067-CH43'
ZFLD032  DFHMDF POS=(18,16),LENGTH=0006,ATTRB=(PROT),COLOR=TURQUOISE,  X
               HILIGHT=OFF
         DFHMDF POS=(18,23),LENGTH=0,ATTRB=(ASKIP,NORM)
* 'ACCT-CODE-TITLE-4034-CH43'
ZFLD033  DFHMDF POS=(18,24),LENGTH=0035,ATTRB=(PROT),COLOR=TURQUOISE,  X
               HILIGHT=OFF
         DFHMDF POS=(18,60),LENGTH=0,ATTRB=(ASKIP,NORM)
* 'ACCT-OVRDE-4067-CH43'
ZFLD034  DFHMDF POS=(18,67),LENGTH=0001,ATTRB=(PROT),COLOR=TURQUOISE,  X
               HILIGHT=OFF
         DFHMDF POS=(18,69),LENGTH=0,ATTRB=(ASKIP,NORM)
         DFHMDF POS=(19,07),LENGTH=0008,ATTRB=(PROT,ASKIP),            X
               INITIAL='PROGRAM:',COLOR=BLUE,HILIGHT=OFF
* 'PRGRM-CODE-4067-CH43'
ZFLD035  DFHMDF POS=(19,16),LENGTH=0006,ATTRB=(PROT),COLOR=TURQUOISE,  X
               HILIGHT=OFF
         DFHMDF POS=(19,23),LENGTH=0,ATTRB=(ASKIP,NORM)
* 'PRGRM-TITLE-4105-CH43'
ZFLD036  DFHMDF POS=(19,24),LENGTH=0035,ATTRB=(PROT),COLOR=TURQUOISE,  X
               HILIGHT=OFF
         DFHMDF POS=(19,60),LENGTH=0,ATTRB=(ASKIP,NORM)
* 'PRGRM-OVRDE-4067-CH43'
ZFLD037  DFHMDF POS=(19,67),LENGTH=0001,ATTRB=(PROT),COLOR=TURQUOISE,  X
               HILIGHT=OFF
         DFHMDF POS=(19,69),LENGTH=0,ATTRB=(ASKIP,NORM)
         DFHMDF POS=(20,06),LENGTH=0009,ATTRB=(PROT,ASKIP),            X
               INITIAL='ACTIVITY:',COLOR=BLUE,HILIGHT=OFF
* 'ACTVY-CODE-4067-CH43'
ZFLD038  DFHMDF POS=(20,16),LENGTH=0006,ATTRB=(PROT),COLOR=TURQUOISE,  X
               HILIGHT=OFF
         DFHMDF POS=(20,23),LENGTH=0,ATTRB=(ASKIP,NORM)
* 'ACTVY-TITLE-4066-CH43'
ZFLD039  DFHMDF POS=(20,24),LENGTH=0035,ATTRB=(PROT),COLOR=TURQUOISE,  X
               HILIGHT=OFF
         DFHMDF POS=(20,60),LENGTH=0,ATTRB=(ASKIP,NORM)
* 'ACTVY-OVRDE-4067-CH43'
ZFLD040  DFHMDF POS=(20,67),LENGTH=0001,ATTRB=(PROT),COLOR=TURQUOISE,  X
               HILIGHT=OFF
         DFHMDF POS=(20,69),LENGTH=0,ATTRB=(ASKIP,NORM)
         DFHMDF POS=(21,06),LENGTH=0009,ATTRB=(PROT,ASKIP),            X
               INITIAL='LOCATION:',COLOR=BLUE,HILIGHT=OFF
* 'LCTN-CODE-4067-CH43'
ZFLD041  DFHMDF POS=(21,16),LENGTH=0006,ATTRB=(PROT),COLOR=TURQUOISE,  X
               HILIGHT=OFF
         DFHMDF POS=(21,23),LENGTH=0,ATTRB=(ASKIP,NORM)
* 'LCTN-TITLE-4007-CH43'
ZFLD042  DFHMDF POS=(21,24),LENGTH=0035,ATTRB=(PROT),COLOR=TURQUOISE,  X
               HILIGHT=OFF
         DFHMDF POS=(21,60),LENGTH=0,ATTRB=(ASKIP,NORM)
* 'LCTN-OVRDE-4067-CH43'
ZFLD043  DFHMDF POS=(21,67),LENGTH=0001,ATTRB=(PROT),COLOR=TURQUOISE,  X
               HILIGHT=OFF
         DFHMDF POS=(21,69),LENGTH=0,ATTRB=(ASKIP,NORM)
* 'DCLINK-MESSAGE'
ZFLD044  DFHMDF POS=(21,80),LENGTH=0160,ATTRB=(PROT,BRT),              X
               COLOR=DEFAULT,HILIGHT=OFF
         DFHMDF POS=(24,01),LENGTH=0012,ATTRB=(PROT,ASKIP,NUM),        X
               INITIAL='NEXT SCREEN:',COLOR=BLUE,HILIGHT=OFF
* 'AGR-PASSED-ONE'
ZFLD045  DFHMDF POS=(24,14),LENGTH=0030,ATTRB=(UNPROT),COLOR=DEFAULT,  X
               HILIGHT=UNDERLINE
         DFHMDF POS=(24,45),LENGTH=0009,ATTRB=(PROT,ASKIP),            X
               INITIAL='RESPONSE:',COLOR=BLUE,HILIGHT=OFF
* 'AGR-MAP-RESPONSE'
ZFLD046  DFHMDF POS=(24,55),LENGTH=0008,ATTRB=(UNPROT),COLOR=DEFAULT,  X
               HILIGHT=UNDERLINE
         DFHMDF POS=(24,64),LENGTH=0,ATTRB=(ASKIP,NORM)
* 'ERROR-TEXT-SY00'
ZFLD047  DFHMDF POS=(24,65),LENGTH=0014,ATTRB=(PROT,DRK),              X
               COLOR=DEFAULT,HILIGHT=OFF
         DFHMSD TYPE=FINAL
         END
