FCHMU30  DFHMSD TYPE=MAP,LANG=COBOL,TERM=3270,MODE=INOUT,              X
               TIOAPFX=YES,MAPATTS=(COLOR,HILIGHT),                    X
               DSATTS=(COLOR,HILIGHT)
FCHMU30  DFHMDI SIZE=(24,80),LINE=1,COLUMN=1,CTRL=FREEKB,TIOAPFX=YES
         DFHMDF POS=(01,01),LENGTH=0007,ATTRB=(PROT,ASKIP),            X
               INITIAL='FCHMU30',COLOR=BLUE,HILIGHT=OFF
* 'TRMNL-ID-SY00'
ZFLD002  DFHMDF POS=(01,10),LENGTH=0008,ATTRB=(PROT),COLOR=BLUE,       X
               HILIGHT=OFF
         DFHMDF POS=(01,19),LENGTH=0,ATTRB=(ASKIP,NORM)
* 'FULL-NAME-6001-SY00'
ZFLD003  DFHMDF POS=(01,23),LENGTH=0035,ATTRB=(PROT),COLOR=BLUE,       X
               HILIGHT=OFF
         DFHMDF POS=(01,59),LENGTH=0,ATTRB=(ASKIP,NORM)
* 'AGR-DATE'
ZFLD004  DFHMDF POS=(01,64),LENGTH=0008,ATTRB=(PROT),COLOR=BLUE,       X
               HILIGHT=OFF
* 'WORK-HH-MM-TIME-SY00'
ZFLD005  DFHMDF POS=(01,73),LENGTH=0005,ATTRB=(PROT),COLOR=BLUE,       X
               HILIGHT=OFF
* 'AM-PM-FLAG-SY00'
ZFLD006  DFHMDF POS=(01,79),LENGTH=0001,ATTRB=(PROT),COLOR=BLUE,       X
               HILIGHT=OFF
* 'AGR-USER-ID'
ZFLD007  DFHMDF POS=(02,01),LENGTH=0008,ATTRB=(PROT),COLOR=BLUE,       X
               HILIGHT=OFF
         DFHMDF POS=(02,10),LENGTH=0,ATTRB=(ASKIP,NORM)
* 'CURR-RSPNS-ID-SY00'
ZFLD008  DFHMDF POS=(02,21),LENGTH=0008,ATTRB=(PROT,BRT),              X
               COLOR=DEFAULT,HILIGHT=OFF
         DFHMDF POS=(02,30),LENGTH=0001,ATTRB=(PROT,ASKIP,BRT),        X
               INITIAL=':',COLOR=DEFAULT,HILIGHT=OFF
* 'AGR-FUNC-DESCRIPTION'
ZFLD009  DFHMDF POS=(02,32),LENGTH=0028,ATTRB=(PROT,BRT),              X
               COLOR=DEFAULT,HILIGHT=OFF
         DFHMDF POS=(02,61),LENGTH=0,ATTRB=(ASKIP,NORM)
* 'PAGE-STATUS-CODE-SY00'
ZFLD010  DFHMDF POS=(02,64),LENGTH=0010,ATTRB=(PROT,BRT),              X
               COLOR=DEFAULT,HILIGHT=OFF
         DFHMDF POS=(02,75),LENGTH=0,ATTRB=(ASKIP,NORM)
         DFHMDF POS=(04,01),LENGTH=0014,ATTRB=(PROT,ASKIP),            X
               INITIAL='COA CODE     :',COLOR=BLUE,HILIGHT=OFF
* 'COA-CODE-CH30'
ZFLD011  DFHMDF POS=(04,16),LENGTH=0001,ATTRB=(UNPROT,IC),             X
               COLOR=DEFAULT,HILIGHT=UNDERLINE
         DFHMDF POS=(04,18),LENGTH=0,ATTRB=(ASKIP,NORM)
         DFHMDF POS=(05,01),LENGTH=0014,ATTRB=(PROT,ASKIP),            X
               INITIAL='RECORD NUMBER:',COLOR=BLUE,HILIGHT=OFF
* 'RCRD-NMBR-CH30'
ZFLD012  DFHMDF POS=(05,16),LENGTH=0004,ATTRB=(UNPROT),COLOR=DEFAULT,  X
               HILIGHT=UNDERLINE
         DFHMDF POS=(05,21),LENGTH=0,ATTRB=(ASKIP,NORM)
* 'RCRD-NAME-CH30'
ZFLD013  DFHMDF POS=(05,22),LENGTH=0016,ATTRB=(PROT),COLOR=TURQUOISE,  X
               HILIGHT=OFF
         DFHMDF POS=(05,39),LENGTH=0,ATTRB=(ASKIP,NORM)
         DFHMDF POS=(06,01),LENGTH=0014,ATTRB=(PROT,ASKIP),            X
               INITIAL='ELEMENT VALUE:',COLOR=BLUE,HILIGHT=OFF
* 'ELMNT-VALUE-CH30'
ZFLD014  DFHMDF POS=(06,16),LENGTH=0015,ATTRB=(UNPROT),COLOR=DEFAULT,  X
               HILIGHT=UNDERLINE
         DFHMDF POS=(06,32),LENGTH=0,ATTRB=(ASKIP,NORM)
         DFHMDF POS=(08,01),LENGTH=0148,ATTRB=(PROT,ASKIP),            X
               INITIAL='  ACT    DATA           FULL DESCRIPTION       X
                      STD    DATA CODE          (ACDR)   CODE          X
                                              TEXT     VALUE',         X
               COLOR=BLUE,HILIGHT=OFF
* 'ACTN-CODE-CH30'
ZFLD015  DFHMDF POS=(10,03),LENGTH=0001,ATTRB=(UNPROT),COLOR=DEFAULT,  X
               HILIGHT=OFF
         DFHMDF POS=(10,05),LENGTH=0,ATTRB=(ASKIP,NORM)
* 'DATA-CODE-4037-CH30'
ZFLD016  DFHMDF POS=(10,10),LENGTH=0006,ATTRB=(UNPROT),COLOR=DEFAULT,  X
               HILIGHT=UNDERLINE
         DFHMDF POS=(10,17),LENGTH=0,ATTRB=(ASKIP,NORM)
* 'LONG-DESC-4038-CH30'
ZFLD017  DFHMDF POS=(10,18),LENGTH=0035,ATTRB=(PROT),COLOR=TURQUOISE,  X
               HILIGHT=OFF
         DFHMDF POS=(10,54),LENGTH=0,ATTRB=(ASKIP,NORM)
* 'STD-TEXT-CH30'
ZFLD018  DFHMDF POS=(10,56),LENGTH=0001,ATTRB=(PROT),COLOR=TURQUOISE,  X
               HILIGHT=OFF
         DFHMDF POS=(10,58),LENGTH=0,ATTRB=(ASKIP,NORM)
* 'DATA-CODE-VALUE-4037-CH30'
ZFLD019  DFHMDF POS=(10,60),LENGTH=0015,ATTRB=(UNPROT),COLOR=DEFAULT,  X
               HILIGHT=UNDERLINE
         DFHMDF POS=(10,76),LENGTH=0,ATTRB=(ASKIP,NORM)
* 'ACTN-CODE-CH30'
ZFLD020  DFHMDF POS=(12,03),LENGTH=0001,ATTRB=(UNPROT),COLOR=DEFAULT,  X
               HILIGHT=OFF
         DFHMDF POS=(12,05),LENGTH=0,ATTRB=(ASKIP,NORM)
* 'DATA-CODE-4037-CH30'
ZFLD021  DFHMDF POS=(12,10),LENGTH=0006,ATTRB=(UNPROT),COLOR=DEFAULT,  X
               HILIGHT=UNDERLINE
         DFHMDF POS=(12,17),LENGTH=0,ATTRB=(ASKIP,NORM)
* 'LONG-DESC-4038-CH30'
ZFLD022  DFHMDF POS=(12,18),LENGTH=0035,ATTRB=(PROT),COLOR=TURQUOISE,  X
               HILIGHT=OFF
         DFHMDF POS=(12,54),LENGTH=0,ATTRB=(ASKIP,NORM)
* 'STD-TEXT-CH30'
ZFLD023  DFHMDF POS=(12,56),LENGTH=0001,ATTRB=(PROT),COLOR=TURQUOISE,  X
               HILIGHT=OFF
         DFHMDF POS=(12,58),LENGTH=0,ATTRB=(ASKIP,NORM)
* 'DATA-CODE-VALUE-4037-CH30'
ZFLD024  DFHMDF POS=(12,60),LENGTH=0015,ATTRB=(UNPROT),COLOR=DEFAULT,  X
               HILIGHT=UNDERLINE
         DFHMDF POS=(12,76),LENGTH=0,ATTRB=(ASKIP,NORM)
* 'ACTN-CODE-CH30'
ZFLD025  DFHMDF POS=(14,03),LENGTH=0001,ATTRB=(UNPROT),COLOR=DEFAULT,  X
               HILIGHT=OFF
         DFHMDF POS=(14,05),LENGTH=0,ATTRB=(ASKIP,NORM)
* 'DATA-CODE-4037-CH30'
ZFLD026  DFHMDF POS=(14,10),LENGTH=0006,ATTRB=(UNPROT),COLOR=DEFAULT,  X
               HILIGHT=UNDERLINE
         DFHMDF POS=(14,17),LENGTH=0,ATTRB=(ASKIP,NORM)
* 'LONG-DESC-4038-CH30'
ZFLD027  DFHMDF POS=(14,18),LENGTH=0035,ATTRB=(PROT),COLOR=TURQUOISE,  X
               HILIGHT=OFF
         DFHMDF POS=(14,54),LENGTH=0,ATTRB=(ASKIP,NORM)
* 'STD-TEXT-CH30'
ZFLD028  DFHMDF POS=(14,56),LENGTH=0001,ATTRB=(PROT),COLOR=TURQUOISE,  X
               HILIGHT=OFF
         DFHMDF POS=(14,58),LENGTH=0,ATTRB=(ASKIP,NORM)
* 'DATA-CODE-VALUE-4037-CH30'
ZFLD029  DFHMDF POS=(14,60),LENGTH=0015,ATTRB=(UNPROT),COLOR=DEFAULT,  X
               HILIGHT=UNDERLINE
         DFHMDF POS=(14,76),LENGTH=0,ATTRB=(ASKIP,NORM)
* 'ACTN-CODE-CH30'
ZFLD030  DFHMDF POS=(16,03),LENGTH=0001,ATTRB=(UNPROT),COLOR=DEFAULT,  X
               HILIGHT=OFF
         DFHMDF POS=(16,05),LENGTH=0,ATTRB=(ASKIP,NORM)
* 'DATA-CODE-4037-CH30'
ZFLD031  DFHMDF POS=(16,10),LENGTH=0006,ATTRB=(UNPROT),COLOR=DEFAULT,  X
               HILIGHT=UNDERLINE
         DFHMDF POS=(16,17),LENGTH=0,ATTRB=(ASKIP,NORM)
* 'LONG-DESC-4038-CH30'
ZFLD032  DFHMDF POS=(16,18),LENGTH=0035,ATTRB=(PROT),COLOR=TURQUOISE,  X
               HILIGHT=OFF
         DFHMDF POS=(16,54),LENGTH=0,ATTRB=(ASKIP,NORM)
* 'STD-TEXT-CH30'
ZFLD033  DFHMDF POS=(16,56),LENGTH=0001,ATTRB=(PROT),COLOR=TURQUOISE,  X
               HILIGHT=OFF
         DFHMDF POS=(16,58),LENGTH=0,ATTRB=(ASKIP,NORM)
* 'DATA-CODE-VALUE-4037-CH30'
ZFLD034  DFHMDF POS=(16,60),LENGTH=0015,ATTRB=(UNPROT),COLOR=DEFAULT,  X
               HILIGHT=UNDERLINE
         DFHMDF POS=(16,76),LENGTH=0,ATTRB=(ASKIP,NORM)
         DFHMDF POS=(19,01),LENGTH=0018,ATTRB=(PROT,ASKIP),            X
               INITIAL='DATA CODE REQUEST:',COLOR=BLUE,HILIGHT=OFF
* 'RQST-DATA-CODE-CH30'
ZFLD035  DFHMDF POS=(19,20),LENGTH=0006,ATTRB=(UNPROT),COLOR=DEFAULT,  X
               HILIGHT=UNDERLINE
         DFHMDF POS=(19,27),LENGTH=0,ATTRB=(ASKIP,NORM)
* 'DCLINK-MESSAGE'
ZFLD036  DFHMDF POS=(21,80),LENGTH=0160,ATTRB=(PROT,BRT),              X
               COLOR=DEFAULT,HILIGHT=OFF
         DFHMDF POS=(24,01),LENGTH=0012,ATTRB=(PROT,ASKIP,NUM),        X
               INITIAL='NEXT SCREEN:',COLOR=BLUE,HILIGHT=OFF
* 'AGR-PASSED-ONE'
ZFLD037  DFHMDF POS=(24,14),LENGTH=0030,ATTRB=(UNPROT),COLOR=DEFAULT,  X
               HILIGHT=UNDERLINE
         DFHMDF POS=(24,45),LENGTH=0009,ATTRB=(PROT,ASKIP),            X
               INITIAL='RESPONSE:',COLOR=BLUE,HILIGHT=OFF
* 'AGR-MAP-RESPONSE'
ZFLD038  DFHMDF POS=(24,55),LENGTH=0008,ATTRB=(UNPROT),COLOR=DEFAULT,  X
               HILIGHT=UNDERLINE
         DFHMDF POS=(24,64),LENGTH=0,ATTRB=(ASKIP,NORM)
* 'ERROR-TEXT-SY00'
ZFLD039  DFHMDF POS=(24,65),LENGTH=0014,ATTRB=(PROT,DRK),              X
               COLOR=DEFAULT,HILIGHT=OFF
         DFHMSD TYPE=FINAL
         END
