FCHMU61  DFHMSD TYPE=MAP,LANG=COBOL,TERM=3270,MODE=INOUT,              X
               TIOAPFX=YES,MAPATTS=(COLOR,HILIGHT),                    X
               DSATTS=(COLOR,HILIGHT)
FCHMU61  DFHMDI SIZE=(24,80),LINE=1,COLUMN=1,CTRL=FREEKB,TIOAPFX=YES
         DFHMDF POS=(01,01),LENGTH=0007,ATTRB=(PROT,ASKIP),            X
               INITIAL='FCHMU61',COLOR=BLUE,HILIGHT=OFF
* 'TRMNL-ID-SY00'
ZFLD002  DFHMDF POS=(01,10),LENGTH=0008,ATTRB=(PROT),COLOR=BLUE,       X
               HILIGHT=OFF
         DFHMDF POS=(01,19),LENGTH=0,ATTRB=(ASKIP,NORM)
* 'FULL-NAME-6001-SY00'
ZFLD003  DFHMDF POS=(01,23),LENGTH=0035,ATTRB=(PROT),COLOR=BLUE,       X
               HILIGHT=OFF
         DFHMDF POS=(01,59),LENGTH=0,ATTRB=(ASKIP,NORM)
* 'AGR-DATE'
ZFLD004  DFHMDF POS=(01,64),LENGTH=0008,ATTRB=(PROT),COLOR=BLUE,       X
               HILIGHT=OFF
* 'WORK-HH-MM-TIME-SY00'
ZFLD005  DFHMDF POS=(01,73),LENGTH=0005,ATTRB=(PROT),COLOR=BLUE,       X
               HILIGHT=OFF
* 'AM-PM-FLAG-SY00'
ZFLD006  DFHMDF POS=(01,79),LENGTH=0001,ATTRB=(PROT),COLOR=BLUE,       X
               HILIGHT=OFF
* 'AGR-USER-ID'
ZFLD007  DFHMDF POS=(02,01),LENGTH=0008,ATTRB=(PROT),COLOR=BLUE,       X
               HILIGHT=OFF
         DFHMDF POS=(02,10),LENGTH=0,ATTRB=(ASKIP,NORM)
* 'CURR-RSPNS-ID-SY00'
ZFLD008  DFHMDF POS=(02,21),LENGTH=0008,ATTRB=(PROT,BRT),              X
               COLOR=DEFAULT,HILIGHT=OFF
         DFHMDF POS=(02,30),LENGTH=0001,ATTRB=(PROT,ASKIP,BRT),        X
               INITIAL=':',COLOR=DEFAULT,HILIGHT=OFF
* 'AGR-FUNC-DESCRIPTION'
ZFLD009  DFHMDF POS=(02,32),LENGTH=0028,ATTRB=(PROT,BRT),              X
               COLOR=DEFAULT,HILIGHT=OFF
         DFHMDF POS=(02,61),LENGTH=0,ATTRB=(ASKIP,NORM)
* 'PAGE-STATUS-CODE-SY00'
ZFLD010  DFHMDF POS=(02,64),LENGTH=0010,ATTRB=(PROT,BRT),              X
               COLOR=DEFAULT,HILIGHT=OFF
         DFHMDF POS=(02,75),LENGTH=0,ATTRB=(ASKIP,NORM)
* 'DCSD-TEXT-SY01'
ZFLD011  DFHMDF POS=(03,52),LENGTH=0008,ATTRB=(PROT,DRK),              X
               COLOR=DEFAULT,HILIGHT=OFF
         DFHMDF POS=(03,61),LENGTH=0,ATTRB=(ASKIP,NORM)
* 'CNFDL-TEXT-SY01'
ZFLD012  DFHMDF POS=(03,62),LENGTH=0011,ATTRB=(PROT,DRK),              X
               COLOR=DEFAULT,HILIGHT=OFF
         DFHMDF POS=(03,74),LENGTH=0,ATTRB=(ASKIP,NORM)
* 'HOLDS-TEXT-SY01'
ZFLD013  DFHMDF POS=(03,75),LENGTH=0005,ATTRB=(PROT,DRK),              X
               COLOR=DEFAULT,HILIGHT=OFF
         DFHMDF POS=(04,01),LENGTH=0,ATTRB=(ASKIP,NORM)
         DFHMDF POS=(04,18),LENGTH=0004,ATTRB=(PROT,ASKIP),            X
               INITIAL='COA:',COLOR=BLUE,HILIGHT=OFF
* 'COA-CODE-4026-CH61'
ZFLD014  DFHMDF POS=(04,23),LENGTH=0001,ATTRB=(PROT),COLOR=TURQUOISE,  X
               HILIGHT=OFF
         DFHMDF POS=(04,25),LENGTH=0,ATTRB=(ASKIP,NORM)
         DFHMDF POS=(05,03),LENGTH=0019,ATTRB=(PROT,ASKIP),            X
               INITIAL='INDIRECT COST CODE:',COLOR=BLUE,HILIGHT=OFF
* 'INDRT-COST-CODE-4026-CH61'
ZFLD015  DFHMDF POS=(05,23),LENGTH=0006,ATTRB=(PROT),COLOR=TURQUOISE,  X
               HILIGHT=OFF
         DFHMDF POS=(05,30),LENGTH=0,ATTRB=(ASKIP,NORM)
* 'INDRT-COST-DESC-4065-CH61'
ZFLD016  DFHMDF POS=(05,32),LENGTH=0035,ATTRB=(PROT),COLOR=TURQUOISE,  X
               HILIGHT=OFF
         DFHMDF POS=(05,68),LENGTH=0,ATTRB=(ASKIP,NORM)
         DFHMDF POS=(06,20),LENGTH=0006,ATTRB=(PROT,ASKIP),            X
               INITIAL='BASIS:',COLOR=BLUE,HILIGHT=OFF
* 'INDRT-COST-BASIS-4065-CH61'
ZFLD017  DFHMDF POS=(06,27),LENGTH=0001,ATTRB=(PROT),COLOR=TURQUOISE,  X
               HILIGHT=OFF
         DFHMDF POS=(06,29),LENGTH=0,ATTRB=(ASKIP,NORM)
         DFHMDF POS=(06,35),LENGTH=0006,ATTRB=(PROT,ASKIP),            X
               INITIAL='APPLY:',COLOR=BLUE,HILIGHT=OFF
* 'APPLY-TO-BASIS-IND-4065-CH61'
ZFLD018  DFHMDF POS=(06,42),LENGTH=0001,ATTRB=(PROT),COLOR=TURQUOISE,  X
               HILIGHT=OFF
         DFHMDF POS=(06,44),LENGTH=0,ATTRB=(ASKIP,NORM)
         DFHMDF POS=(06,49),LENGTH=0011,ATTRB=(PROT,ASKIP),            X
               INITIAL='PERCENTAGE:',COLOR=BLUE,HILIGHT=OFF
* 'INDRT-COST-STNDD-PCT-4065-CH61'
ZFLD019  DFHMDF POS=(06,61),LENGTH=0007,ATTRB=(PROT),COLOR=TURQUOISE,  X
               HILIGHT=OFF
         DFHMDF POS=(06,69),LENGTH=0,ATTRB=(ASKIP,NORM)
         DFHMDF POS=(7,19),LENGTH=24,                                  *00000880
               INITIAL='SUBCONTRACT (637296) IDC',ATTRB=(ASKIP,NORM),  *00000890
               COLOR=BLUE                                               00000900
         DFHMDF POS=(7,44),LENGTH=27,                                  *00000910
               INITIAL='CALC(A=ALL L=$25K N=NONE) :',ATTRB=(ASKIP,NORM)*00000920
               ,COLOR=BLUE                                              00000930
*'PO-SUBCNT-EXCL-IND-CH61'                                              00000940
ZFLD070  DFHMDF POS=(7,72),LENGTH=1,JUSTIFY=(LEFT,BLANK),ATTRB=(ASKIP,N*00000950
               ORM)                                                     00000960
         DFHMDF POS=(7,74),LENGTH=1,ATTRB=(ASKIP,NORM)                  00000970
         DFHMDF POS=(09,18),LENGTH=0044,ATTRB=(PROT,ASKIP),            X
               INITIAL='ACT       APPLY FROM    APPLY TO    OVERRIDE', X
               COLOR=BLUE,HILIGHT=OFF
         DFHMDF POS=(10,17),LENGTH=0044,ATTRB=(PROT,ASKIP),            X
               INITIAL='(ACDR)      ACCOUNT      ACCOUNT     PERCENT', X
               COLOR=BLUE,HILIGHT=OFF
* 'ACTN-CODE-CH61'
ZFLD020  DFHMDF POS=(11,19),LENGTH=0001,ATTRB=(UNPROT,IC),             X
               COLOR=DEFAULT,HILIGHT=OFF
         DFHMDF POS=(11,21),LENGTH=0,ATTRB=(ASKIP,NORM)
* 'INDRT-COST-FROM-ACCT-4027-CH61'
ZFLD021  DFHMDF POS=(11,30),LENGTH=0006,ATTRB=(UNPROT),COLOR=DEFAULT,  X
               HILIGHT=UNDERLINE
         DFHMDF POS=(11,37),LENGTH=0,ATTRB=(ASKIP,NORM)
* 'INDRT-COST-TO-ACCT-4027-CH61'
ZFLD022  DFHMDF POS=(11,43),LENGTH=0006,ATTRB=(UNPROT),COLOR=DEFAULT,  X
               HILIGHT=UNDERLINE
         DFHMDF POS=(11,50),LENGTH=0,ATTRB=(ASKIP,NORM)
* 'INDRT-COST-PCT-4027-CH61'
ZFLD023  DFHMDF POS=(11,54),LENGTH=0007,ATTRB=(UNPROT),COLOR=DEFAULT,  X
               HILIGHT=UNDERLINE
         DFHMDF POS=(11,62),LENGTH=0,ATTRB=(ASKIP,NORM)
* 'ACTN-CODE-CH61'
ZFLD024  DFHMDF POS=(12,19),LENGTH=0001,ATTRB=(UNPROT),COLOR=DEFAULT,  X
               HILIGHT=OFF
         DFHMDF POS=(12,21),LENGTH=0,ATTRB=(ASKIP,NORM)
* 'INDRT-COST-FROM-ACCT-4027-CH61'
ZFLD025  DFHMDF POS=(12,30),LENGTH=0006,ATTRB=(UNPROT),COLOR=DEFAULT,  X
               HILIGHT=UNDERLINE
         DFHMDF POS=(12,37),LENGTH=0,ATTRB=(ASKIP,NORM)
* 'INDRT-COST-TO-ACCT-4027-CH61'
ZFLD026  DFHMDF POS=(12,43),LENGTH=0006,ATTRB=(UNPROT),COLOR=DEFAULT,  X
               HILIGHT=UNDERLINE
         DFHMDF POS=(12,50),LENGTH=0,ATTRB=(ASKIP,NORM)
* 'INDRT-COST-PCT-4027-CH61'
ZFLD027  DFHMDF POS=(12,54),LENGTH=0007,ATTRB=(UNPROT),COLOR=DEFAULT,  X
               HILIGHT=UNDERLINE
         DFHMDF POS=(12,62),LENGTH=0,ATTRB=(ASKIP,NORM)
* 'ACTN-CODE-CH61'
ZFLD028  DFHMDF POS=(13,19),LENGTH=0001,ATTRB=(UNPROT),COLOR=DEFAULT,  X
               HILIGHT=OFF
         DFHMDF POS=(13,21),LENGTH=0,ATTRB=(ASKIP,NORM)
* 'INDRT-COST-FROM-ACCT-4027-CH61'
ZFLD029  DFHMDF POS=(13,30),LENGTH=0006,ATTRB=(UNPROT),COLOR=DEFAULT,  X
               HILIGHT=UNDERLINE
         DFHMDF POS=(13,37),LENGTH=0,ATTRB=(ASKIP,NORM)
* 'INDRT-COST-TO-ACCT-4027-CH61'
ZFLD030  DFHMDF POS=(13,43),LENGTH=0006,ATTRB=(UNPROT),COLOR=DEFAULT,  X
               HILIGHT=UNDERLINE
         DFHMDF POS=(13,50),LENGTH=0,ATTRB=(ASKIP,NORM)
* 'INDRT-COST-PCT-4027-CH61'
ZFLD031  DFHMDF POS=(13,54),LENGTH=0007,ATTRB=(UNPROT),COLOR=DEFAULT,  X
               HILIGHT=UNDERLINE
         DFHMDF POS=(13,62),LENGTH=0,ATTRB=(ASKIP,NORM)
* 'ACTN-CODE-CH61'
ZFLD032  DFHMDF POS=(14,19),LENGTH=0001,ATTRB=(UNPROT),COLOR=DEFAULT,  X
               HILIGHT=OFF
         DFHMDF POS=(14,21),LENGTH=0,ATTRB=(ASKIP,NORM)
* 'INDRT-COST-FROM-ACCT-4027-CH61'
ZFLD033  DFHMDF POS=(14,30),LENGTH=0006,ATTRB=(UNPROT),COLOR=DEFAULT,  X
               HILIGHT=UNDERLINE
         DFHMDF POS=(14,37),LENGTH=0,ATTRB=(ASKIP,NORM)
* 'INDRT-COST-TO-ACCT-4027-CH61'
ZFLD034  DFHMDF POS=(14,43),LENGTH=0006,ATTRB=(UNPROT),COLOR=DEFAULT,  X
               HILIGHT=UNDERLINE
         DFHMDF POS=(14,50),LENGTH=0,ATTRB=(ASKIP,NORM)
* 'INDRT-COST-PCT-4027-CH61'
ZFLD035  DFHMDF POS=(14,54),LENGTH=0007,ATTRB=(UNPROT),COLOR=DEFAULT,  X
               HILIGHT=UNDERLINE
         DFHMDF POS=(14,62),LENGTH=0,ATTRB=(ASKIP,NORM)
* 'ACTN-CODE-CH61'
ZFLD036  DFHMDF POS=(15,19),LENGTH=0001,ATTRB=(UNPROT),COLOR=DEFAULT,  X
               HILIGHT=OFF
         DFHMDF POS=(15,21),LENGTH=0,ATTRB=(ASKIP,NORM)
* 'INDRT-COST-FROM-ACCT-4027-CH61'
ZFLD037  DFHMDF POS=(15,30),LENGTH=0006,ATTRB=(UNPROT),COLOR=DEFAULT,  X
               HILIGHT=UNDERLINE
         DFHMDF POS=(15,37),LENGTH=0,ATTRB=(ASKIP,NORM)
* 'INDRT-COST-TO-ACCT-4027-CH61'
ZFLD038  DFHMDF POS=(15,43),LENGTH=0006,ATTRB=(UNPROT),COLOR=DEFAULT,  X
               HILIGHT=UNDERLINE
         DFHMDF POS=(15,50),LENGTH=0,ATTRB=(ASKIP,NORM)
* 'INDRT-COST-PCT-4027-CH61'
ZFLD039  DFHMDF POS=(15,54),LENGTH=0007,ATTRB=(UNPROT),COLOR=DEFAULT,  X
               HILIGHT=UNDERLINE
         DFHMDF POS=(15,62),LENGTH=0,ATTRB=(ASKIP,NORM)
* 'ACTN-CODE-CH61'
ZFLD040  DFHMDF POS=(16,19),LENGTH=0001,ATTRB=(UNPROT),COLOR=DEFAULT,  X
               HILIGHT=OFF
         DFHMDF POS=(16,21),LENGTH=0,ATTRB=(ASKIP,NORM)
* 'INDRT-COST-FROM-ACCT-4027-CH61'
ZFLD041  DFHMDF POS=(16,30),LENGTH=0006,ATTRB=(UNPROT),COLOR=DEFAULT,  X
               HILIGHT=UNDERLINE
         DFHMDF POS=(16,37),LENGTH=0,ATTRB=(ASKIP,NORM)
* 'INDRT-COST-TO-ACCT-4027-CH61'
ZFLD042  DFHMDF POS=(16,43),LENGTH=0006,ATTRB=(UNPROT),COLOR=DEFAULT,  X
               HILIGHT=UNDERLINE
         DFHMDF POS=(16,50),LENGTH=0,ATTRB=(ASKIP,NORM)
* 'INDRT-COST-PCT-4027-CH61'
ZFLD043  DFHMDF POS=(16,54),LENGTH=0007,ATTRB=(UNPROT),COLOR=DEFAULT,  X
               HILIGHT=UNDERLINE
         DFHMDF POS=(16,62),LENGTH=0,ATTRB=(ASKIP,NORM)
* 'ACTN-CODE-CH61'
ZFLD044  DFHMDF POS=(17,19),LENGTH=0001,ATTRB=(UNPROT),COLOR=DEFAULT,  X
               HILIGHT=OFF
         DFHMDF POS=(17,21),LENGTH=0,ATTRB=(ASKIP,NORM)
* 'INDRT-COST-FROM-ACCT-4027-CH61'
ZFLD045  DFHMDF POS=(17,30),LENGTH=0006,ATTRB=(UNPROT),COLOR=DEFAULT,  X
               HILIGHT=UNDERLINE
         DFHMDF POS=(17,37),LENGTH=0,ATTRB=(ASKIP,NORM)
* 'INDRT-COST-TO-ACCT-4027-CH61'
ZFLD046  DFHMDF POS=(17,43),LENGTH=0006,ATTRB=(UNPROT),COLOR=DEFAULT,  X
               HILIGHT=UNDERLINE
         DFHMDF POS=(17,50),LENGTH=0,ATTRB=(ASKIP,NORM)
* 'INDRT-COST-PCT-4027-CH61'
ZFLD047  DFHMDF POS=(17,54),LENGTH=0007,ATTRB=(UNPROT),COLOR=DEFAULT,  X
               HILIGHT=UNDERLINE
         DFHMDF POS=(17,62),LENGTH=0,ATTRB=(ASKIP,NORM)
* 'ACTN-CODE-CH61'
ZFLD048  DFHMDF POS=(18,19),LENGTH=0001,ATTRB=(UNPROT),COLOR=DEFAULT,  X
               HILIGHT=OFF
         DFHMDF POS=(18,21),LENGTH=0,ATTRB=(ASKIP,NORM)
* 'INDRT-COST-FROM-ACCT-4027-CH61'
ZFLD049  DFHMDF POS=(18,30),LENGTH=0006,ATTRB=(UNPROT),COLOR=DEFAULT,  X
               HILIGHT=UNDERLINE
         DFHMDF POS=(18,37),LENGTH=0,ATTRB=(ASKIP,NORM)
* 'INDRT-COST-TO-ACCT-4027-CH61'
ZFLD050  DFHMDF POS=(18,43),LENGTH=0006,ATTRB=(UNPROT),COLOR=DEFAULT,  X
               HILIGHT=UNDERLINE
         DFHMDF POS=(18,50),LENGTH=0,ATTRB=(ASKIP,NORM)
* 'INDRT-COST-PCT-4027-CH61'
ZFLD051  DFHMDF POS=(18,54),LENGTH=0007,ATTRB=(UNPROT),COLOR=DEFAULT,  X
               HILIGHT=UNDERLINE
         DFHMDF POS=(18,62),LENGTH=0,ATTRB=(ASKIP,NORM)
* 'ACTN-CODE-CH61'
ZFLD052  DFHMDF POS=(19,19),LENGTH=0001,ATTRB=(UNPROT),COLOR=DEFAULT,  X
               HILIGHT=OFF
         DFHMDF POS=(19,21),LENGTH=0,ATTRB=(ASKIP,NORM)
* 'INDRT-COST-FROM-ACCT-4027-CH61'
ZFLD053  DFHMDF POS=(19,30),LENGTH=0006,ATTRB=(UNPROT),COLOR=DEFAULT,  X
               HILIGHT=UNDERLINE
         DFHMDF POS=(19,37),LENGTH=0,ATTRB=(ASKIP,NORM)
* 'INDRT-COST-TO-ACCT-4027-CH61'
ZFLD054  DFHMDF POS=(19,43),LENGTH=0006,ATTRB=(UNPROT),COLOR=DEFAULT,  X
               HILIGHT=UNDERLINE
         DFHMDF POS=(19,50),LENGTH=0,ATTRB=(ASKIP,NORM)
* 'INDRT-COST-PCT-4027-CH61'
ZFLD055  DFHMDF POS=(19,54),LENGTH=0007,ATTRB=(UNPROT),COLOR=DEFAULT,  X
               HILIGHT=UNDERLINE
         DFHMDF POS=(19,62),LENGTH=0,ATTRB=(ASKIP,NORM)
         DFHMDF POS=(21,07),LENGTH=0015,ATTRB=(PROT,ASKIP),            X
               INITIAL='COMPLETE (Y/N):',COLOR=BLUE,HILIGHT=OFF
* 'CMPLT-IND-4065-CH61'
ZFLD056  DFHMDF POS=(21,23),LENGTH=0001,ATTRB=(UNPROT),COLOR=DEFAULT,  X
               HILIGHT=UNDERLINE
         DFHMDF POS=(21,25),LENGTH=0,ATTRB=(ASKIP,NORM)
* 'DCLINK-MESSAGE'
ZFLD057  DFHMDF POS=(21,80),LENGTH=0160,ATTRB=(PROT,BRT),              X
               COLOR=DEFAULT,HILIGHT=OFF
         DFHMDF POS=(24,01),LENGTH=0012,ATTRB=(PROT,ASKIP,NUM),        X
               INITIAL='NEXT SCREEN:',COLOR=BLUE,HILIGHT=OFF
* 'AGR-PASSED-ONE'
ZFLD058  DFHMDF POS=(24,14),LENGTH=0030,ATTRB=(UNPROT),COLOR=DEFAULT,  X
               HILIGHT=UNDERLINE
         DFHMDF POS=(24,45),LENGTH=0009,ATTRB=(PROT,ASKIP),            X
               INITIAL='RESPONSE:',COLOR=BLUE,HILIGHT=OFF
* 'AGR-MAP-RESPONSE'
ZFLD059  DFHMDF POS=(24,55),LENGTH=0008,ATTRB=(UNPROT),COLOR=DEFAULT,  X
               HILIGHT=UNDERLINE
         DFHMDF POS=(24,64),LENGTH=0,ATTRB=(ASKIP,NORM)
* 'ERROR-TEXT-SY00'
ZFLD060  DFHMDF POS=(24,65),LENGTH=0014,ATTRB=(PROT,DRK),              X
               COLOR=DEFAULT,HILIGHT=OFF
         DFHMSD TYPE=FINAL
         END
