FGAMU20  DFHMSD TYPE=MAP,LANG=COBOL,TERM=3270,MODE=INOUT,              X
               TIOAPFX=YES,MAPATTS=(COLOR,HILIGHT),                    X
               DSATTS=(COLOR,HILIGHT)
FGAMU20  DFHMDI SIZE=(24,80),LINE=1,COLUMN=1,CTRL=FREEKB,TIOAPFX=YES
         DFHMDF POS=(01,01),LENGTH=0007,ATTRB=(PROT,ASKIP),            X
               INITIAL='FGAMU20',COLOR=BLUE,HILIGHT=OFF
* 'TRMNL-ID-SY00'
ZFLD002  DFHMDF POS=(01,10),LENGTH=0008,ATTRB=(PROT),COLOR=BLUE,       X
               HILIGHT=OFF
         DFHMDF POS=(01,19),LENGTH=0,ATTRB=(ASKIP,NORM)
* 'FULL-NAME-6001-SY00'
ZFLD003  DFHMDF POS=(01,23),LENGTH=0035,ATTRB=(PROT),COLOR=BLUE,       X
               HILIGHT=OFF
         DFHMDF POS=(01,59),LENGTH=0,ATTRB=(ASKIP,NORM)
* 'AGR-DATE'
ZFLD004  DFHMDF POS=(01,64),LENGTH=0008,ATTRB=(PROT),COLOR=BLUE,       X
               HILIGHT=OFF
* 'WORK-HH-MM-TIME-SY00'
ZFLD005  DFHMDF POS=(01,73),LENGTH=0005,ATTRB=(PROT),COLOR=BLUE,       X
               HILIGHT=OFF
* 'AM-PM-FLAG-SY00'
ZFLD006  DFHMDF POS=(01,79),LENGTH=0001,ATTRB=(PROT),COLOR=BLUE,       X
               HILIGHT=OFF
* 'AGR-USER-ID'
ZFLD007  DFHMDF POS=(02,01),LENGTH=0008,ATTRB=(PROT),COLOR=BLUE,       X
               HILIGHT=OFF
         DFHMDF POS=(02,10),LENGTH=0,ATTRB=(ASKIP,NORM)
* 'CURR-RSPNS-ID-SY00'
ZFLD008  DFHMDF POS=(02,21),LENGTH=0008,ATTRB=(PROT,BRT),              X
               COLOR=DEFAULT,HILIGHT=OFF
         DFHMDF POS=(02,30),LENGTH=0001,ATTRB=(PROT,ASKIP,BRT),        X
               INITIAL=':',COLOR=DEFAULT,HILIGHT=OFF
* 'AGR-FUNC-DESCRIPTION'
ZFLD009  DFHMDF POS=(02,32),LENGTH=0028,ATTRB=(PROT,BRT),              X
               COLOR=DEFAULT,HILIGHT=OFF
         DFHMDF POS=(02,61),LENGTH=0,ATTRB=(ASKIP,NORM)
* 'PAGE-STATUS-CODE-SY00'
ZFLD010  DFHMDF POS=(02,64),LENGTH=0010,ATTRB=(PROT,BRT),              X
               COLOR=DEFAULT,HILIGHT=OFF
         DFHMDF POS=(02,75),LENGTH=0,ATTRB=(ASKIP,NORM)
         DFHMDF POS=(05,02),LENGTH=0012,ATTRB=(PROT,ASKIP),            X
               INITIAL='ACT (ACDP) :',COLOR=BLUE,HILIGHT=OFF
* 'ACTN-CODE-GA20'
ZFLD011  DFHMDF POS=(05,15),LENGTH=0001,ATTRB=(UNPROT,IC),             X
               COLOR=DEFAULT,HILIGHT=OFF
         DFHMDF POS=(05,17),LENGTH=0,ATTRB=(ASKIP,NORM)
         DFHMDF POS=(05,41),LENGTH=0012,ATTRB=(PROT,ASKIP),            X
               INITIAL='UPDATE BY  :',COLOR=BLUE,HILIGHT=OFF
* 'USER-CODE-GA20'
ZFLD012  DFHMDF POS=(05,54),LENGTH=0008,ATTRB=(PROT),COLOR=TURQUOISE,  X
               HILIGHT=OFF
         DFHMDF POS=(05,63),LENGTH=0,ATTRB=(ASKIP,NORM)
         DFHMDF POS=(05,65),LENGTH=0003,ATTRB=(PROT,ASKIP),            X
               INITIAL='ON:',COLOR=BLUE,HILIGHT=OFF
* 'LAST-ACTVY-DATE-GA20'
ZFLD013  DFHMDF POS=(05,69),LENGTH=0008,ATTRB=(PROT,ASKIP),COLOR=BLUE, X
               HILIGHT=OFF
         DFHMDF POS=(05,78),LENGTH=0,ATTRB=(ASKIP,NORM)
         DFHMDF POS=(06,41),LENGTH=0012,ATTRB=(PROT,ASKIP),            X
               INITIAL='HEADER ERRS:',COLOR=BLUE,HILIGHT=OFF
* 'HDR-ERROR-IND-4069-GA20'
ZFLD014  DFHMDF POS=(06,54),LENGTH=0001,ATTRB=(PROT),COLOR=TURQUOISE,  X
               HILIGHT=OFF
         DFHMDF POS=(06,56),LENGTH=0,ATTRB=(ASKIP,NORM)
         DFHMDF POS=(06,57),LENGTH=0011,ATTRB=(PROT,ASKIP),            X
               INITIAL='TRANS ERRS:',COLOR=BLUE,HILIGHT=OFF
* 'HDR-CNTR-ACCT-4069-GA20'
ZFLD015  DFHMDF POS=(06,69),LENGTH=0004,ATTRB=(PROT),COLOR=TURQUOISE,  X
               HILIGHT=OFF
         DFHMDF POS=(06,74),LENGTH=0,ATTRB=(ASKIP,NORM)
         DFHMDF POS=(07,41),LENGTH=0012,ATTRB=(PROT,ASKIP),            X
               INITIAL='TEXT EXIST :',COLOR=BLUE,HILIGHT=OFF
* 'TEXT-IND-GA20'
ZFLD016  DFHMDF POS=(07,54),LENGTH=0001,ATTRB=(PROT),COLOR=TURQUOISE,  X
               HILIGHT=OFF
         DFHMDF POS=(07,56),LENGTH=0,ATTRB=(ASKIP,NORM)
         DFHMDF POS=(09,02),LENGTH=0012,ATTRB=(PROT,ASKIP),            X
               INITIAL='DOCUMENT   :',COLOR=BLUE,HILIGHT=OFF
* 'DCMNT-NMBR-4069-GA20'
ZFLD017  DFHMDF POS=(09,15),LENGTH=0008,ATTRB=(UNPROT),COLOR=DEFAULT,  X
               HILIGHT=UNDERLINE
         DFHMDF POS=(09,24),LENGTH=0,ATTRB=(ASKIP,NORM)
* 'DCMNT-DESC-4069-GA20'
ZFLD018  DFHMDF POS=(09,26),LENGTH=0035,ATTRB=(UNPROT),COLOR=DEFAULT,  X
               HILIGHT=UNDERLINE
         DFHMDF POS=(09,62),LENGTH=0,ATTRB=(ASKIP,NORM)
* 'ENPET-LIT-GA20'
ZFLD019  DFHMDF POS=(10,15),LENGTH=0015,ATTRB=(PROT,BRT),COLOR=BLUE,   X
               HILIGHT=OFF
         DFHMDF POS=(10,31),LENGTH=0,ATTRB=(ASKIP,NORM)
* 'NEXT-SUB-LIT-GA20'
ZFLD020  DFHMDF POS=(11,02),LENGTH=0012,ATTRB=(PROT),COLOR=TURQUOISE,  X
               HILIGHT=OFF
* 'NEXT-SUB-DATE-GA20'
ZFLD021  DFHMDF POS=(11,15),LENGTH=0008,ATTRB=(PROT,ASKIP),            X
               COLOR=TURQUOISE,HILIGHT=OFF
         DFHMDF POS=(11,24),LENGTH=0,ATTRB=(ASKIP,NORM)
* 'LAST-SUB-LIT-GA20'
ZFLD022  DFHMDF POS=(11,26),LENGTH=0012,ATTRB=(PROT),COLOR=TURQUOISE,  X
               HILIGHT=OFF
* 'LAST-SUB-DATE-GA20'
ZFLD023  DFHMDF POS=(11,39),LENGTH=0008,ATTRB=(PROT,ASKIP),            X
               COLOR=TURQUOISE,HILIGHT=OFF
         DFHMDF POS=(11,48),LENGTH=0,ATTRB=(ASKIP,NORM)
         DFHMDF POS=(12,02),LENGTH=0012,ATTRB=(PROT,ASKIP),            X
               INITIAL='TRANS DATE :',COLOR=BLUE,HILIGHT=OFF
* 'TRANS-DATE-4069-GA20'
ZFLD024  DFHMDF POS=(12,15),LENGTH=0008,ATTRB=(UNPROT),COLOR=DEFAULT,  X
               HILIGHT=UNDERLINE
         DFHMDF POS=(12,24),LENGTH=0,ATTRB=(ASKIP,NORM)
         DFHMDF POS=(13,02),LENGTH=0012,ATTRB=(PROT,ASKIP),            X
               INITIAL='DOC TOTAL  :',COLOR=BLUE,HILIGHT=OFF
* 'DCMNT-AMT-4069-GA20'
ZFLD025  DFHMDF POS=(13,15),LENGTH=0017,ATTRB=(UNPROT),COLOR=DEFAULT,  X
               HILIGHT=UNDERLINE
         DFHMDF POS=(13,33),LENGTH=0,ATTRB=(ASKIP,NORM)
* 'DATA-DESC-GA20'
ZFLD026  DFHMDF POS=(13,36),LENGTH=0013,ATTRB=(PROT),COLOR=BLUE,       X
               HILIGHT=OFF
* 'CALC-TRANS-AMT-GA20'
ZFLD027  DFHMDF POS=(13,50),LENGTH=0017,ATTRB=(PROT,ASKIP),            X
               COLOR=TURQUOISE,HILIGHT=OFF
         DFHMDF POS=(13,68),LENGTH=0,ATTRB=(ASKIP,NORM)
         DFHMDF POS=(14,02),LENGTH=0012,ATTRB=(PROT,ASKIP),            X
               INITIAL='LAST UPDATE:',COLOR=BLUE,HILIGHT=OFF
* 'UPDT-ACTVY-DATE-GA20'
ZFLD028  DFHMDF POS=(14,15),LENGTH=0008,ATTRB=(PROT,ASKIP),            X
               COLOR=TURQUOISE,HILIGHT=OFF
* 'UPDT-TIME-STAMP-GA20'
ZFLD029  DFHMDF POS=(14,24),LENGTH=0008,ATTRB=(PROT),COLOR=TURQUOISE,  X
               HILIGHT=OFF
         DFHMDF POS=(14,33),LENGTH=0,ATTRB=(ASKIP,NORM)
         DFHMDF POS=(16,02),LENGTH=0012,ATTRB=(PROT,ASKIP),            X
               INITIAL='COMPLETE   :',COLOR=BLUE,HILIGHT=OFF
* 'CMPLT-IND-4069-GA20'
ZFLD030  DFHMDF POS=(16,15),LENGTH=0001,ATTRB=(UNPROT),COLOR=DEFAULT,  X
               HILIGHT=UNDERLINE
         DFHMDF POS=(16,17),LENGTH=0,ATTRB=(ASKIP,NORM)
         DFHMDF POS=(17,02),LENGTH=0012,ATTRB=(PROT,ASKIP),            X
               INITIAL='APPROVAL   :',COLOR=BLUE,HILIGHT=OFF
* 'APRVL-IND-4069-GA20'
ZFLD031  DFHMDF POS=(17,15),LENGTH=0001,ATTRB=(UNPROT),COLOR=DEFAULT,  X
               HILIGHT=UNDERLINE
         DFHMDF POS=(17,17),LENGTH=0,ATTRB=(ASKIP,NORM)
         DFHMDF POS=(18,02),LENGTH=0012,ATTRB=(PROT,ASKIP),            X
               INITIAL='TEMPLATE   :',COLOR=BLUE,HILIGHT=OFF
* 'APRVL-TMPLT-CODE-GA20'
ZFLD032  DFHMDF POS=(18,15),LENGTH=0003,ATTRB=(UNPROT),COLOR=DEFAULT,  X
               HILIGHT=UNDERLINE
         DFHMDF POS=(18,19),LENGTH=0,ATTRB=(ASKIP,NORM)
         DFHMDF POS=(19,02),LENGTH=0012,ATTRB=(PROT,ASKIP),            X
               INITIAL='POSTING    :',COLOR=BLUE,HILIGHT=OFF
* 'PSTNG-IND-4069-GA20'
ZFLD033  DFHMDF POS=(19,15),LENGTH=0001,ATTRB=(UNPROT),COLOR=DEFAULT,  X
               HILIGHT=UNDERLINE
         DFHMDF POS=(19,17),LENGTH=0,ATTRB=(ASKIP,NORM)
         DFHMDF POS=(19,26),LENGTH=0002,ATTRB=(PROT,ASKIP),            X
               INITIAL='DR',COLOR=BLUE,HILIGHT=OFF
         DFHMDF POS=(19,47),LENGTH=0002,ATTRB=(PROT,ASKIP),            X
               INITIAL='CR',COLOR=BLUE,HILIGHT=OFF
         DFHMDF POS=(19,67),LENGTH=0003,ATTRB=(PROT,ASKIP),            X
               INITIAL='NET',COLOR=BLUE,HILIGHT=OFF
* 'ENPET-TRANS-GA20'
ZFLD034  DFHMDF POS=(19,71),LENGTH=0008,ATTRB=(UNPROT,DRK),            X
               COLOR=DEFAULT,HILIGHT=OFF
         DFHMDF POS=(19,80),LENGTH=0,ATTRB=(ASKIP,NORM)
         DFHMDF POS=(20,02),LENGTH=0012,ATTRB=(PROT,ASKIP),            X
               INITIAL='TOTALS     :',COLOR=BLUE,HILIGHT=OFF
* 'SMRY-AMT-DR-GA20'
ZFLD035  DFHMDF POS=(20,15),LENGTH=0016,ATTRB=(PROT),COLOR=TURQUOISE,  X
               HILIGHT=OFF
         DFHMDF POS=(20,32),LENGTH=0,ATTRB=(ASKIP,NORM)
* 'SMRY-AMT-CR-GA20'
ZFLD036  DFHMDF POS=(20,36),LENGTH=0016,ATTRB=(PROT),COLOR=TURQUOISE,  X
               HILIGHT=OFF
         DFHMDF POS=(20,53),LENGTH=0,ATTRB=(ASKIP,NORM)
* 'SMRY-AMT-NET-GA20'
ZFLD037  DFHMDF POS=(20,58),LENGTH=0017,ATTRB=(PROT),COLOR=TURQUOISE,  X
               HILIGHT=OFF
         DFHMDF POS=(20,76),LENGTH=0,ATTRB=(ASKIP,NORM)
* 'ERROR-MSG-GA20'
ZFLD038  DFHMDF POS=(20,80),LENGTH=0079,ATTRB=(PROT),COLOR=NEUTRAL,    X
               HILIGHT=OFF
* 'DCLINK-MESSAGE'
ZFLD039  DFHMDF POS=(21,80),LENGTH=0160,ATTRB=(PROT,BRT),              X
               COLOR=DEFAULT,HILIGHT=OFF
         DFHMDF POS=(24,01),LENGTH=0012,ATTRB=(PROT,ASKIP,NUM),        X
               INITIAL='NEXT SCREEN:',COLOR=BLUE,HILIGHT=OFF
* 'AGR-PASSED-ONE'
ZFLD040  DFHMDF POS=(24,14),LENGTH=0030,ATTRB=(UNPROT),COLOR=DEFAULT,  X
               HILIGHT=UNDERLINE
         DFHMDF POS=(24,45),LENGTH=0009,ATTRB=(PROT,ASKIP),            X
               INITIAL='RESPONSE:',COLOR=BLUE,HILIGHT=OFF
* 'AGR-MAP-RESPONSE'
ZFLD041  DFHMDF POS=(24,55),LENGTH=0008,ATTRB=(UNPROT),COLOR=DEFAULT,  X
               HILIGHT=UNDERLINE
         DFHMDF POS=(24,64),LENGTH=0,ATTRB=(ASKIP,NORM)
* 'ERROR-TEXT-SY00'
ZFLD042  DFHMDF POS=(24,65),LENGTH=0014,ATTRB=(PROT,DRK),              X
               COLOR=DEFAULT,HILIGHT=OFF
         DFHMSD TYPE=FINAL
         END
