FGAMI07  DFHMSD TYPE=MAP,LANG=COBOL,TERM=3270,MODE=INOUT,              X
               TIOAPFX=YES,MAPATTS=(COLOR,HILIGHT),                    X
               DSATTS=(COLOR,HILIGHT)
FGAMI07  DFHMDI SIZE=(24,80),LINE=1,COLUMN=1,CTRL=FREEKB,TIOAPFX=YES
         DFHMDF POS=(01,01),LENGTH=0007,ATTRB=(PROT,ASKIP),            X
               INITIAL='FGAMI07',COLOR=BLUE,HILIGHT=OFF
* 'TRMNL-ID-SY00'
ZFLD002  DFHMDF POS=(01,10),LENGTH=0008,ATTRB=(PROT),COLOR=BLUE,       X
               HILIGHT=OFF
         DFHMDF POS=(01,19),LENGTH=0,ATTRB=(ASKIP,NORM)
* 'FULL-NAME-6001-SY00'
ZFLD003  DFHMDF POS=(01,23),LENGTH=0035,ATTRB=(PROT),COLOR=BLUE,       X
               HILIGHT=OFF
         DFHMDF POS=(01,59),LENGTH=0,ATTRB=(ASKIP,NORM)
* 'AGR-DATE'
ZFLD004  DFHMDF POS=(01,64),LENGTH=0008,ATTRB=(PROT),COLOR=BLUE,       X
               HILIGHT=OFF
* 'WORK-HH-MM-TIME-SY00'
ZFLD005  DFHMDF POS=(01,73),LENGTH=0005,ATTRB=(PROT),COLOR=BLUE,       X
               HILIGHT=OFF
* 'AM-PM-FLAG-SY00'
ZFLD006  DFHMDF POS=(01,79),LENGTH=0001,ATTRB=(PROT),COLOR=BLUE,       X
               HILIGHT=OFF
* 'AGR-USER-ID'
ZFLD007  DFHMDF POS=(02,01),LENGTH=0008,ATTRB=(PROT),COLOR=BLUE,       X
               HILIGHT=OFF
         DFHMDF POS=(02,10),LENGTH=0,ATTRB=(ASKIP,NORM)
* 'CURR-RSPNS-ID-SY00'
ZFLD008  DFHMDF POS=(02,21),LENGTH=0008,ATTRB=(PROT,BRT),              X
               COLOR=DEFAULT,HILIGHT=OFF
         DFHMDF POS=(02,30),LENGTH=0001,ATTRB=(PROT,ASKIP,BRT),        X
               INITIAL=':',COLOR=DEFAULT,HILIGHT=OFF
* 'AGR-FUNC-DESCRIPTION'
ZFLD009  DFHMDF POS=(02,32),LENGTH=0028,ATTRB=(PROT,BRT),              X
               COLOR=DEFAULT,HILIGHT=OFF
         DFHMDF POS=(02,61),LENGTH=0,ATTRB=(ASKIP,NORM)
* 'PAGE-STATUS-CODE-SY00'
ZFLD010  DFHMDF POS=(02,64),LENGTH=0010,ATTRB=(PROT,BRT),              X
               COLOR=DEFAULT,HILIGHT=OFF
         DFHMDF POS=(02,75),LENGTH=0,ATTRB=(ASKIP,NORM)
         DFHMDF POS=(04,01),LENGTH=0060,ATTRB=(PROT,ASKIP),            X
               INITIAL='COA    FUND    ACCOUNT   QUERY TYPE(R/S) FISCALX
                YEAR  PERIOD',COLOR=BLUE,HILIGHT=OFF
* 'COA-CODE-4197-GA07'
ZFLD011  DFHMDF POS=(05,02),LENGTH=0001,ATTRB=(UNPROT),COLOR=DEFAULT,  X
               HILIGHT=UNDERLINE
         DFHMDF POS=(05,04),LENGTH=0,ATTRB=(ASKIP,NORM)
* 'FUND-CODE-4197-GA07'
ZFLD012  DFHMDF POS=(05,08),LENGTH=0006,ATTRB=(UNPROT,IC),             X
               COLOR=DEFAULT,HILIGHT=UNDERLINE
         DFHMDF POS=(05,15),LENGTH=0,ATTRB=(ASKIP,NORM)
* 'ACCT-CODE-4197-GA07'
ZFLD013  DFHMDF POS=(05,17),LENGTH=0006,ATTRB=(UNPROT),COLOR=DEFAULT,  X
               HILIGHT=UNDERLINE
         DFHMDF POS=(05,24),LENGTH=0,ATTRB=(ASKIP,NORM)
* 'ACCESS-IND-GA07'
ZFLD014  DFHMDF POS=(05,32),LENGTH=0001,ATTRB=(UNPROT),COLOR=DEFAULT,  X
               HILIGHT=UNDERLINE
         DFHMDF POS=(05,34),LENGTH=0,ATTRB=(ASKIP,NORM)
* 'FSCL-YR-4197-GA07'
ZFLD015  DFHMDF POS=(05,48),LENGTH=0002,ATTRB=(UNPROT),COLOR=DEFAULT,  X
               HILIGHT=UNDERLINE
         DFHMDF POS=(05,51),LENGTH=0,ATTRB=(ASKIP,NORM)
* 'ACTG-PRD-4189-GA07'
ZFLD016  DFHMDF POS=(05,57),LENGTH=0002,ATTRB=(UNPROT),COLOR=DEFAULT,  X
               HILIGHT=UNDERLINE
         DFHMDF POS=(05,60),LENGTH=0,ATTRB=(ASKIP,NORM)
* 'PRD-START-DATE-4024-GA07'
ZFLD017  DFHMDF POS=(05,61),LENGTH=0008,ATTRB=(PROT),COLOR=BLUE,       X
               HILIGHT=OFF
         DFHMDF POS=(05,70),LENGTH=0001,ATTRB=(PROT,ASKIP),            X
               INITIAL='-',COLOR=BLUE,HILIGHT=OFF
* 'PRD-END-DATE-4024-GA07'
ZFLD018  DFHMDF POS=(05,72),LENGTH=0008,ATTRB=(PROT),COLOR=BLUE,       X
               HILIGHT=OFF
         DFHMDF POS=(06,01),LENGTH=0,ATTRB=(ASKIP,NORM)
         DFHMDF POS=(07,01),LENGTH=0159,ATTRB=(PROT,ASKIP),            X
               INITIAL='ACCT    TRANS    TYPE  DOCUMENT          DESCRIX
               PTION             AMOUNT       D         DATE           X
                                                                      CX
               ',COLOR=BLUE,HILIGHT=OFF
* 'ACCT-CODE-LIST-GA07'
ZFLD019  DFHMDF POS=(09,01),LENGTH=0006,ATTRB=(PROT),COLOR=TURQUOISE,  X
               HILIGHT=OFF
         DFHMDF POS=(09,08),LENGTH=0,ATTRB=(ASKIP,NORM)
* 'TRANS-DATE-4189-GA07'
ZFLD020  DFHMDF POS=(09,09),LENGTH=0008,ATTRB=(PROT),COLOR=TURQUOISE,  X
               HILIGHT=OFF
* 'JRNL-TYPE-4189-GA07'
ZFLD021  DFHMDF POS=(09,18),LENGTH=0004,ATTRB=(PROT),COLOR=TURQUOISE,  X
               HILIGHT=OFF
         DFHMDF POS=(09,23),LENGTH=0,ATTRB=(ASKIP,NORM)
* 'DCMNT-NMBR-4189-GA07'
ZFLD022  DFHMDF POS=(09,24),LENGTH=0008,ATTRB=(PROT),COLOR=TURQUOISE,  X
               HILIGHT=OFF
* 'TRANS-DESC-4188-GA07'
ZFLD023  DFHMDF POS=(09,33),LENGTH=0028,ATTRB=(PROT),COLOR=TURQUOISE,  X
               HILIGHT=OFF
* 'AMT-4189-GA07'
ZFLD024  DFHMDF POS=(09,62),LENGTH=0016,ATTRB=(PROT),COLOR=TURQUOISE,  X
               HILIGHT=OFF
* 'DEBIT-CRDT-IND-4189-GA07'
ZFLD025  DFHMDF POS=(09,79),LENGTH=0001,ATTRB=(PROT),COLOR=TURQUOISE,  X
               HILIGHT=OFF
* 'ACCT-CODE-LIST-GA07'
ZFLD026  DFHMDF POS=(10,01),LENGTH=0006,ATTRB=(PROT),COLOR=TURQUOISE,  X
               HILIGHT=OFF
         DFHMDF POS=(10,08),LENGTH=0,ATTRB=(ASKIP,NORM)
* 'TRANS-DATE-4189-GA07'
ZFLD027  DFHMDF POS=(10,09),LENGTH=0008,ATTRB=(PROT),COLOR=TURQUOISE,  X
               HILIGHT=OFF
* 'JRNL-TYPE-4189-GA07'
ZFLD028  DFHMDF POS=(10,18),LENGTH=0004,ATTRB=(PROT),COLOR=TURQUOISE,  X
               HILIGHT=OFF
         DFHMDF POS=(10,23),LENGTH=0,ATTRB=(ASKIP,NORM)
* 'DCMNT-NMBR-4189-GA07'
ZFLD029  DFHMDF POS=(10,24),LENGTH=0008,ATTRB=(PROT),COLOR=TURQUOISE,  X
               HILIGHT=OFF
* 'TRANS-DESC-4188-GA07'
ZFLD030  DFHMDF POS=(10,33),LENGTH=0028,ATTRB=(PROT),COLOR=TURQUOISE,  X
               HILIGHT=OFF
* 'AMT-4189-GA07'
ZFLD031  DFHMDF POS=(10,62),LENGTH=0016,ATTRB=(PROT),COLOR=TURQUOISE,  X
               HILIGHT=OFF
* 'DEBIT-CRDT-IND-4189-GA07'
ZFLD032  DFHMDF POS=(10,79),LENGTH=0001,ATTRB=(PROT),COLOR=TURQUOISE,  X
               HILIGHT=OFF
* 'ACCT-CODE-LIST-GA07'
ZFLD033  DFHMDF POS=(11,01),LENGTH=0006,ATTRB=(PROT),COLOR=TURQUOISE,  X
               HILIGHT=OFF
         DFHMDF POS=(11,08),LENGTH=0,ATTRB=(ASKIP,NORM)
* 'TRANS-DATE-4189-GA07'
ZFLD034  DFHMDF POS=(11,09),LENGTH=0008,ATTRB=(PROT),COLOR=TURQUOISE,  X
               HILIGHT=OFF
* 'JRNL-TYPE-4189-GA07'
ZFLD035  DFHMDF POS=(11,18),LENGTH=0004,ATTRB=(PROT),COLOR=TURQUOISE,  X
               HILIGHT=OFF
         DFHMDF POS=(11,23),LENGTH=0,ATTRB=(ASKIP,NORM)
* 'DCMNT-NMBR-4189-GA07'
ZFLD036  DFHMDF POS=(11,24),LENGTH=0008,ATTRB=(PROT),COLOR=TURQUOISE,  X
               HILIGHT=OFF
* 'TRANS-DESC-4188-GA07'
ZFLD037  DFHMDF POS=(11,33),LENGTH=0028,ATTRB=(PROT),COLOR=TURQUOISE,  X
               HILIGHT=OFF
* 'AMT-4189-GA07'
ZFLD038  DFHMDF POS=(11,62),LENGTH=0016,ATTRB=(PROT),COLOR=TURQUOISE,  X
               HILIGHT=OFF
* 'DEBIT-CRDT-IND-4189-GA07'
ZFLD039  DFHMDF POS=(11,79),LENGTH=0001,ATTRB=(PROT),COLOR=TURQUOISE,  X
               HILIGHT=OFF
* 'ACCT-CODE-LIST-GA07'
ZFLD040  DFHMDF POS=(12,01),LENGTH=0006,ATTRB=(PROT),COLOR=TURQUOISE,  X
               HILIGHT=OFF
         DFHMDF POS=(12,08),LENGTH=0,ATTRB=(ASKIP,NORM)
* 'TRANS-DATE-4189-GA07'
ZFLD041  DFHMDF POS=(12,09),LENGTH=0008,ATTRB=(PROT),COLOR=TURQUOISE,  X
               HILIGHT=OFF
* 'JRNL-TYPE-4189-GA07'
ZFLD042  DFHMDF POS=(12,18),LENGTH=0004,ATTRB=(PROT),COLOR=TURQUOISE,  X
               HILIGHT=OFF
         DFHMDF POS=(12,23),LENGTH=0,ATTRB=(ASKIP,NORM)
* 'DCMNT-NMBR-4189-GA07'
ZFLD043  DFHMDF POS=(12,24),LENGTH=0008,ATTRB=(PROT),COLOR=TURQUOISE,  X
               HILIGHT=OFF
* 'TRANS-DESC-4188-GA07'
ZFLD044  DFHMDF POS=(12,33),LENGTH=0028,ATTRB=(PROT),COLOR=TURQUOISE,  X
               HILIGHT=OFF
* 'AMT-4189-GA07'
ZFLD045  DFHMDF POS=(12,62),LENGTH=0016,ATTRB=(PROT),COLOR=TURQUOISE,  X
               HILIGHT=OFF
* 'DEBIT-CRDT-IND-4189-GA07'
ZFLD046  DFHMDF POS=(12,79),LENGTH=0001,ATTRB=(PROT),COLOR=TURQUOISE,  X
               HILIGHT=OFF
* 'ACCT-CODE-LIST-GA07'
ZFLD047  DFHMDF POS=(13,01),LENGTH=0006,ATTRB=(PROT),COLOR=TURQUOISE,  X
               HILIGHT=OFF
         DFHMDF POS=(13,08),LENGTH=0,ATTRB=(ASKIP,NORM)
* 'TRANS-DATE-4189-GA07'
ZFLD048  DFHMDF POS=(13,09),LENGTH=0008,ATTRB=(PROT),COLOR=TURQUOISE,  X
               HILIGHT=OFF
* 'JRNL-TYPE-4189-GA07'
ZFLD049  DFHMDF POS=(13,18),LENGTH=0004,ATTRB=(PROT),COLOR=TURQUOISE,  X
               HILIGHT=OFF
         DFHMDF POS=(13,23),LENGTH=0,ATTRB=(ASKIP,NORM)
* 'DCMNT-NMBR-4189-GA07'
ZFLD050  DFHMDF POS=(13,24),LENGTH=0008,ATTRB=(PROT),COLOR=TURQUOISE,  X
               HILIGHT=OFF
* 'TRANS-DESC-4188-GA07'
ZFLD051  DFHMDF POS=(13,33),LENGTH=0028,ATTRB=(PROT),COLOR=TURQUOISE,  X
               HILIGHT=OFF
* 'AMT-4189-GA07'
ZFLD052  DFHMDF POS=(13,62),LENGTH=0016,ATTRB=(PROT),COLOR=TURQUOISE,  X
               HILIGHT=OFF
* 'DEBIT-CRDT-IND-4189-GA07'
ZFLD053  DFHMDF POS=(13,79),LENGTH=0001,ATTRB=(PROT),COLOR=TURQUOISE,  X
               HILIGHT=OFF
* 'ACCT-CODE-LIST-GA07'
ZFLD054  DFHMDF POS=(14,01),LENGTH=0006,ATTRB=(PROT),COLOR=TURQUOISE,  X
               HILIGHT=OFF
         DFHMDF POS=(14,08),LENGTH=0,ATTRB=(ASKIP,NORM)
* 'TRANS-DATE-4189-GA07'
ZFLD055  DFHMDF POS=(14,09),LENGTH=0008,ATTRB=(PROT),COLOR=TURQUOISE,  X
               HILIGHT=OFF
* 'JRNL-TYPE-4189-GA07'
ZFLD056  DFHMDF POS=(14,18),LENGTH=0004,ATTRB=(PROT),COLOR=TURQUOISE,  X
               HILIGHT=OFF
         DFHMDF POS=(14,23),LENGTH=0,ATTRB=(ASKIP,NORM)
* 'DCMNT-NMBR-4189-GA07'
ZFLD057  DFHMDF POS=(14,24),LENGTH=0008,ATTRB=(PROT),COLOR=TURQUOISE,  X
               HILIGHT=OFF
* 'TRANS-DESC-4188-GA07'
ZFLD058  DFHMDF POS=(14,33),LENGTH=0028,ATTRB=(PROT),COLOR=TURQUOISE,  X
               HILIGHT=OFF
* 'AMT-4189-GA07'
ZFLD059  DFHMDF POS=(14,62),LENGTH=0016,ATTRB=(PROT),COLOR=TURQUOISE,  X
               HILIGHT=OFF
* 'DEBIT-CRDT-IND-4189-GA07'
ZFLD060  DFHMDF POS=(14,79),LENGTH=0001,ATTRB=(PROT),COLOR=TURQUOISE,  X
               HILIGHT=OFF
* 'ACCT-CODE-LIST-GA07'
ZFLD061  DFHMDF POS=(15,01),LENGTH=0006,ATTRB=(PROT),COLOR=TURQUOISE,  X
               HILIGHT=OFF
         DFHMDF POS=(15,08),LENGTH=0,ATTRB=(ASKIP,NORM)
* 'TRANS-DATE-4189-GA07'
ZFLD062  DFHMDF POS=(15,09),LENGTH=0008,ATTRB=(PROT),COLOR=TURQUOISE,  X
               HILIGHT=OFF
* 'JRNL-TYPE-4189-GA07'
ZFLD063  DFHMDF POS=(15,18),LENGTH=0004,ATTRB=(PROT),COLOR=TURQUOISE,  X
               HILIGHT=OFF
         DFHMDF POS=(15,23),LENGTH=0,ATTRB=(ASKIP,NORM)
* 'DCMNT-NMBR-4189-GA07'
ZFLD064  DFHMDF POS=(15,24),LENGTH=0008,ATTRB=(PROT),COLOR=TURQUOISE,  X
               HILIGHT=OFF
* 'TRANS-DESC-4188-GA07'
ZFLD065  DFHMDF POS=(15,33),LENGTH=0028,ATTRB=(PROT),COLOR=TURQUOISE,  X
               HILIGHT=OFF
* 'AMT-4189-GA07'
ZFLD066  DFHMDF POS=(15,62),LENGTH=0016,ATTRB=(PROT),COLOR=TURQUOISE,  X
               HILIGHT=OFF
* 'DEBIT-CRDT-IND-4189-GA07'
ZFLD067  DFHMDF POS=(15,79),LENGTH=0001,ATTRB=(PROT),COLOR=TURQUOISE,  X
               HILIGHT=OFF
* 'ACCT-CODE-LIST-GA07'
ZFLD068  DFHMDF POS=(16,01),LENGTH=0006,ATTRB=(PROT),COLOR=TURQUOISE,  X
               HILIGHT=OFF
         DFHMDF POS=(16,08),LENGTH=0,ATTRB=(ASKIP,NORM)
* 'TRANS-DATE-4189-GA07'
ZFLD069  DFHMDF POS=(16,09),LENGTH=0008,ATTRB=(PROT),COLOR=TURQUOISE,  X
               HILIGHT=OFF
* 'JRNL-TYPE-4189-GA07'
ZFLD070  DFHMDF POS=(16,18),LENGTH=0004,ATTRB=(PROT),COLOR=TURQUOISE,  X
               HILIGHT=OFF
         DFHMDF POS=(16,23),LENGTH=0,ATTRB=(ASKIP,NORM)
* 'DCMNT-NMBR-4189-GA07'
ZFLD071  DFHMDF POS=(16,24),LENGTH=0008,ATTRB=(PROT),COLOR=TURQUOISE,  X
               HILIGHT=OFF
* 'TRANS-DESC-4188-GA07'
ZFLD072  DFHMDF POS=(16,33),LENGTH=0028,ATTRB=(PROT),COLOR=TURQUOISE,  X
               HILIGHT=OFF
* 'AMT-4189-GA07'
ZFLD073  DFHMDF POS=(16,62),LENGTH=0016,ATTRB=(PROT),COLOR=TURQUOISE,  X
               HILIGHT=OFF
* 'DEBIT-CRDT-IND-4189-GA07'
ZFLD074  DFHMDF POS=(16,79),LENGTH=0001,ATTRB=(PROT),COLOR=TURQUOISE,  X
               HILIGHT=OFF
* 'ACCT-CODE-LIST-GA07'
ZFLD075  DFHMDF POS=(17,01),LENGTH=0006,ATTRB=(PROT),COLOR=TURQUOISE,  X
               HILIGHT=OFF
         DFHMDF POS=(17,08),LENGTH=0,ATTRB=(ASKIP,NORM)
* 'TRANS-DATE-4189-GA07'
ZFLD076  DFHMDF POS=(17,09),LENGTH=0008,ATTRB=(PROT),COLOR=TURQUOISE,  X
               HILIGHT=OFF
* 'JRNL-TYPE-4189-GA07'
ZFLD077  DFHMDF POS=(17,18),LENGTH=0004,ATTRB=(PROT),COLOR=TURQUOISE,  X
               HILIGHT=OFF
         DFHMDF POS=(17,23),LENGTH=0,ATTRB=(ASKIP,NORM)
* 'DCMNT-NMBR-4189-GA07'
ZFLD078  DFHMDF POS=(17,24),LENGTH=0008,ATTRB=(PROT),COLOR=TURQUOISE,  X
               HILIGHT=OFF
* 'TRANS-DESC-4188-GA07'
ZFLD079  DFHMDF POS=(17,33),LENGTH=0028,ATTRB=(PROT),COLOR=TURQUOISE,  X
               HILIGHT=OFF
* 'AMT-4189-GA07'
ZFLD080  DFHMDF POS=(17,62),LENGTH=0016,ATTRB=(PROT),COLOR=TURQUOISE,  X
               HILIGHT=OFF
* 'DEBIT-CRDT-IND-4189-GA07'
ZFLD081  DFHMDF POS=(17,79),LENGTH=0001,ATTRB=(PROT),COLOR=TURQUOISE,  X
               HILIGHT=OFF
* 'ACCT-CODE-LIST-GA07'
ZFLD082  DFHMDF POS=(18,01),LENGTH=0006,ATTRB=(PROT),COLOR=TURQUOISE,  X
               HILIGHT=OFF
         DFHMDF POS=(18,08),LENGTH=0,ATTRB=(ASKIP,NORM)
* 'TRANS-DATE-4189-GA07'
ZFLD083  DFHMDF POS=(18,09),LENGTH=0008,ATTRB=(PROT),COLOR=TURQUOISE,  X
               HILIGHT=OFF
* 'JRNL-TYPE-4189-GA07'
ZFLD084  DFHMDF POS=(18,18),LENGTH=0004,ATTRB=(PROT),COLOR=TURQUOISE,  X
               HILIGHT=OFF
         DFHMDF POS=(18,23),LENGTH=0,ATTRB=(ASKIP,NORM)
* 'DCMNT-NMBR-4189-GA07'
ZFLD085  DFHMDF POS=(18,24),LENGTH=0008,ATTRB=(PROT),COLOR=TURQUOISE,  X
               HILIGHT=OFF
* 'TRANS-DESC-4188-GA07'
ZFLD086  DFHMDF POS=(18,33),LENGTH=0028,ATTRB=(PROT),COLOR=TURQUOISE,  X
               HILIGHT=OFF
* 'AMT-4189-GA07'
ZFLD087  DFHMDF POS=(18,62),LENGTH=0016,ATTRB=(PROT),COLOR=TURQUOISE,  X
               HILIGHT=OFF
* 'DEBIT-CRDT-IND-4189-GA07'
ZFLD088  DFHMDF POS=(18,79),LENGTH=0001,ATTRB=(PROT),COLOR=TURQUOISE,  X
               HILIGHT=OFF
* 'ACCT-CODE-LIST-GA07'
ZFLD089  DFHMDF POS=(19,01),LENGTH=0006,ATTRB=(PROT),COLOR=TURQUOISE,  X
               HILIGHT=OFF
         DFHMDF POS=(19,08),LENGTH=0,ATTRB=(ASKIP,NORM)
* 'TRANS-DATE-4189-GA07'
ZFLD090  DFHMDF POS=(19,09),LENGTH=0008,ATTRB=(PROT),COLOR=TURQUOISE,  X
               HILIGHT=OFF
* 'JRNL-TYPE-4189-GA07'
ZFLD091  DFHMDF POS=(19,18),LENGTH=0004,ATTRB=(PROT),COLOR=TURQUOISE,  X
               HILIGHT=OFF
         DFHMDF POS=(19,23),LENGTH=0,ATTRB=(ASKIP,NORM)
* 'DCMNT-NMBR-4189-GA07'
ZFLD092  DFHMDF POS=(19,24),LENGTH=0008,ATTRB=(PROT),COLOR=TURQUOISE,  X
               HILIGHT=OFF
* 'TRANS-DESC-4188-GA07'
ZFLD093  DFHMDF POS=(19,33),LENGTH=0028,ATTRB=(PROT),COLOR=TURQUOISE,  X
               HILIGHT=OFF
* 'AMT-4189-GA07'
ZFLD094  DFHMDF POS=(19,62),LENGTH=0016,ATTRB=(PROT),COLOR=TURQUOISE,  X
               HILIGHT=OFF
* 'DEBIT-CRDT-IND-4189-GA07'
ZFLD095  DFHMDF POS=(19,79),LENGTH=0001,ATTRB=(PROT),COLOR=TURQUOISE,  X
               HILIGHT=OFF
* 'ACCT-CODE-LIST-GA07'
ZFLD096  DFHMDF POS=(20,01),LENGTH=0006,ATTRB=(PROT),COLOR=TURQUOISE,  X
               HILIGHT=OFF
         DFHMDF POS=(20,08),LENGTH=0,ATTRB=(ASKIP,NORM)
* 'TRANS-DATE-4189-GA07'
ZFLD097  DFHMDF POS=(20,09),LENGTH=0008,ATTRB=(PROT),COLOR=TURQUOISE,  X
               HILIGHT=OFF
* 'JRNL-TYPE-4189-GA07'
ZFLD098  DFHMDF POS=(20,18),LENGTH=0004,ATTRB=(PROT),COLOR=TURQUOISE,  X
               HILIGHT=OFF
         DFHMDF POS=(20,23),LENGTH=0,ATTRB=(ASKIP,NORM)
* 'DCMNT-NMBR-4189-GA07'
ZFLD099  DFHMDF POS=(20,24),LENGTH=0008,ATTRB=(PROT),COLOR=TURQUOISE,  X
               HILIGHT=OFF
* 'TRANS-DESC-4188-GA07'
ZFLD100  DFHMDF POS=(20,33),LENGTH=0028,ATTRB=(PROT),COLOR=TURQUOISE,  X
               HILIGHT=OFF
* 'AMT-4189-GA07'
ZFLD101  DFHMDF POS=(20,62),LENGTH=0016,ATTRB=(PROT),COLOR=TURQUOISE,  X
               HILIGHT=OFF
* 'DEBIT-CRDT-IND-4189-GA07'
ZFLD102  DFHMDF POS=(20,79),LENGTH=0001,ATTRB=(PROT),COLOR=TURQUOISE,  X
               HILIGHT=OFF
         DFHMDF POS=(21,01),LENGTH=0,ATTRB=(ASKIP,NORM)
* 'DCLINK-MESSAGE'
ZFLD103  DFHMDF POS=(21,80),LENGTH=0160,ATTRB=(PROT,BRT),              X
               COLOR=DEFAULT,HILIGHT=OFF
         DFHMDF POS=(24,01),LENGTH=0012,ATTRB=(PROT,ASKIP,NUM),        X
               INITIAL='NEXT SCREEN:',COLOR=BLUE,HILIGHT=OFF
* 'AGR-PASSED-ONE'
ZFLD104  DFHMDF POS=(24,14),LENGTH=0030,ATTRB=(UNPROT),COLOR=DEFAULT,  X
               HILIGHT=UNDERLINE
         DFHMDF POS=(24,45),LENGTH=0009,ATTRB=(PROT,ASKIP),            X
               INITIAL='RESPONSE:',COLOR=BLUE,HILIGHT=OFF
* 'AGR-MAP-RESPONSE'
ZFLD105  DFHMDF POS=(24,55),LENGTH=0008,ATTRB=(UNPROT),COLOR=DEFAULT,  X
               HILIGHT=UNDERLINE
         DFHMDF POS=(24,64),LENGTH=0,ATTRB=(ASKIP,NORM)
* 'ERROR-TEXT-SY00'
ZFLD106  DFHMDF POS=(24,65),LENGTH=0014,ATTRB=(PROT,DRK),              X
               COLOR=DEFAULT,HILIGHT=OFF
         DFHMSD TYPE=FINAL
         END
