FPEMT29  DFHMSD TYPE=MAP,LANG=COBOL,TERM=3270,MODE=INOUT,              X
               TIOAPFX=YES,MAPATTS=(COLOR,HILIGHT),                    X
               DSATTS=(COLOR,HILIGHT)
FPEMT29  DFHMDI SIZE=(24,80),LINE=1,COLUMN=1,CTRL=FREEKB,TIOAPFX=YES
         DFHMDF POS=(01,01),LENGTH=0007,ATTRB=(PROT,ASKIP),            X
               INITIAL='FPEMT29',COLOR=BLUE,HILIGHT=OFF
* 'TRMNL-ID-SY00'
ZFLD002  DFHMDF POS=(01,10),LENGTH=0008,ATTRB=(PROT),COLOR=BLUE,       X
               HILIGHT=OFF
         DFHMDF POS=(01,19),LENGTH=0,ATTRB=(ASKIP,NORM)
* 'FULL-NAME-6001-SY00'
ZFLD003  DFHMDF POS=(01,23),LENGTH=0035,ATTRB=(PROT),COLOR=BLUE,       X
               HILIGHT=OFF
         DFHMDF POS=(01,59),LENGTH=0,ATTRB=(ASKIP,NORM)
* 'AGR-DATE'
ZFLD004  DFHMDF POS=(01,64),LENGTH=0008,ATTRB=(PROT),COLOR=BLUE,       X
               HILIGHT=OFF
* 'WORK-HH-MM-TIME-SY00'
ZFLD005  DFHMDF POS=(01,73),LENGTH=0005,ATTRB=(PROT),COLOR=BLUE,       X
               HILIGHT=OFF
* 'AM-PM-FLAG-SY00'
ZFLD006  DFHMDF POS=(01,79),LENGTH=0001,ATTRB=(PROT),COLOR=BLUE,       X
               HILIGHT=OFF
* 'AGR-USER-ID'
ZFLD007  DFHMDF POS=(02,01),LENGTH=0008,ATTRB=(PROT),COLOR=BLUE,       X
               HILIGHT=OFF
         DFHMDF POS=(02,10),LENGTH=0,ATTRB=(ASKIP,NORM)
* 'CURR-RSPNS-ID-SY00'
ZFLD008  DFHMDF POS=(02,21),LENGTH=0008,ATTRB=(PROT,BRT),              X
               COLOR=DEFAULT,HILIGHT=OFF
         DFHMDF POS=(02,30),LENGTH=0001,ATTRB=(PROT,ASKIP,BRT),        X
               INITIAL=':',COLOR=DEFAULT,HILIGHT=OFF
* 'AGR-FUNC-DESCRIPTION'
ZFLD009  DFHMDF POS=(02,32),LENGTH=0028,ATTRB=(PROT,BRT),              X
               COLOR=DEFAULT,HILIGHT=OFF
         DFHMDF POS=(02,61),LENGTH=0,ATTRB=(ASKIP,NORM)
* 'PAGE-STATUS-CODE-SY00'
ZFLD010  DFHMDF POS=(02,64),LENGTH=0010,ATTRB=(PROT,BRT),              X
               COLOR=DEFAULT,HILIGHT=OFF
         DFHMDF POS=(02,75),LENGTH=0,ATTRB=(ASKIP,NORM)
         DFHMDF POS=(04,01),LENGTH=0013,ATTRB=(PROT,ASKIP),            X
               INITIAL='COUNTRY CODE:',COLOR=BLUE,HILIGHT=OFF
* 'CNTRY-CODE-6153-PE29'
ZFLD011  DFHMDF POS=(04,15),LENGTH=0002,ATTRB=(UNPROT,IC),             X
               COLOR=DEFAULT,HILIGHT=UNDERLINE
         DFHMDF POS=(04,18),LENGTH=0,ATTRB=(ASKIP,NORM)
* 'FULL-NAME-6153-PE29'
ZFLD012  DFHMDF POS=(04,19),LENGTH=0035,ATTRB=(PROT,ASKIP),            X
               COLOR=TURQUOISE,HILIGHT=OFF
         DFHMDF POS=(04,55),LENGTH=0,ATTRB=(ASKIP,NORM)
         DFHMDF POS=(05,01),LENGTH=0013,ATTRB=(PROT,ASKIP),            X
               INITIAL='STATE CODE  :',COLOR=BLUE,HILIGHT=OFF
* 'STATE-CODE-6151-PE29'
ZFLD013  DFHMDF POS=(05,15),LENGTH=0002,ATTRB=(UNPROT),COLOR=DEFAULT,  X
               HILIGHT=UNDERLINE
         DFHMDF POS=(05,18),LENGTH=0,ATTRB=(ASKIP,NORM)
* 'FULL-NAME-6151-PE29'
ZFLD014  DFHMDF POS=(05,19),LENGTH=0035,ATTRB=(PROT,ASKIP),            X
               COLOR=TURQUOISE,HILIGHT=OFF
         DFHMDF POS=(05,55),LENGTH=0,ATTRB=(ASKIP,NORM)
         DFHMDF POS=(07,01),LENGTH=0075,ATTRB=(PROT,ASKIP),            X
               INITIAL='ACTION           ZIP CODE           CITY NAME  X
                            VERIFY     RECR',COLOR=BLUE,HILIGHT=OFF
         DFHMDF POS=(08,01),LENGTH=0075,ATTRB=(PROT,ASKIP),            X
               INITIAL='(ACDR)                                         X
                            (Y/N/E)    TERR',COLOR=BLUE,HILIGHT=OFF
* 'ACTN-CODE-PE29'
ZFLD015  DFHMDF POS=(09,04),LENGTH=0001,ATTRB=(UNPROT),COLOR=DEFAULT,  X
               HILIGHT=OFF
         DFHMDF POS=(09,06),LENGTH=0,ATTRB=(ASKIP,NORM)
* 'ZIP-CODE-6152-PE29'
ZFLD016  DFHMDF POS=(09,18),LENGTH=0010,ATTRB=(UNPROT),COLOR=DEFAULT,  X
               HILIGHT=UNDERLINE
         DFHMDF POS=(09,29),LENGTH=0,ATTRB=(ASKIP,NORM)
* 'CITY-NAME-6152-PE29'
ZFLD017  DFHMDF POS=(09,35),LENGTH=0018,ATTRB=(UNPROT),COLOR=DEFAULT,  X
               HILIGHT=UNDERLINE
         DFHMDF POS=(09,54),LENGTH=0,ATTRB=(ASKIP,NORM)
* 'SYS-ADD-FLAG-6152-PE29'
ZFLD018  DFHMDF POS=(09,64),LENGTH=0001,ATTRB=(UNPROT),COLOR=DEFAULT,  X
               HILIGHT=UNDERLINE
         DFHMDF POS=(09,66),LENGTH=0,ATTRB=(ASKIP,NORM)
* 'REC-TRTRY-CODE-2389-PE29'
ZFLD019  DFHMDF POS=(09,72),LENGTH=0004,ATTRB=(UNPROT),COLOR=DEFAULT,  X
               HILIGHT=UNDERLINE
         DFHMDF POS=(09,77),LENGTH=0,ATTRB=(ASKIP,NORM)
* 'ACTN-CODE-PE29'
ZFLD020  DFHMDF POS=(10,04),LENGTH=0001,ATTRB=(UNPROT),COLOR=DEFAULT,  X
               HILIGHT=OFF
         DFHMDF POS=(10,06),LENGTH=0,ATTRB=(ASKIP,NORM)
* 'ZIP-CODE-6152-PE29'
ZFLD021  DFHMDF POS=(10,18),LENGTH=0010,ATTRB=(UNPROT),COLOR=DEFAULT,  X
               HILIGHT=UNDERLINE
         DFHMDF POS=(10,29),LENGTH=0,ATTRB=(ASKIP,NORM)
* 'CITY-NAME-6152-PE29'
ZFLD022  DFHMDF POS=(10,35),LENGTH=0018,ATTRB=(UNPROT),COLOR=DEFAULT,  X
               HILIGHT=UNDERLINE
         DFHMDF POS=(10,54),LENGTH=0,ATTRB=(ASKIP,NORM)
* 'SYS-ADD-FLAG-6152-PE29'
ZFLD023  DFHMDF POS=(10,64),LENGTH=0001,ATTRB=(UNPROT),COLOR=DEFAULT,  X
               HILIGHT=UNDERLINE
         DFHMDF POS=(10,66),LENGTH=0,ATTRB=(ASKIP,NORM)
* 'REC-TRTRY-CODE-2389-PE29'
ZFLD024  DFHMDF POS=(10,72),LENGTH=0004,ATTRB=(UNPROT),COLOR=DEFAULT,  X
               HILIGHT=UNDERLINE
         DFHMDF POS=(10,77),LENGTH=0,ATTRB=(ASKIP,NORM)
* 'ACTN-CODE-PE29'
ZFLD025  DFHMDF POS=(11,04),LENGTH=0001,ATTRB=(UNPROT),COLOR=DEFAULT,  X
               HILIGHT=OFF
         DFHMDF POS=(11,06),LENGTH=0,ATTRB=(ASKIP,NORM)
* 'ZIP-CODE-6152-PE29'
ZFLD026  DFHMDF POS=(11,18),LENGTH=0010,ATTRB=(UNPROT),COLOR=DEFAULT,  X
               HILIGHT=UNDERLINE
         DFHMDF POS=(11,29),LENGTH=0,ATTRB=(ASKIP,NORM)
* 'CITY-NAME-6152-PE29'
ZFLD027  DFHMDF POS=(11,35),LENGTH=0018,ATTRB=(UNPROT),COLOR=DEFAULT,  X
               HILIGHT=UNDERLINE
         DFHMDF POS=(11,54),LENGTH=0,ATTRB=(ASKIP,NORM)
* 'SYS-ADD-FLAG-6152-PE29'
ZFLD028  DFHMDF POS=(11,64),LENGTH=0001,ATTRB=(UNPROT),COLOR=DEFAULT,  X
               HILIGHT=UNDERLINE
         DFHMDF POS=(11,66),LENGTH=0,ATTRB=(ASKIP,NORM)
* 'REC-TRTRY-CODE-2389-PE29'
ZFLD029  DFHMDF POS=(11,72),LENGTH=0004,ATTRB=(UNPROT),COLOR=DEFAULT,  X
               HILIGHT=UNDERLINE
         DFHMDF POS=(11,77),LENGTH=0,ATTRB=(ASKIP,NORM)
* 'ACTN-CODE-PE29'
ZFLD030  DFHMDF POS=(12,04),LENGTH=0001,ATTRB=(UNPROT),COLOR=DEFAULT,  X
               HILIGHT=OFF
         DFHMDF POS=(12,06),LENGTH=0,ATTRB=(ASKIP,NORM)
* 'ZIP-CODE-6152-PE29'
ZFLD031  DFHMDF POS=(12,18),LENGTH=0010,ATTRB=(UNPROT),COLOR=DEFAULT,  X
               HILIGHT=UNDERLINE
         DFHMDF POS=(12,29),LENGTH=0,ATTRB=(ASKIP,NORM)
* 'CITY-NAME-6152-PE29'
ZFLD032  DFHMDF POS=(12,35),LENGTH=0018,ATTRB=(UNPROT),COLOR=DEFAULT,  X
               HILIGHT=UNDERLINE
         DFHMDF POS=(12,54),LENGTH=0,ATTRB=(ASKIP,NORM)
* 'SYS-ADD-FLAG-6152-PE29'
ZFLD033  DFHMDF POS=(12,64),LENGTH=0001,ATTRB=(UNPROT),COLOR=DEFAULT,  X
               HILIGHT=UNDERLINE
         DFHMDF POS=(12,66),LENGTH=0,ATTRB=(ASKIP,NORM)
* 'REC-TRTRY-CODE-2389-PE29'
ZFLD034  DFHMDF POS=(12,72),LENGTH=0004,ATTRB=(UNPROT),COLOR=DEFAULT,  X
               HILIGHT=UNDERLINE
         DFHMDF POS=(12,77),LENGTH=0,ATTRB=(ASKIP,NORM)
* 'ACTN-CODE-PE29'
ZFLD035  DFHMDF POS=(13,04),LENGTH=0001,ATTRB=(UNPROT),COLOR=DEFAULT,  X
               HILIGHT=OFF
         DFHMDF POS=(13,06),LENGTH=0,ATTRB=(ASKIP,NORM)
* 'ZIP-CODE-6152-PE29'
ZFLD036  DFHMDF POS=(13,18),LENGTH=0010,ATTRB=(UNPROT),COLOR=DEFAULT,  X
               HILIGHT=UNDERLINE
         DFHMDF POS=(13,29),LENGTH=0,ATTRB=(ASKIP,NORM)
* 'CITY-NAME-6152-PE29'
ZFLD037  DFHMDF POS=(13,35),LENGTH=0018,ATTRB=(UNPROT),COLOR=DEFAULT,  X
               HILIGHT=UNDERLINE
         DFHMDF POS=(13,54),LENGTH=0,ATTRB=(ASKIP,NORM)
* 'SYS-ADD-FLAG-6152-PE29'
ZFLD038  DFHMDF POS=(13,64),LENGTH=0001,ATTRB=(UNPROT),COLOR=DEFAULT,  X
               HILIGHT=UNDERLINE
         DFHMDF POS=(13,66),LENGTH=0,ATTRB=(ASKIP,NORM)
* 'REC-TRTRY-CODE-2389-PE29'
ZFLD039  DFHMDF POS=(13,72),LENGTH=0004,ATTRB=(UNPROT),COLOR=DEFAULT,  X
               HILIGHT=UNDERLINE
         DFHMDF POS=(13,77),LENGTH=0,ATTRB=(ASKIP,NORM)
* 'ACTN-CODE-PE29'
ZFLD040  DFHMDF POS=(14,04),LENGTH=0001,ATTRB=(UNPROT),COLOR=DEFAULT,  X
               HILIGHT=OFF
         DFHMDF POS=(14,06),LENGTH=0,ATTRB=(ASKIP,NORM)
* 'ZIP-CODE-6152-PE29'
ZFLD041  DFHMDF POS=(14,18),LENGTH=0010,ATTRB=(UNPROT),COLOR=DEFAULT,  X
               HILIGHT=UNDERLINE
         DFHMDF POS=(14,29),LENGTH=0,ATTRB=(ASKIP,NORM)
* 'CITY-NAME-6152-PE29'
ZFLD042  DFHMDF POS=(14,35),LENGTH=0018,ATTRB=(UNPROT),COLOR=DEFAULT,  X
               HILIGHT=UNDERLINE
         DFHMDF POS=(14,54),LENGTH=0,ATTRB=(ASKIP,NORM)
* 'SYS-ADD-FLAG-6152-PE29'
ZFLD043  DFHMDF POS=(14,64),LENGTH=0001,ATTRB=(UNPROT),COLOR=DEFAULT,  X
               HILIGHT=UNDERLINE
         DFHMDF POS=(14,66),LENGTH=0,ATTRB=(ASKIP,NORM)
* 'REC-TRTRY-CODE-2389-PE29'
ZFLD044  DFHMDF POS=(14,72),LENGTH=0004,ATTRB=(UNPROT),COLOR=DEFAULT,  X
               HILIGHT=UNDERLINE
         DFHMDF POS=(14,77),LENGTH=0,ATTRB=(ASKIP,NORM)
* 'ACTN-CODE-PE29'
ZFLD045  DFHMDF POS=(15,04),LENGTH=0001,ATTRB=(UNPROT),COLOR=DEFAULT,  X
               HILIGHT=OFF
         DFHMDF POS=(15,06),LENGTH=0,ATTRB=(ASKIP,NORM)
* 'ZIP-CODE-6152-PE29'
ZFLD046  DFHMDF POS=(15,18),LENGTH=0010,ATTRB=(UNPROT),COLOR=DEFAULT,  X
               HILIGHT=UNDERLINE
         DFHMDF POS=(15,29),LENGTH=0,ATTRB=(ASKIP,NORM)
* 'CITY-NAME-6152-PE29'
ZFLD047  DFHMDF POS=(15,35),LENGTH=0018,ATTRB=(UNPROT),COLOR=DEFAULT,  X
               HILIGHT=UNDERLINE
         DFHMDF POS=(15,54),LENGTH=0,ATTRB=(ASKIP,NORM)
* 'SYS-ADD-FLAG-6152-PE29'
ZFLD048  DFHMDF POS=(15,64),LENGTH=0001,ATTRB=(UNPROT),COLOR=DEFAULT,  X
               HILIGHT=UNDERLINE
         DFHMDF POS=(15,66),LENGTH=0,ATTRB=(ASKIP,NORM)
* 'REC-TRTRY-CODE-2389-PE29'
ZFLD049  DFHMDF POS=(15,72),LENGTH=0004,ATTRB=(UNPROT),COLOR=DEFAULT,  X
               HILIGHT=UNDERLINE
         DFHMDF POS=(15,77),LENGTH=0,ATTRB=(ASKIP,NORM)
* 'ACTN-CODE-PE29'
ZFLD050  DFHMDF POS=(16,04),LENGTH=0001,ATTRB=(UNPROT),COLOR=DEFAULT,  X
               HILIGHT=OFF
         DFHMDF POS=(16,06),LENGTH=0,ATTRB=(ASKIP,NORM)
* 'ZIP-CODE-6152-PE29'
ZFLD051  DFHMDF POS=(16,18),LENGTH=0010,ATTRB=(UNPROT),COLOR=DEFAULT,  X
               HILIGHT=UNDERLINE
         DFHMDF POS=(16,29),LENGTH=0,ATTRB=(ASKIP,NORM)
* 'CITY-NAME-6152-PE29'
ZFLD052  DFHMDF POS=(16,35),LENGTH=0018,ATTRB=(UNPROT),COLOR=DEFAULT,  X
               HILIGHT=UNDERLINE
         DFHMDF POS=(16,54),LENGTH=0,ATTRB=(ASKIP,NORM)
* 'SYS-ADD-FLAG-6152-PE29'
ZFLD053  DFHMDF POS=(16,64),LENGTH=0001,ATTRB=(UNPROT),COLOR=DEFAULT,  X
               HILIGHT=UNDERLINE
         DFHMDF POS=(16,66),LENGTH=0,ATTRB=(ASKIP,NORM)
* 'REC-TRTRY-CODE-2389-PE29'
ZFLD054  DFHMDF POS=(16,72),LENGTH=0004,ATTRB=(UNPROT),COLOR=DEFAULT,  X
               HILIGHT=UNDERLINE
         DFHMDF POS=(16,77),LENGTH=0,ATTRB=(ASKIP,NORM)
* 'ACTN-CODE-PE29'
ZFLD055  DFHMDF POS=(17,04),LENGTH=0001,ATTRB=(UNPROT),COLOR=DEFAULT,  X
               HILIGHT=OFF
         DFHMDF POS=(17,06),LENGTH=0,ATTRB=(ASKIP,NORM)
* 'ZIP-CODE-6152-PE29'
ZFLD056  DFHMDF POS=(17,18),LENGTH=0010,ATTRB=(UNPROT),COLOR=DEFAULT,  X
               HILIGHT=UNDERLINE
         DFHMDF POS=(17,29),LENGTH=0,ATTRB=(ASKIP,NORM)
* 'CITY-NAME-6152-PE29'
ZFLD057  DFHMDF POS=(17,35),LENGTH=0018,ATTRB=(UNPROT),COLOR=DEFAULT,  X
               HILIGHT=UNDERLINE
         DFHMDF POS=(17,54),LENGTH=0,ATTRB=(ASKIP,NORM)
* 'SYS-ADD-FLAG-6152-PE29'
ZFLD058  DFHMDF POS=(17,64),LENGTH=0001,ATTRB=(UNPROT),COLOR=DEFAULT,  X
               HILIGHT=UNDERLINE
         DFHMDF POS=(17,66),LENGTH=0,ATTRB=(ASKIP,NORM)
* 'REC-TRTRY-CODE-2389-PE29'
ZFLD059  DFHMDF POS=(17,72),LENGTH=0004,ATTRB=(UNPROT),COLOR=DEFAULT,  X
               HILIGHT=UNDERLINE
         DFHMDF POS=(17,77),LENGTH=0,ATTRB=(ASKIP,NORM)
* 'ACTN-CODE-PE29'
ZFLD060  DFHMDF POS=(18,04),LENGTH=0001,ATTRB=(UNPROT),COLOR=DEFAULT,  X
               HILIGHT=OFF
         DFHMDF POS=(18,06),LENGTH=0,ATTRB=(ASKIP,NORM)
* 'ZIP-CODE-6152-PE29'
ZFLD061  DFHMDF POS=(18,18),LENGTH=0010,ATTRB=(UNPROT),COLOR=DEFAULT,  X
               HILIGHT=UNDERLINE
         DFHMDF POS=(18,29),LENGTH=0,ATTRB=(ASKIP,NORM)
* 'CITY-NAME-6152-PE29'
ZFLD062  DFHMDF POS=(18,35),LENGTH=0018,ATTRB=(UNPROT),COLOR=DEFAULT,  X
               HILIGHT=UNDERLINE
         DFHMDF POS=(18,54),LENGTH=0,ATTRB=(ASKIP,NORM)
* 'SYS-ADD-FLAG-6152-PE29'
ZFLD063  DFHMDF POS=(18,64),LENGTH=0001,ATTRB=(UNPROT),COLOR=DEFAULT,  X
               HILIGHT=UNDERLINE
         DFHMDF POS=(18,66),LENGTH=0,ATTRB=(ASKIP,NORM)
* 'REC-TRTRY-CODE-2389-PE29'
ZFLD064  DFHMDF POS=(18,72),LENGTH=0004,ATTRB=(UNPROT),COLOR=DEFAULT,  X
               HILIGHT=UNDERLINE
         DFHMDF POS=(18,77),LENGTH=0,ATTRB=(ASKIP,NORM)
         DFHMDF POS=(20,01),LENGTH=0017,ATTRB=(PROT,ASKIP),            X
               INITIAL='ZIP CODE REQUEST:',COLOR=BLUE,HILIGHT=OFF
* 'RQST-ZIP-CODE-PE29'
ZFLD065  DFHMDF POS=(20,19),LENGTH=0010,ATTRB=(UNPROT),COLOR=DEFAULT,  X
               HILIGHT=UNDERLINE
         DFHMDF POS=(20,30),LENGTH=0,ATTRB=(ASKIP,NORM)
* 'DCLINK-MESSAGE'
ZFLD066  DFHMDF POS=(21,80),LENGTH=0160,ATTRB=(PROT,BRT),              X
               COLOR=DEFAULT,HILIGHT=OFF
         DFHMDF POS=(24,01),LENGTH=0012,ATTRB=(PROT,ASKIP,NUM),        X
               INITIAL='NEXT SCREEN:',COLOR=BLUE,HILIGHT=OFF
* 'AGR-PASSED-ONE'
ZFLD067  DFHMDF POS=(24,14),LENGTH=0030,ATTRB=(UNPROT),COLOR=DEFAULT,  X
               HILIGHT=UNDERLINE
         DFHMDF POS=(24,45),LENGTH=0009,ATTRB=(PROT,ASKIP),            X
               INITIAL='RESPONSE:',COLOR=BLUE,HILIGHT=OFF
* 'AGR-MAP-RESPONSE'
ZFLD068  DFHMDF POS=(24,55),LENGTH=0008,ATTRB=(UNPROT),COLOR=DEFAULT,  X
               HILIGHT=UNDERLINE
         DFHMDF POS=(24,64),LENGTH=0,ATTRB=(ASKIP,NORM)
* 'ERROR-TEXT-SY00'
ZFLD069  DFHMDF POS=(24,65),LENGTH=0014,ATTRB=(PROT,DRK),              X
               COLOR=DEFAULT,HILIGHT=OFF
         DFHMSD TYPE=FINAL
         END
