FPEMU30  DFHMSD TYPE=MAP,LANG=COBOL,TERM=3270,MODE=INOUT,              X
               TIOAPFX=YES,MAPATTS=(COLOR,HILIGHT),                    X
               DSATTS=(COLOR,HILIGHT)
FPEMU30  DFHMDI SIZE=(24,80),LINE=1,COLUMN=1,CTRL=FREEKB,TIOAPFX=YES
         DFHMDF POS=(01,01),LENGTH=0007,ATTRB=(PROT,ASKIP),            X
               INITIAL='FPEMU30',COLOR=BLUE,HILIGHT=OFF
* 'TRMNL-ID-SY00'
ZFLD002  DFHMDF POS=(01,10),LENGTH=0008,ATTRB=(PROT),COLOR=BLUE,       X
               HILIGHT=OFF
         DFHMDF POS=(01,19),LENGTH=0,ATTRB=(ASKIP,NORM)
* 'FULL-NAME-6001-SY00'
ZFLD003  DFHMDF POS=(01,23),LENGTH=0035,ATTRB=(PROT),COLOR=BLUE,       X
               HILIGHT=OFF
         DFHMDF POS=(01,59),LENGTH=0,ATTRB=(ASKIP,NORM)
* 'AGR-DATE'
ZFLD004  DFHMDF POS=(01,64),LENGTH=0008,ATTRB=(PROT),COLOR=BLUE,       X
               HILIGHT=OFF
* 'WORK-HH-MM-TIME-SY00'
ZFLD005  DFHMDF POS=(01,73),LENGTH=0005,ATTRB=(PROT),COLOR=BLUE,       X
               HILIGHT=OFF
* 'AM-PM-FLAG-SY00'
ZFLD006  DFHMDF POS=(01,79),LENGTH=0001,ATTRB=(PROT),COLOR=BLUE,       X
               HILIGHT=OFF
* 'AGR-USER-ID'
ZFLD007  DFHMDF POS=(02,01),LENGTH=0008,ATTRB=(PROT),COLOR=BLUE,       X
               HILIGHT=OFF
         DFHMDF POS=(02,10),LENGTH=0,ATTRB=(ASKIP,NORM)
* 'CURR-RSPNS-ID-SY00'
ZFLD008  DFHMDF POS=(02,21),LENGTH=0008,ATTRB=(PROT,BRT),              X
               COLOR=DEFAULT,HILIGHT=OFF
         DFHMDF POS=(02,30),LENGTH=0001,ATTRB=(PROT,ASKIP,BRT),        X
               INITIAL=':',COLOR=DEFAULT,HILIGHT=OFF
* 'AGR-FUNC-DESCRIPTION'
ZFLD009  DFHMDF POS=(02,32),LENGTH=0028,ATTRB=(PROT,BRT),              X
               COLOR=DEFAULT,HILIGHT=OFF
         DFHMDF POS=(02,61),LENGTH=0,ATTRB=(ASKIP,NORM)
* 'PAGE-STATUS-CODE-SY00'
ZFLD010  DFHMDF POS=(02,64),LENGTH=0010,ATTRB=(PROT,BRT),              X
               COLOR=DEFAULT,HILIGHT=OFF
         DFHMDF POS=(02,75),LENGTH=0,ATTRB=(ASKIP,NORM)
         DFHMDF POS=(04,01),LENGTH=0013,ATTRB=(PROT,ASKIP),            X
               INITIAL='ENTITY ID   :',COLOR=BLUE,HILIGHT=OFF
* 'ENTY-ID-LAST-NINE-PE30'
ZFLD011  DFHMDF POS=(04,15),LENGTH=0009,ATTRB=(UNPROT),COLOR=DEFAULT,  X
               HILIGHT=UNDERLINE
         DFHMDF POS=(04,25),LENGTH=0,ATTRB=(ASKIP,NORM)
         DFHMDF POS=(04,26),LENGTH=0005,ATTRB=(PROT,ASKIP),            X
               INITIAL='NAME:',COLOR=BLUE,HILIGHT=OFF
* 'NAME-KEY-6352-PE30'
ZFLD012  DFHMDF POS=(04,32),LENGTH=0035,ATTRB=(PROT),COLOR=TURQUOISE,  X
               HILIGHT=OFF
         DFHMDF POS=(04,68),LENGTH=0,ATTRB=(ASKIP,NORM)
         DFHMDF POS=(05,01),LENGTH=0013,ATTRB=(PROT,ASKIP),            X
               INITIAL='ADDRESS TYPE:',COLOR=BLUE,HILIGHT=OFF
* 'ADR-TYPE-CODE-6185-PE30'
ZFLD013  DFHMDF POS=(05,15),LENGTH=0002,ATTRB=(UNPROT,IC),             X
               COLOR=DEFAULT,HILIGHT=UNDERLINE
         DFHMDF POS=(05,18),LENGTH=0,ATTRB=(ASKIP,NORM)
* 'LONG-DESC-6137-PE30'
ZFLD014  DFHMDF POS=(05,19),LENGTH=0030,ATTRB=(PROT),COLOR=TURQUOISE,  X
               HILIGHT=OFF
         DFHMDF POS=(05,50),LENGTH=0,ATTRB=(ASKIP,NORM)
         DFHMDF POS=(05,64),LENGTH=0005,ATTRB=(PROT,ASKIP),            X
               INITIAL='DATE:',COLOR=BLUE,HILIGHT=OFF
* 'RQST-DATE-6185-PE30'
ZFLD015  DFHMDF POS=(05,70),LENGTH=0008,ATTRB=(UNPROT),COLOR=DEFAULT,  X
               HILIGHT=UNDERLINE
         DFHMDF POS=(05,79),LENGTH=0,ATTRB=(ASKIP,NORM)
         DFHMDF POS=(07,01),LENGTH=0015,ATTRB=(PROT,ASKIP),            X
               INITIAL='ACTION (AC)   :',COLOR=BLUE,HILIGHT=OFF
* 'ACTN-CODE-PE30'
ZFLD016  DFHMDF POS=(07,17),LENGTH=0001,ATTRB=(UNPROT),COLOR=DEFAULT,  X
               HILIGHT=OFF
         DFHMDF POS=(07,19),LENGTH=0,ATTRB=(ASKIP,NORM)
         DFHMDF POS=(09,01),LENGTH=0015,ATTRB=(PROT,ASKIP),            X
               INITIAL='ADDRESS LINE 1:',COLOR=BLUE,HILIGHT=OFF
* 'LINE-ADR-6185-PE30'
ZFLD017  DFHMDF POS=(09,17),LENGTH=0035,ATTRB=(UNPROT),COLOR=DEFAULT,  X
               HILIGHT=UNDERLINE
         DFHMDF POS=(09,53),LENGTH=0,ATTRB=(ASKIP,NORM)
         DFHMDF POS=(10,01),LENGTH=0015,ATTRB=(PROT,ASKIP),            X
               INITIAL='             2:',COLOR=BLUE,HILIGHT=OFF
* 'LINE-ADR-6185-PE30'
ZFLD018  DFHMDF POS=(10,17),LENGTH=0035,ATTRB=(UNPROT),COLOR=DEFAULT,  X
               HILIGHT=UNDERLINE
         DFHMDF POS=(10,53),LENGTH=0,ATTRB=(ASKIP,NORM)
         DFHMDF POS=(11,01),LENGTH=0015,ATTRB=(PROT,ASKIP),            X
               INITIAL='             3:',COLOR=BLUE,HILIGHT=OFF
* 'LINE-ADR-6185-PE30'
ZFLD019  DFHMDF POS=(11,17),LENGTH=0035,ATTRB=(UNPROT),COLOR=DEFAULT,  X
               HILIGHT=UNDERLINE
         DFHMDF POS=(11,53),LENGTH=0,ATTRB=(ASKIP,NORM)
         DFHMDF POS=(12,01),LENGTH=0015,ATTRB=(PROT,ASKIP),            X
               INITIAL='             4:',COLOR=BLUE,HILIGHT=OFF
* 'LINE-ADR-6185-PE30'
ZFLD020  DFHMDF POS=(12,17),LENGTH=0035,ATTRB=(UNPROT),COLOR=DEFAULT,  X
               HILIGHT=UNDERLINE
         DFHMDF POS=(12,53),LENGTH=0,ATTRB=(ASKIP,NORM)
         DFHMDF POS=(13,01),LENGTH=0015,ATTRB=(PROT,ASKIP),            X
               INITIAL='          CITY:',COLOR=BLUE,HILIGHT=OFF
* 'CITY-NAME-6185-PE30'
ZFLD021  DFHMDF POS=(13,17),LENGTH=0018,ATTRB=(UNPROT),COLOR=DEFAULT,  X
               HILIGHT=UNDERLINE
         DFHMDF POS=(13,36),LENGTH=0,ATTRB=(ASKIP,NORM)
         DFHMDF POS=(14,01),LENGTH=0015,ATTRB=(PROT,ASKIP),            X
               INITIAL='         STATE:',COLOR=BLUE,HILIGHT=OFF
* 'STATE-CODE-6151-PE30'
ZFLD022  DFHMDF POS=(14,17),LENGTH=0002,ATTRB=(UNPROT),COLOR=DEFAULT,  X
               HILIGHT=UNDERLINE
         DFHMDF POS=(14,20),LENGTH=0,ATTRB=(ASKIP,NORM)
* 'FULL-NAME-6151-PE30'
ZFLD023  DFHMDF POS=(14,22),LENGTH=0035,ATTRB=(PROT),COLOR=TURQUOISE,  X
               HILIGHT=OFF
         DFHMDF POS=(14,58),LENGTH=0,ATTRB=(ASKIP,NORM)
         DFHMDF POS=(15,01),LENGTH=0015,ATTRB=(PROT,ASKIP),            X
               INITIAL='           ZIP:',COLOR=BLUE,HILIGHT=OFF
* 'ZIP-CODE-6152-PE30'
ZFLD024  DFHMDF POS=(15,17),LENGTH=0010,ATTRB=(UNPROT),COLOR=DEFAULT,  X
               HILIGHT=UNDERLINE
         DFHMDF POS=(15,28),LENGTH=0,ATTRB=(ASKIP,NORM)
         DFHMDF POS=(16,01),LENGTH=0015,ATTRB=(PROT,ASKIP),            X
               INITIAL='       COUNTRY:',COLOR=BLUE,HILIGHT=OFF
* 'CNTRY-CODE-6153-PE30'
ZFLD025  DFHMDF POS=(16,17),LENGTH=0002,ATTRB=(UNPROT),COLOR=DEFAULT,  X
               HILIGHT=UNDERLINE
         DFHMDF POS=(16,20),LENGTH=0,ATTRB=(ASKIP,NORM)
* 'FULL-NAME-6153-PE30'
ZFLD026  DFHMDF POS=(16,22),LENGTH=0035,ATTRB=(PROT),COLOR=TURQUOISE,  X
               HILIGHT=OFF
         DFHMDF POS=(16,58),LENGTH=0,ATTRB=(ASKIP,NORM)
         DFHMDF POS=(17,01),LENGTH=0015,ATTRB=(PROT,ASKIP),            X
               INITIAL='     TELEPHONE:',COLOR=BLUE,HILIGHT=OFF
* 'TLPHN-AREA-CODE-6185-PE30'
ZFLD027  DFHMDF POS=(17,17),LENGTH=0003,ATTRB=(UNPROT),COLOR=DEFAULT,  X
               HILIGHT=UNDERLINE
* 'TLPHN-XCHNG-ID-6185-PE30'
ZFLD028  DFHMDF POS=(17,21),LENGTH=0003,ATTRB=(UNPROT),COLOR=DEFAULT,  X
               HILIGHT=UNDERLINE
* 'TLPHN-SEQ-ID-6185-PE30'
ZFLD029  DFHMDF POS=(17,25),LENGTH=0004,ATTRB=(UNPROT),COLOR=DEFAULT,  X
               HILIGHT=UNDERLINE
* 'TLPHN-XTNSN-ID-6185-PE30'
ZFLD030  DFHMDF POS=(17,30),LENGTH=0004,ATTRB=(UNPROT),COLOR=DEFAULT,  X
               HILIGHT=UNDERLINE
         DFHMDF POS=(17,35),LENGTH=0,ATTRB=(ASKIP,NORM)
         DFHMDF POS=(17,41),LENGTH=0010,ATTRB=(PROT,ASKIP),            X
               INITIAL='FAX PHONE:',COLOR=BLUE,HILIGHT=OFF
* 'FAX-AREA-CODE-PE30'
ZFLD031  DFHMDF POS=(17,52),LENGTH=0003,ATTRB=(UNPROT),COLOR=DEFAULT,  X
               HILIGHT=UNDERLINE
* 'FAX-XCHNG-ID-PE30'
ZFLD032  DFHMDF POS=(17,56),LENGTH=0003,ATTRB=(UNPROT),COLOR=DEFAULT,  X
               HILIGHT=UNDERLINE
* 'FAX-SEQ-ID-PE30'
ZFLD033  DFHMDF POS=(17,60),LENGTH=0004,ATTRB=(UNPROT),COLOR=DEFAULT,  X
               HILIGHT=UNDERLINE
         DFHMDF POS=(17,65),LENGTH=0,ATTRB=(ASKIP,NORM)
         DFHMDF POS=(18,01),LENGTH=0015,ATTRB=(PROT,ASKIP),            X
               INITIAL='E-MAIL ADDRESS:',COLOR=BLUE,HILIGHT=OFF
* 'EMADR-LINE-6185-PE30'
ZFLD034  DFHMDF POS=(18,17),LENGTH=0060,ATTRB=(PROT),COLOR=DEFAULT,    X
               HILIGHT=UNDERLINE
         DFHMDF POS=(18,78),LENGTH=0,ATTRB=(ASKIP,NORM)
         DFHMDF POS=(20,01),LENGTH=0015,ATTRB=(PROT,ASKIP),            X
               INITIAL='    START DATE:',COLOR=BLUE,HILIGHT=OFF
* 'START-DATE-6185-PE30'
ZFLD035  DFHMDF POS=(20,17),LENGTH=0008,ATTRB=(UNPROT),COLOR=DEFAULT,  X
               HILIGHT=UNDERLINE
         DFHMDF POS=(20,26),LENGTH=0,ATTRB=(ASKIP,NORM)
         DFHMDF POS=(21,01),LENGTH=0015,ATTRB=(PROT,ASKIP),            X
               INITIAL='      END DATE:',COLOR=BLUE,HILIGHT=OFF
* 'END-DATE-6185-PE30'
ZFLD036  DFHMDF POS=(21,17),LENGTH=0008,ATTRB=(UNPROT),COLOR=DEFAULT,  X
               HILIGHT=UNDERLINE
         DFHMDF POS=(21,26),LENGTH=0,ATTRB=(ASKIP,NORM)
* 'DCLINK-MESSAGE'
ZFLD037  DFHMDF POS=(21,80),LENGTH=0160,ATTRB=(PROT,BRT),              X
               COLOR=DEFAULT,HILIGHT=OFF
         DFHMDF POS=(24,01),LENGTH=0012,ATTRB=(PROT,ASKIP,NUM),        X
               INITIAL='NEXT SCREEN:',COLOR=BLUE,HILIGHT=OFF
* 'AGR-PASSED-ONE'
ZFLD038  DFHMDF POS=(24,14),LENGTH=0030,ATTRB=(UNPROT),COLOR=DEFAULT,  X
               HILIGHT=UNDERLINE
         DFHMDF POS=(24,45),LENGTH=0009,ATTRB=(PROT,ASKIP),            X
               INITIAL='RESPONSE:',COLOR=BLUE,HILIGHT=OFF
* 'AGR-MAP-RESPONSE'
ZFLD039  DFHMDF POS=(24,55),LENGTH=0008,ATTRB=(UNPROT),COLOR=DEFAULT,  X
               HILIGHT=UNDERLINE
         DFHMDF POS=(24,64),LENGTH=0,ATTRB=(ASKIP,NORM)
* 'ERROR-TEXT-SY00'
ZFLD040  DFHMDF POS=(24,65),LENGTH=0014,ATTRB=(PROT,DRK),              X
               COLOR=DEFAULT,HILIGHT=OFF
         DFHMSD TYPE=FINAL
         END
