FPF1MAP  DFHMSD TYPE=MAP,LANG=COBOL,TERM=3270,MODE=INOUT,              X
               TIOAPFX=YES,MAPATTS=(COLOR,HILIGHT),                    X
               DSATTS=(COLOR,HILIGHT)
FPF1MAP  DFHMDI SIZE=(24,80),LINE=1,COLUMN=1,CTRL=FREEKB,TIOAPFX=YES
         DFHMDF POS=(01,01),LENGTH=0017,ATTRB=(PROT),                  X
               INITIAL='CURRENT FUNCTION',COLOR=BLUE,HILIGHT=OFF
* 'FUNCTION'
ZFLD002  DFHMDF POS=(01,19),LENGTH=0008,ATTRB=(PROT),COLOR=BLUE,       X
               HILIGHT=OFF
         DFHMDF POS=(01,28),LENGTH=0,ATTRB=(ASKIP,NORM)
* 'PAGE'
         DFHMDF POS=(01,54),LENGTH=0005,ATTRB=(PROT),COLOR=BLUE,       X
               INITIAL='PAGE:',HILIGHT=OFF
ZFLD003  DFHMDF POS=(01,61),LENGTH=0003,ATTRB=(PROT),COLOR=BLUE,       X
               HILIGHT=OFF
         DFHMDF POS=(01,66),LENGTH=0003,ATTRB=(PROT),COLOR=BLUE,       X
               INITIAL='OF:',HILIGHT=OFF
ZFLD004  DFHMDF POS=(01,70),LENGTH=0003,ATTRB=(PROT),COLOR=BLUE,       X
               HILIGHT=OFF
* 'AGR-DATE'
         DFHMDF POS=(02,01),LENGTH=0005,ATTRB=(PROT),COLOR=BLUE,       X
               INITIAL='Date:',HILIGHT=OFF
* 'DATE'
ZFLD005  DFHMDF POS=(02,07),LENGTH=0010,ATTRB=(PROT),COLOR=BLUE,       X
               HILIGHT=OFF
* 'NEXT PAGE'
         DFHMDF POS=(02,54),LENGTH=0010,ATTRB=(PROT),COLOR=BLUE,       X
               INITIAL='Next Page:',HILIGHT=OFF
ZFLD006  DFHMDF POS=(02,67),LENGTH=0003,ATTRB=(UNPROT),COLOR=BLUE,     X
               HILIGHT=OFF
         DFHMDF POS=(02,71),LENGTH=0,ATTRB=(ASKIP,NORM)
         DFHMDF POS=(04,19),LENGTH=0040,ATTRB=(PROT),                  X
               INITIAL='APPLICATION CONTROL FACILITY HELP SCREEN',     X
               COLOR=BLUE,HILIGHT=OFF
* 'AMR-SELECT1'
ZFLD007  DFHMDF POS=(06,08),LENGTH=0001,ATTRB=(UNPROT,IC),             X
               COLOR=DEFAULT,HILIGHT=OFF
         DFHMDF POS=(06,10),LENGTH=0,ATTRB=(ASKIP,NORM)
* 'AMR-RESPONSE'
ZFLD008  DFHMDF POS=(06,11),LENGTH=0008,ATTRB=(PROT),COLOR=TURQUOISE,  X
               HILIGHT=OFF
         DFHMDF POS=(06,20),LENGTH=0,ATTRB=(ASKIP,NORM)
* 'AMR-KEY'
ZFLD009  DFHMDF POS=(06,21),LENGTH=0007,ATTRB=(PROT),COLOR=TURQUOISE,  X
               HILIGHT=OFF
         DFHMDF POS=(06,29),LENGTH=0,ATTRB=(ASKIP,NORM)
* 'AMR-DESCRIPTION'
ZFLD010  DFHMDF POS=(06,34),LENGTH=0028,ATTRB=(PROT),                  X
               HILIGHT=OFF
         DFHMDF POS=(06,64),length=0,ATTRB=(ASKIP,NORM)
* 'AMR-SELECT2'
ZFLD011  DFHMDF POS=(07,08),LENGTH=0001,ATTRB=(UNPROT),COLOR=DEFAULT,  X
               HILIGHT=OFF
         DFHMDF POS=(07,10),LENGTH=0,ATTRB=(ASKIP,NORM)
* 'AMR-RESPONSE'
ZFLD012  DFHMDF POS=(07,11),LENGTH=0008,ATTRB=(PROT),COLOR=TURQUOISE,  X
               HILIGHT=OFF
         DFHMDF POS=(07,20),LENGTH=0,ATTRB=(ASKIP,NORM)
* 'AMR-KEY'
ZFLD013  DFHMDF POS=(07,21),LENGTH=0007,ATTRB=(PROT),COLOR=TURQUOISE,  X
               HILIGHT=OFF
         DFHMDF POS=(07,29),LENGTH=0,ATTRB=(ASKIP,NORM)
* 'AMR-DESCRIPTION'
ZFLD014  DFHMDF POS=(07,34),LENGTH=0028,ATTRB=(PROT),                  X
               HILIGHT=OFF
         DFHMDF POS=(07,64),length=0,ATTRB=(ASKIP,NORM)
* 'AMR-SELECT3'
ZFLD015  DFHMDF POS=(08,08),LENGTH=0001,ATTRB=(UNPROT),COLOR=DEFAULT,  X
               HILIGHT=OFF
         DFHMDF POS=(08,10),LENGTH=0,ATTRB=(ASKIP,NORM)
* 'AMR-RESPONSE'
ZFLD016  DFHMDF POS=(08,11),LENGTH=0008,ATTRB=(PROT),COLOR=TURQUOISE,  X
               HILIGHT=OFF
         DFHMDF POS=(08,20),LENGTH=0,ATTRB=(ASKIP,NORM)
* 'AMR-KEY'
ZFLD017  DFHMDF POS=(08,21),LENGTH=0007,ATTRB=(PROT),COLOR=TURQUOISE,  X
               HILIGHT=OFF
         DFHMDF POS=(08,29),LENGTH=0,ATTRB=(ASKIP,NORM)
* 'AMR-DESCRIPTION'
ZFLD018  DFHMDF POS=(08,34),LENGTH=0028,ATTRB=(PROT),                  X
               HILIGHT=OFF
         DFHMDF POS=(08,64),length=0,ATTRB=(ASKIP,NORM)
* 'AMR-SELECT4'
ZFLD019  DFHMDF POS=(09,08),LENGTH=0001,ATTRB=(UNPROT),COLOR=DEFAULT,  X
               HILIGHT=OFF
         DFHMDF POS=(09,10),LENGTH=0,ATTRB=(ASKIP,NORM)
* 'AMR-RESPONSE'
ZFLD020  DFHMDF POS=(09,11),LENGTH=0008,ATTRB=(PROT),COLOR=TURQUOISE,  X
               HILIGHT=OFF
         DFHMDF POS=(09,20),LENGTH=0,ATTRB=(ASKIP,NORM)
* 'AMR-KEY'
ZFLD021  DFHMDF POS=(09,21),LENGTH=0007,ATTRB=(PROT),COLOR=TURQUOISE,  X
               HILIGHT=OFF
         DFHMDF POS=(09,29),LENGTH=0,ATTRB=(ASKIP,NORM)
* 'AMR-DESCRIPTION'
ZFLD022  DFHMDF POS=(09,34),LENGTH=0028,ATTRB=(PROT),                  X
               HILIGHT=OFF
         DFHMDF POS=(09,64),length=0,ATTRB=(ASKIP,NORM)
* 'AMR-SELECT5'
ZFLD023  DFHMDF POS=(10,08),LENGTH=0001,ATTRB=(UNPROT),COLOR=DEFAULT,  X
               HILIGHT=OFF
         DFHMDF POS=(10,10),LENGTH=0,ATTRB=(ASKIP,NORM)
* 'AMR-RESPONSE'
ZFLD024  DFHMDF POS=(10,11),LENGTH=0008,ATTRB=(PROT),COLOR=TURQUOISE,  X
               HILIGHT=OFF
         DFHMDF POS=(10,20),LENGTH=0,ATTRB=(ASKIP,NORM)
* 'AMR-KEY'
ZFLD025  DFHMDF POS=(10,21),LENGTH=0007,ATTRB=(PROT),COLOR=TURQUOISE,  X
               HILIGHT=OFF
         DFHMDF POS=(10,29),LENGTH=0,ATTRB=(ASKIP,NORM)
* 'AMR-DESCRIPTION'
ZFLD026  DFHMDF POS=(10,34),LENGTH=0028,ATTRB=(PROT),                  X
               HILIGHT=OFF
         DFHMDF POS=(10,64),length=0,ATTRB=(ASKIP,NORM)
* 'AMR-SELECT6'
ZFLD027  DFHMDF POS=(11,08),LENGTH=0001,ATTRB=(UNPROT),COLOR=DEFAULT,  X
               HILIGHT=OFF
         DFHMDF POS=(11,10),LENGTH=0,ATTRB=(ASKIP,NORM)
* 'AMR-RESPONSE'
ZFLD028  DFHMDF POS=(11,11),LENGTH=0008,ATTRB=(PROT),COLOR=TURQUOISE,  X
               HILIGHT=OFF
         DFHMDF POS=(11,20),LENGTH=0,ATTRB=(ASKIP,NORM)
* 'AMR-KEY'
ZFLD029  DFHMDF POS=(11,21),LENGTH=0007,ATTRB=(PROT),COLOR=TURQUOISE,  X
               HILIGHT=OFF
         DFHMDF POS=(11,29),LENGTH=0,ATTRB=(ASKIP,NORM)
* 'AMR-DESCRIPTION'
ZFLD030  DFHMDF POS=(11,34),LENGTH=0028,ATTRB=(PROT),                  X
               HILIGHT=OFF
         DFHMDF POS=(11,64),length=0,ATTRB=(ASKIP,NORM)
* 'AMR-SELECT7'
ZFLD031  DFHMDF POS=(12,08),LENGTH=0001,ATTRB=(UNPROT),COLOR=DEFAULT,  X
               HILIGHT=OFF
         DFHMDF POS=(12,10),LENGTH=0,ATTRB=(ASKIP,NORM)
* 'AMR-RESPONSE'
ZFLD032  DFHMDF POS=(12,11),LENGTH=0008,ATTRB=(PROT),COLOR=TURQUOISE,  X
               HILIGHT=OFF
         DFHMDF POS=(12,20),LENGTH=0,ATTRB=(ASKIP,NORM)
* 'AMR-KEY'
ZFLD033  DFHMDF POS=(12,21),LENGTH=0007,ATTRB=(PROT),COLOR=TURQUOISE,  X
               HILIGHT=OFF
         DFHMDF POS=(12,29),LENGTH=0,ATTRB=(ASKIP,NORM)
* 'AMR-DESCRIPTION'
ZFLD034  DFHMDF POS=(12,34),LENGTH=0028,ATTRB=(PROT),                  X
               HILIGHT=OFF
         DFHMDF POS=(12,64),length=0,ATTRB=(ASKIP,NORM)
* 'AMR-SELECT8'
ZFLD035  DFHMDF POS=(13,08),LENGTH=0001,ATTRB=(UNPROT),COLOR=DEFAULT,  X
               HILIGHT=OFF
         DFHMDF POS=(13,10),LENGTH=0,ATTRB=(ASKIP,NORM)
* 'AMR-RESPONSE'
ZFLD036  DFHMDF POS=(13,11),LENGTH=0008,ATTRB=(PROT),COLOR=TURQUOISE,  X
               HILIGHT=OFF
         DFHMDF POS=(13,20),LENGTH=0,ATTRB=(ASKIP,NORM)
* 'AMR-KEY'
ZFLD037  DFHMDF POS=(13,21),LENGTH=0007,ATTRB=(PROT),COLOR=TURQUOISE,  X
               HILIGHT=OFF
         DFHMDF POS=(13,29),LENGTH=0,ATTRB=(ASKIP,NORM)
* 'AMR-DESCRIPTION'
ZFLD038  DFHMDF POS=(13,34),LENGTH=0028,ATTRB=(PROT),                  X
               HILIGHT=OFF
         DFHMDF POS=(13,64),length=0,ATTRB=(ASKIP,NORM)
* 'AMR-SELECT9'
ZFLD039  DFHMDF POS=(14,08),LENGTH=0001,ATTRB=(UNPROT),COLOR=DEFAULT,  X
               HILIGHT=OFF
         DFHMDF POS=(14,10),LENGTH=0,ATTRB=(ASKIP,NORM)
* 'AMR-RESPONSE'
ZFLD040  DFHMDF POS=(14,11),LENGTH=0008,ATTRB=(PROT),COLOR=TURQUOISE,  X
               HILIGHT=OFF
         DFHMDF POS=(14,20),LENGTH=0,ATTRB=(ASKIP,NORM)
* 'AMR-KEY'
ZFLD041  DFHMDF POS=(14,21),LENGTH=0007,ATTRB=(PROT),COLOR=TURQUOISE,  X
               HILIGHT=OFF
         DFHMDF POS=(14,29),LENGTH=0,ATTRB=(ASKIP,NORM)
* 'AMR-DESCRIPTION'
ZFLD042  DFHMDF POS=(14,34),LENGTH=0028,ATTRB=(PROT),                  X
               HILIGHT=OFF
         DFHMDF POS=(14,64),length=0,ATTRB=(ASKIP,NORM)
* 'AMR-SELECT10'
ZFLD043  DFHMDF POS=(15,08),LENGTH=0001,ATTRB=(UNPROT),COLOR=DEFAULT,  X
               HILIGHT=OFF
         DFHMDF POS=(15,10),LENGTH=0,ATTRB=(ASKIP,NORM)
* 'AMR-RESPONSE'
ZFLD044  DFHMDF POS=(15,11),LENGTH=0008,ATTRB=(PROT),COLOR=TURQUOISE,  X
               HILIGHT=OFF
         DFHMDF POS=(15,20),LENGTH=0,ATTRB=(ASKIP,NORM)
* 'AMR-KEY'
ZFLD045  DFHMDF POS=(15,21),LENGTH=0007,ATTRB=(PROT),COLOR=TURQUOISE,  X
               HILIGHT=OFF
         DFHMDF POS=(15,29),LENGTH=0,ATTRB=(ASKIP,NORM)
* 'AMR-DESCRIPTION'
ZFLD046  DFHMDF POS=(15,34),LENGTH=0028,ATTRB=(PROT),                  X
               HILIGHT=OFF
         DFHMDF POS=(15,64),length=0,ATTRB=(ASKIP,NORM)
* 'AMR-SELECT11'
ZFLD047  DFHMDF POS=(16,08),LENGTH=0001,ATTRB=(UNPROT),COLOR=DEFAULT,  X
               HILIGHT=OFF
         DFHMDF POS=(16,10),LENGTH=0,ATTRB=(ASKIP,NORM)
* 'AMR-RESPONSE'
ZFLD048  DFHMDF POS=(16,11),LENGTH=0008,ATTRB=(PROT),COLOR=TURQUOISE,  X
               HILIGHT=OFF
         DFHMDF POS=(16,20),LENGTH=0,ATTRB=(ASKIP,NORM)
* 'AMR-KEY'
ZFLD049  DFHMDF POS=(16,21),LENGTH=0007,ATTRB=(PROT),COLOR=TURQUOISE,  X
               HILIGHT=OFF
         DFHMDF POS=(16,29),LENGTH=0,ATTRB=(ASKIP,NORM)
* 'AMR-DESCRIPTION'
ZFLD050  DFHMDF POS=(16,34),LENGTH=0028,ATTRB=(PROT),                  X
               HILIGHT=OFF
         DFHMDF POS=(16,64),length=0,ATTRB=(ASKIP,NORM)
* 'AMR-SELECT12'
ZFLD051  DFHMDF POS=(17,08),LENGTH=0001,ATTRB=(UNPROT),COLOR=DEFAULT,  X
               HILIGHT=OFF
         DFHMDF POS=(17,10),LENGTH=0,ATTRB=(ASKIP,NORM)
* 'AMR-RESPONSE'
ZFLD052  DFHMDF POS=(17,11),LENGTH=0008,ATTRB=(PROT),COLOR=TURQUOISE,  X
               HILIGHT=OFF
         DFHMDF POS=(17,20),LENGTH=0,ATTRB=(ASKIP,NORM)
* 'AMR-KEY'
ZFLD053  DFHMDF POS=(17,21),LENGTH=0007,ATTRB=(PROT),COLOR=TURQUOISE,  X
               HILIGHT=OFF
         DFHMDF POS=(17,29),LENGTH=0,ATTRB=(ASKIP,NORM)
* 'AMR-DESCRIPTION'
ZFLD054  DFHMDF POS=(17,34),LENGTH=0028,ATTRB=(PROT),                  X
               HILIGHT=OFF
         DFHMDF POS=(17,64),length=0,ATTRB=(ASKIP,NORM)
* 'AMR-SELECT13'
ZFLD055  DFHMDF POS=(18,08),LENGTH=0001,ATTRB=(UNPROT),COLOR=DEFAULT,  X
               HILIGHT=OFF
         DFHMDF POS=(18,10),LENGTH=0,ATTRB=(ASKIP,NORM)
* 'AMR-RESPONSE'
ZFLD056  DFHMDF POS=(18,11),LENGTH=0008,ATTRB=(PROT),COLOR=TURQUOISE,  X
               HILIGHT=OFF
         DFHMDF POS=(18,20),LENGTH=0,ATTRB=(ASKIP,NORM)
* 'AMR-KEY'
ZFLD057  DFHMDF POS=(18,21),LENGTH=0007,ATTRB=(PROT),COLOR=TURQUOISE,  X
               HILIGHT=OFF
         DFHMDF POS=(18,29),LENGTH=0,ATTRB=(ASKIP,NORM)
* 'AMR-DESCRIPTION'
ZFLD058  DFHMDF POS=(18,34),LENGTH=0028,ATTRB=(PROT),                  X
               HILIGHT=OFF
         DFHMDF POS=(18,64),length=0,ATTRB=(ASKIP,NORM)
* 'AMR-SELECT14'
ZFLD059  DFHMDF POS=(19,08),LENGTH=0001,ATTRB=(UNPROT),COLOR=DEFAULT,  X
               HILIGHT=OFF
         DFHMDF POS=(19,10),LENGTH=0,ATTRB=(ASKIP,NORM)
* 'AMR-RESPONSE'
ZFLD060  DFHMDF POS=(19,11),LENGTH=0008,ATTRB=(PROT),COLOR=TURQUOISE,  X
               HILIGHT=OFF
         DFHMDF POS=(19,20),LENGTH=0,ATTRB=(ASKIP,NORM)
* 'AMR-KEY'
ZFLD061  DFHMDF POS=(19,21),LENGTH=0007,ATTRB=(PROT),COLOR=TURQUOISE,  X
               HILIGHT=OFF
         DFHMDF POS=(19,29),LENGTH=0,ATTRB=(ASKIP,NORM)
* 'AMR-DESCRIPTION'
ZFLD062  DFHMDF POS=(19,34),LENGTH=0028,ATTRB=(PROT),                  X
               HILIGHT=OFF
         DFHMDF POS=(19,64),length=0,ATTRB=(ASKIP,NORM)
* 'AMR-SELECT15'
ZFLD063  DFHMDF POS=(20,08),LENGTH=0001,ATTRB=(UNPROT),COLOR=DEFAULT,  X
               HILIGHT=OFF
         DFHMDF POS=(20,10),LENGTH=0,ATTRB=(ASKIP,NORM)
* 'AMR-RESPONSE'
ZFLD064  DFHMDF POS=(20,11),LENGTH=0008,ATTRB=(PROT),COLOR=TURQUOISE,  X
               HILIGHT=OFF
         DFHMDF POS=(20,20),LENGTH=0,ATTRB=(ASKIP,NORM)
* 'AMR-KEY'
ZFLD065  DFHMDF POS=(20,21),LENGTH=0007,ATTRB=(PROT),COLOR=TURQUOISE,  X
               HILIGHT=OFF
         DFHMDF POS=(20,29),LENGTH=0,ATTRB=(ASKIP,NORM)
* 'AMR-DESCRIPTION'
ZFLD066  DFHMDF POS=(20,34),LENGTH=0028,ATTRB=(PROT),                  X
               HILIGHT=OFF
         DFHMDF POS=(20,64),length=0,ATTRB=(ASKIP,NORM)
* 'DCLINK-MESSAGE'
ZFLD067  DFHMDF POS=(21,80),LENGTH=0080,ATTRB=(PROT,BRT),              X
               COLOR=DEFAULT,HILIGHT=OFF
* 'RESPONSE-FIELD'
         DFHMDF POS=(24,01),LENGTH=0009,ATTRB=(PROT,NUM),              X
               INITIAL='RESPONSE:',COLOR=BLUE,HILIGHT=OFF
ZFLD068  DFHMDF POS=(24,11),LENGTH=0008,ATTRB=(UNPROT),COLOR=DEFAULT,  X
               HILIGHT=OFF
         DFHMSD TYPE=FINAL
         END
