FPUMU57  DFHMSD TYPE=MAP,LANG=COBOL,TERM=3270,MODE=INOUT,              X
               TIOAPFX=YES,MAPATTS=(COLOR,HILIGHT),                    X
               DSATTS=(COLOR,HILIGHT)
FPUMU57  DFHMDI SIZE=(24,80),LINE=1,COLUMN=1,CTRL=FREEKB,TIOAPFX=YES
         DFHMDF POS=(01,01),LENGTH=0007,ATTRB=(PROT),                  X
               INITIAL='FPUMU57',COLOR=BLUE,HILIGHT=OFF
* 'TRMNL-ID-SY00'
ZFLD002  DFHMDF POS=(01,10),LENGTH=0008,ATTRB=(PROT),COLOR=BLUE,       X
               HILIGHT=OFF
         DFHMDF POS=(01,19),LENGTH=0,ATTRB=(ASKIP,NORM)
* 'FULL-NAME-6001-SY00'
ZFLD003  DFHMDF POS=(01,23),LENGTH=0035,ATTRB=(PROT),COLOR=BLUE,       X
               HILIGHT=OFF
         DFHMDF POS=(01,59),LENGTH=0,ATTRB=(ASKIP,NORM)
* 'AGR-DATE'
ZFLD004  DFHMDF POS=(01,64),LENGTH=0008,ATTRB=(PROT),COLOR=BLUE,       X
               HILIGHT=OFF
* 'WORK-HH-MM-TIME-SY00'
ZFLD005  DFHMDF POS=(01,73),LENGTH=0005,ATTRB=(PROT),COLOR=BLUE,       X
               HILIGHT=OFF
* 'AM-PM-FLAG-SY00'
ZFLD006  DFHMDF POS=(01,79),LENGTH=0001,ATTRB=(PROT),COLOR=BLUE,       X
               HILIGHT=OFF
* 'AGR-USER-ID'
ZFLD007  DFHMDF POS=(02,01),LENGTH=0008,ATTRB=(PROT),COLOR=BLUE,       X
               HILIGHT=OFF
         DFHMDF POS=(02,10),LENGTH=0,ATTRB=(ASKIP,NORM)
* 'CURR-RSPNS-ID-SY00'
ZFLD008  DFHMDF POS=(02,21),LENGTH=0008,ATTRB=(PROT,BRT),              X
               COLOR=DEFAULT,HILIGHT=OFF
         DFHMDF POS=(02,30),LENGTH=0001,ATTRB=(PROT,BRT),INITIAL=':',  X
               COLOR=DEFAULT,HILIGHT=OFF
* 'AGR-FUNC-DESCRIPTION'
ZFLD009  DFHMDF POS=(02,32),LENGTH=0028,ATTRB=(PROT,BRT),              X
               COLOR=DEFAULT,HILIGHT=OFF
         DFHMDF POS=(02,61),LENGTH=0,ATTRB=(ASKIP,NORM)
* 'PAGE-STATUS-CODE-SY00'
ZFLD010  DFHMDF POS=(02,64),LENGTH=0010,ATTRB=(PROT,BRT),              X
               COLOR=DEFAULT,HILIGHT=OFF
         DFHMDF POS=(02,75),LENGTH=0,ATTRB=(ASKIP,NORM)
         DFHMDF POS=(04,01),LENGTH=0022,ATTRB=(PROT),                  X
               INITIAL='UNIV FICE CODE       :',COLOR=BLUE,            X
               HILIGHT=OFF
* 'FICE-CODE-6001-PU57'
ZFLD011  DFHMDF POS=(04,24),LENGTH=0006,ATTRB=(UNPROT,IC),             X
               COLOR=DEFAULT,HILIGHT=UNDERLINE
         DFHMDF POS=(04,31),LENGTH=0,ATTRB=(ASKIP,NORM)
* 'FULL-NAME-6001-PU57'
ZFLD012  DFHMDF POS=(04,39),LENGTH=0035,ATTRB=(PROT),COLOR=TURQUOISE,  X
               HILIGHT=OFF
         DFHMDF POS=(04,75),LENGTH=0,ATTRB=(ASKIP,NORM)
         DFHMDF POS=(06,01),LENGTH=0022,ATTRB=(PROT),                  X
               INITIAL='REQUEST CODE         :',COLOR=BLUE,            X
               HILIGHT=OFF
* 'RQST-CODE-4070-PU57'
ZFLD013  DFHMDF POS=(06,24),LENGTH=0008,ATTRB=(UNPROT),COLOR=DEFAULT,  X
               HILIGHT=UNDERLINE
         DFHMDF POS=(06,33),LENGTH=0,ATTRB=(ASKIP,NORM)
         DFHMDF POS=(07,01),LENGTH=0022,ATTRB=(PROT),                  X
               INITIAL='REQUEST ITEM NUMBER  :',COLOR=BLUE,            X
               HILIGHT=OFF
* 'REQUEST-ITEM-NMBR-4071-PU57'
ZFLD014  DFHMDF POS=(07,24),LENGTH=0004,ATTRB=(UNPROT),COLOR=DEFAULT,  X
               HILIGHT=UNDERLINE
         DFHMDF POS=(07,29),LENGTH=0,ATTRB=(ASKIP,NORM)
         DFHMDF POS=(08,01),LENGTH=0022,ATTRB=(PROT),                  X
               INITIAL='BUYER CODE           :',COLOR=BLUE,            X
               HILIGHT=OFF
* 'BUYER-CODE-4072-PU57'
ZFLD015  DFHMDF POS=(08,24),LENGTH=0004,ATTRB=(UNPROT),COLOR=DEFAULT,  X
               HILIGHT=UNDERLINE
         DFHMDF POS=(08,29),LENGTH=0,ATTRB=(ASKIP,NORM)
         DFHMDF POS=(09,01),LENGTH=0022,ATTRB=(PROT),                  X
               INITIAL='PURCHASE ORDER NUMBER:',COLOR=BLUE,            X
               HILIGHT=OFF
* 'PO-NMBR-4083-PU57'
ZFLD016  DFHMDF POS=(09,24),LENGTH=0008,ATTRB=(UNPROT),COLOR=DEFAULT,  X
               HILIGHT=UNDERLINE
         DFHMDF POS=(09,33),LENGTH=0,ATTRB=(ASKIP,NORM)
         DFHMDF POS=(10,01),LENGTH=0022,ATTRB=(PROT),                  X
               INITIAL='CHANGE SEQ. NUMBER   :',COLOR=BLUE,            X
               HILIGHT=OFF
* 'CHNG-SEQ-NMBR-4096-PU57'
ZFLD017  DFHMDF POS=(10,24),LENGTH=0003,ATTRB=(UNPROT),COLOR=DEFAULT,  X
               HILIGHT=UNDERLINE
         DFHMDF POS=(10,28),LENGTH=0,ATTRB=(ASKIP,NORM)
         DFHMDF POS=(11,01),LENGTH=0022,ATTRB=(PROT),                  X
               INITIAL='P.O. ITEM NUMBER     :',COLOR=BLUE,            X
               HILIGHT=OFF
* 'PO-ITEM-NMBR-4085-PU57'
ZFLD018  DFHMDF POS=(11,24),LENGTH=0004,ATTRB=(UNPROT),COLOR=DEFAULT,  X
               HILIGHT=UNDERLINE
         DFHMDF POS=(11,29),LENGTH=0,ATTRB=(ASKIP,NORM)
         DFHMDF POS=(12,01),LENGTH=0022,ATTRB=(PROT),                  X
               INITIAL='AGREEMENT CODE       :',COLOR=BLUE,            X
               HILIGHT=OFF
* 'AGRMT-CODE-4081-PU57'
ZFLD019  DFHMDF POS=(12,24),LENGTH=0015,ATTRB=(UNPROT),COLOR=DEFAULT,  X
               HILIGHT=UNDERLINE
         DFHMDF POS=(12,40),LENGTH=0,ATTRB=(ASKIP,NORM)
         DFHMDF POS=(13,01),LENGTH=0022,ATTRB=(PROT),                  X
               INITIAL='BID NUMBER           :',COLOR=BLUE,            X
               HILIGHT=OFF
* 'BID-NMBR-4088-PU57'
ZFLD020  DFHMDF POS=(13,24),LENGTH=0008,ATTRB=(UNPROT),COLOR=DEFAULT,  X
               HILIGHT=UNDERLINE
         DFHMDF POS=(13,33),LENGTH=0,ATTRB=(ASKIP,NORM)
         DFHMDF POS=(14,01),LENGTH=0022,ATTRB=(PROT),                  X
               INITIAL='BID ITEM NUMBER      :',COLOR=BLUE,            X
               HILIGHT=OFF
* 'BID-ITEM-NMBR-4089-PU57'
ZFLD021  DFHMDF POS=(14,24),LENGTH=0004,ATTRB=(UNPROT),COLOR=DEFAULT,  X
               HILIGHT=UNDERLINE
         DFHMDF POS=(14,29),LENGTH=0,ATTRB=(ASKIP,NORM)
         DFHMDF POS=(15,01),LENGTH=0022,ATTRB=(PROT),                  X
               INITIAL='COMMODITY CODE       :',COLOR=BLUE,            X
               HILIGHT=OFF
* 'CMDTY-CODE-4074-PU57'
ZFLD022  DFHMDF POS=(15,24),LENGTH=0008,ATTRB=(UNPROT),COLOR=DEFAULT,  X
               HILIGHT=UNDERLINE
         DFHMDF POS=(15,33),LENGTH=0,ATTRB=(ASKIP,NORM)
         DFHMDF POS=(16,01),LENGTH=0022,ATTRB=(PROT),                  X
               INITIAL='RETURN CODE          :',COLOR=BLUE,            X
               HILIGHT=OFF
* 'RTRN-CODE-4099-PU57'
ZFLD023  DFHMDF POS=(16,24),LENGTH=0004,ATTRB=(UNPROT),COLOR=DEFAULT,  X
               HILIGHT=UNDERLINE
         DFHMDF POS=(16,29),LENGTH=0,ATTRB=(ASKIP,NORM)
         DFHMDF POS=(17,01),LENGTH=0022,ATTRB=(PROT),                  X
               INITIAL='SHIP TO CODE         :',COLOR=BLUE,            X
               HILIGHT=OFF
* 'SHIP-TO-CODE-4086-PU57'
ZFLD024  DFHMDF POS=(17,24),LENGTH=0006,ATTRB=(UNPROT),COLOR=DEFAULT,  X
               HILIGHT=UNDERLINE
         DFHMDF POS=(17,31),LENGTH=0,ATTRB=(ASKIP,NORM)
         DFHMDF POS=(18,01),LENGTH=0022,ATTRB=(PROT),                  X
               INITIAL='VENDOR CODE          :',COLOR=BLUE,            X
               HILIGHT=OFF
* 'VNDR-CODE-4073-PU57'
ZFLD025  DFHMDF POS=(18,24),LENGTH=0009,ATTRB=(UNPROT),COLOR=DEFAULT,  X
               HILIGHT=UNDERLINE
         DFHMDF POS=(18,34),LENGTH=0,ATTRB=(ASKIP,NORM)
         DFHMDF POS=(19,01),LENGTH=0022,ATTRB=(PROT),                  X
               INITIAL='COA CODE             :',COLOR=BLUE,            X
               HILIGHT=OFF
* 'COA-CODE-4002-PU57'
ZFLD026  DFHMDF POS=(19,24),LENGTH=0001,ATTRB=(UNPROT),COLOR=DEFAULT,  X
               HILIGHT=UNDERLINE
         DFHMDF POS=(19,26),LENGTH=0,ATTRB=(ASKIP,NORM)
         DFHMDF POS=(20,01),LENGTH=0022,ATTRB=(PROT),                  X
               INITIAL='ORGANIZATION CODE    :',COLOR=BLUE,            X
               HILIGHT=OFF
* 'ORGZN-CODE-4002-PU57'
ZFLD027  DFHMDF POS=(20,24),LENGTH=0006,ATTRB=(UNPROT),COLOR=DEFAULT,  X
               HILIGHT=UNDERLINE
         DFHMDF POS=(20,31),LENGTH=0,ATTRB=(ASKIP,NORM)
         DFHMDF POS=(21,01),LENGTH=0022,ATTRB=(PROT),                  X
               INITIAL='PRINTER DEST CODE    :',COLOR=BLUE,            X
               HILIGHT=OFF
* 'PRNTR-DEST-CODE-4167-PU57'
ZFLD028  DFHMDF POS=(21,24),LENGTH=0008,ATTRB=(UNPROT),COLOR=DEFAULT,  X
               HILIGHT=UNDERLINE
         DFHMDF POS=(21,33),LENGTH=0,ATTRB=(ASKIP,NORM)
* 'DCLINK-MESSAGE'
ZFLD029  DFHMDF POS=(21,80),LENGTH=0160,ATTRB=(PROT,BRT),              X
               COLOR=DEFAULT,HILIGHT=OFF
         DFHMDF POS=(24,01),LENGTH=0012,ATTRB=(PROT,NUM),              X
               INITIAL='NEXT SCREEN:',COLOR=BLUE,HILIGHT=OFF
* 'AGR-PASSED-ONE'
ZFLD030  DFHMDF POS=(24,14),LENGTH=0030,ATTRB=(UNPROT),COLOR=DEFAULT,  X
               HILIGHT=UNDERLINE
         DFHMDF POS=(24,45),LENGTH=0009,ATTRB=(ASKIP,PROT),            X
               INITIAL='RESPONSE:',COLOR=BLUE,HILIGHT=OFF
* 'AGR-MAP-RESPONSE'
ZFLD031  DFHMDF POS=(24,55),LENGTH=0008,ATTRB=(UNPROT),COLOR=DEFAULT,  X
               HILIGHT=UNDERLINE
         DFHMDF POS=(24,64),LENGTH=0,ATTRB=(ASKIP,NORM)
* 'ERROR-TEXT-SY00'
ZFLD032  DFHMDF POS=(24,65),LENGTH=0014,ATTRB=(PROT,DRK),              X
               COLOR=DEFAULT,HILIGHT=OFF
         DFHMSD TYPE=FINAL
         END
