FPUMI64  DFHMSD TYPE=MAP,LANG=COBOL,TERM=3270,MODE=INOUT,              X
               TIOAPFX=YES,MAPATTS=(COLOR,HILIGHT),                    X
               DSATTS=(COLOR,HILIGHT)
FPUMI64  DFHMDI SIZE=(24,80),LINE=1,COLUMN=1,CTRL=FREEKB,TIOAPFX=YES
         DFHMDF POS=(01,01),LENGTH=0007,ATTRB=(PROT,ASKIP),            X
               INITIAL='FPUMI64',COLOR=BLUE,HILIGHT=OFF
* 'TRMNL-ID-SY00'
ZFLD002  DFHMDF POS=(01,10),LENGTH=0008,ATTRB=(PROT),COLOR=BLUE,       X
               HILIGHT=OFF
         DFHMDF POS=(01,19),LENGTH=0,ATTRB=(ASKIP,NORM)
* 'FULL-NAME-6001-SY00'
ZFLD003  DFHMDF POS=(01,23),LENGTH=0035,ATTRB=(PROT),COLOR=BLUE,       X
               HILIGHT=OFF
         DFHMDF POS=(01,59),LENGTH=0,ATTRB=(ASKIP,NORM)
* 'AGR-DATE'
ZFLD004  DFHMDF POS=(01,64),LENGTH=0008,ATTRB=(PROT),COLOR=BLUE,       X
               HILIGHT=OFF
* 'WORK-HH-MM-TIME-SY00'
ZFLD005  DFHMDF POS=(01,73),LENGTH=0005,ATTRB=(PROT),COLOR=BLUE,       X
               HILIGHT=OFF
* 'AM-PM-FLAG-SY00'
ZFLD006  DFHMDF POS=(01,79),LENGTH=0001,ATTRB=(PROT),COLOR=BLUE,       X
               HILIGHT=OFF
* 'AGR-USER-ID'
ZFLD007  DFHMDF POS=(02,01),LENGTH=0008,ATTRB=(PROT),COLOR=BLUE,       X
               HILIGHT=OFF
         DFHMDF POS=(02,10),LENGTH=0,ATTRB=(ASKIP,NORM)
* 'CURR-RSPNS-ID-SY00'
ZFLD008  DFHMDF POS=(02,21),LENGTH=0008,ATTRB=(PROT,BRT),              X
               COLOR=DEFAULT,HILIGHT=OFF
         DFHMDF POS=(02,30),LENGTH=0001,ATTRB=(PROT,ASKIP,BRT),        X
               INITIAL=':',COLOR=DEFAULT,HILIGHT=OFF
* 'AGR-FUNC-DESCRIPTION'
ZFLD009  DFHMDF POS=(02,32),LENGTH=0028,ATTRB=(PROT,BRT),              X
               COLOR=DEFAULT,HILIGHT=OFF
         DFHMDF POS=(02,61),LENGTH=0,ATTRB=(ASKIP,NORM)
* 'PAGE-STATUS-CODE-SY00'
ZFLD010  DFHMDF POS=(02,64),LENGTH=0010,ATTRB=(PROT,BRT),              X
               COLOR=DEFAULT,HILIGHT=OFF
         DFHMDF POS=(02,75),LENGTH=0,ATTRB=(ASKIP,NORM)
         DFHMDF POS=(04,01),LENGTH=0076,ATTRB=(PROT,ASKIP),            X
               INITIAL='ACT  COMMODITY                                 X
                          EFFECTIVE   END   ',COLOR=BLUE,HILIGHT=OFF
         DFHMDF POS=(05,01),LENGTH=0074,ATTRB=(PROT,ASKIP),            X
               INITIAL='(AL)   CODE             DESCRIPTION            X
                  ACCOUNT   DATE      DATE',COLOR=BLUE,HILIGHT=OFF
* 'ACTN-CODE-PU64'
ZFLD011  DFHMDF POS=(06,02),LENGTH=0001,ATTRB=(UNPROT,IC),             X
               COLOR=DEFAULT,HILIGHT=OFF
         DFHMDF POS=(06,04),LENGTH=0,ATTRB=(ASKIP,NORM)
* 'CMDTY-CODE-4074-PU64'
ZFLD012  DFHMDF POS=(06,06),LENGTH=0008,ATTRB=(PROT,ASKIP),            X
               COLOR=TURQUOISE,HILIGHT=OFF
* 'CMDTY-DESC-4074-PU64'
ZFLD013  DFHMDF POS=(06,15),LENGTH=0035,ATTRB=(PROT),COLOR=TURQUOISE,  X
               HILIGHT=OFF
* 'UNIT-MEA-CODE-4074-PU64'
ZFLD014  DFHMDF POS=(06,52),LENGTH=0006,ATTRB=(PROT),COLOR=TURQUOISE,  X
               HILIGHT=OFF
* 'START-DATE-4074-PU64'
ZFLD015  DFHMDF POS=(06,60),LENGTH=0008,ATTRB=(PROT),COLOR=TURQUOISE,  X
               HILIGHT=OFF
* 'ACTVY-DATE-4074-PU64'
ZFLD016  DFHMDF POS=(06,69),LENGTH=0008,ATTRB=(PROT),COLOR=TURQUOISE,  X
               HILIGHT=OFF
         DFHMDF POS=(06,79),LENGTH=0,ATTRB=(ASKIP,NORM)
* 'ACTN-CODE-PU64'
ZFLD017  DFHMDF POS=(07,02),LENGTH=0001,ATTRB=(UNPROT),COLOR=DEFAULT,  X
               HILIGHT=OFF
         DFHMDF POS=(07,04),LENGTH=0,ATTRB=(ASKIP,NORM)
* 'CMDTY-CODE-4074-PU64'
ZFLD018  DFHMDF POS=(07,06),LENGTH=0008,ATTRB=(PROT,ASKIP),            X
               COLOR=TURQUOISE,HILIGHT=OFF
* 'CMDTY-DESC-4074-PU64'
ZFLD019  DFHMDF POS=(07,15),LENGTH=0035,ATTRB=(PROT),COLOR=TURQUOISE,  X
               HILIGHT=OFF
* 'UNIT-MEA-CODE-4074-PU64'
ZFLD020  DFHMDF POS=(07,52),LENGTH=0006,ATTRB=(PROT),COLOR=TURQUOISE,  X
               HILIGHT=OFF
* 'START-DATE-4074-PU64'
ZFLD021  DFHMDF POS=(07,60),LENGTH=0008,ATTRB=(PROT),COLOR=TURQUOISE,  X
               HILIGHT=OFF
* 'ACTVY-DATE-4074-PU64'
ZFLD022  DFHMDF POS=(07,69),LENGTH=0008,ATTRB=(PROT),COLOR=TURQUOISE,  X
               HILIGHT=OFF
         DFHMDF POS=(07,79),LENGTH=0,ATTRB=(ASKIP,NORM)
* 'ACTN-CODE-PU64'
ZFLD023  DFHMDF POS=(08,02),LENGTH=0001,ATTRB=(UNPROT),COLOR=DEFAULT,  X
               HILIGHT=OFF
         DFHMDF POS=(08,04),LENGTH=0,ATTRB=(ASKIP,NORM)
* 'CMDTY-CODE-4074-PU64'
ZFLD024  DFHMDF POS=(08,06),LENGTH=0008,ATTRB=(PROT,ASKIP),            X
               COLOR=TURQUOISE,HILIGHT=OFF
* 'CMDTY-DESC-4074-PU64'
ZFLD025  DFHMDF POS=(08,15),LENGTH=0035,ATTRB=(PROT),COLOR=TURQUOISE,  X
               HILIGHT=OFF
* 'UNIT-MEA-CODE-4074-PU64'
ZFLD026  DFHMDF POS=(08,52),LENGTH=0006,ATTRB=(PROT),COLOR=TURQUOISE,  X
               HILIGHT=OFF
* 'START-DATE-4074-PU64'
ZFLD027  DFHMDF POS=(08,60),LENGTH=0008,ATTRB=(PROT),COLOR=TURQUOISE,  X
               HILIGHT=OFF
* 'ACTVY-DATE-4074-PU64'
ZFLD028  DFHMDF POS=(08,69),LENGTH=0008,ATTRB=(PROT),COLOR=TURQUOISE,  X
               HILIGHT=OFF
         DFHMDF POS=(08,79),LENGTH=0,ATTRB=(ASKIP,NORM)
* 'ACTN-CODE-PU64'
ZFLD029  DFHMDF POS=(09,02),LENGTH=0001,ATTRB=(UNPROT),COLOR=DEFAULT,  X
               HILIGHT=OFF
         DFHMDF POS=(09,04),LENGTH=0,ATTRB=(ASKIP,NORM)
* 'CMDTY-CODE-4074-PU64'
ZFLD030  DFHMDF POS=(09,06),LENGTH=0008,ATTRB=(PROT,ASKIP),            X
               COLOR=TURQUOISE,HILIGHT=OFF
* 'CMDTY-DESC-4074-PU64'
ZFLD031  DFHMDF POS=(09,15),LENGTH=0035,ATTRB=(PROT),COLOR=TURQUOISE,  X
               HILIGHT=OFF
* 'UNIT-MEA-CODE-4074-PU64'
ZFLD032  DFHMDF POS=(09,52),LENGTH=0006,ATTRB=(PROT),COLOR=TURQUOISE,  X
               HILIGHT=OFF
* 'START-DATE-4074-PU64'
ZFLD033  DFHMDF POS=(09,60),LENGTH=0008,ATTRB=(PROT),COLOR=TURQUOISE,  X
               HILIGHT=OFF
* 'ACTVY-DATE-4074-PU64'
ZFLD034  DFHMDF POS=(09,69),LENGTH=0008,ATTRB=(PROT),COLOR=TURQUOISE,  X
               HILIGHT=OFF
         DFHMDF POS=(09,79),LENGTH=0,ATTRB=(ASKIP,NORM)
* 'ACTN-CODE-PU64'
ZFLD035  DFHMDF POS=(10,02),LENGTH=0001,ATTRB=(UNPROT),COLOR=DEFAULT,  X
               HILIGHT=OFF
         DFHMDF POS=(10,04),LENGTH=0,ATTRB=(ASKIP,NORM)
* 'CMDTY-CODE-4074-PU64'
ZFLD036  DFHMDF POS=(10,06),LENGTH=0008,ATTRB=(PROT,ASKIP),            X
               COLOR=TURQUOISE,HILIGHT=OFF
* 'CMDTY-DESC-4074-PU64'
ZFLD037  DFHMDF POS=(10,15),LENGTH=0035,ATTRB=(PROT),COLOR=TURQUOISE,  X
               HILIGHT=OFF
* 'UNIT-MEA-CODE-4074-PU64'
ZFLD038  DFHMDF POS=(10,52),LENGTH=0006,ATTRB=(PROT),COLOR=TURQUOISE,  X
               HILIGHT=OFF
* 'START-DATE-4074-PU64'
ZFLD039  DFHMDF POS=(10,60),LENGTH=0008,ATTRB=(PROT),COLOR=TURQUOISE,  X
               HILIGHT=OFF
* 'ACTVY-DATE-4074-PU64'
ZFLD040  DFHMDF POS=(10,69),LENGTH=0008,ATTRB=(PROT),COLOR=TURQUOISE,  X
               HILIGHT=OFF
         DFHMDF POS=(10,79),LENGTH=0,ATTRB=(ASKIP,NORM)
* 'ACTN-CODE-PU64'
ZFLD041  DFHMDF POS=(11,02),LENGTH=0001,ATTRB=(UNPROT),COLOR=DEFAULT,  X
               HILIGHT=OFF
         DFHMDF POS=(11,04),LENGTH=0,ATTRB=(ASKIP,NORM)
* 'CMDTY-CODE-4074-PU64'
ZFLD042  DFHMDF POS=(11,06),LENGTH=0008,ATTRB=(PROT,ASKIP),            X
               COLOR=TURQUOISE,HILIGHT=OFF
* 'CMDTY-DESC-4074-PU64'
ZFLD043  DFHMDF POS=(11,15),LENGTH=0035,ATTRB=(PROT),COLOR=TURQUOISE,  X
               HILIGHT=OFF
* 'UNIT-MEA-CODE-4074-PU64'
ZFLD044  DFHMDF POS=(11,52),LENGTH=0006,ATTRB=(PROT),COLOR=TURQUOISE,  X
               HILIGHT=OFF
* 'START-DATE-4074-PU64'
ZFLD045  DFHMDF POS=(11,60),LENGTH=0008,ATTRB=(PROT),COLOR=TURQUOISE,  X
               HILIGHT=OFF
* 'ACTVY-DATE-4074-PU64'
ZFLD046  DFHMDF POS=(11,69),LENGTH=0008,ATTRB=(PROT),COLOR=TURQUOISE,  X
               HILIGHT=OFF
         DFHMDF POS=(11,79),LENGTH=0,ATTRB=(ASKIP,NORM)
* 'ACTN-CODE-PU64'
ZFLD047  DFHMDF POS=(12,02),LENGTH=0001,ATTRB=(UNPROT),COLOR=DEFAULT,  X
               HILIGHT=OFF
         DFHMDF POS=(12,04),LENGTH=0,ATTRB=(ASKIP,NORM)
* 'CMDTY-CODE-4074-PU64'
ZFLD048  DFHMDF POS=(12,06),LENGTH=0008,ATTRB=(PROT,ASKIP),            X
               COLOR=TURQUOISE,HILIGHT=OFF
* 'CMDTY-DESC-4074-PU64'
ZFLD049  DFHMDF POS=(12,15),LENGTH=0035,ATTRB=(PROT),COLOR=TURQUOISE,  X
               HILIGHT=OFF
* 'UNIT-MEA-CODE-4074-PU64'
ZFLD050  DFHMDF POS=(12,52),LENGTH=0006,ATTRB=(PROT),COLOR=TURQUOISE,  X
               HILIGHT=OFF
* 'START-DATE-4074-PU64'
ZFLD051  DFHMDF POS=(12,60),LENGTH=0008,ATTRB=(PROT),COLOR=TURQUOISE,  X
               HILIGHT=OFF
* 'ACTVY-DATE-4074-PU64'
ZFLD052  DFHMDF POS=(12,69),LENGTH=0008,ATTRB=(PROT),COLOR=TURQUOISE,  X
               HILIGHT=OFF
         DFHMDF POS=(12,79),LENGTH=0,ATTRB=(ASKIP,NORM)
* 'ACTN-CODE-PU64'
ZFLD053  DFHMDF POS=(13,02),LENGTH=0001,ATTRB=(UNPROT),COLOR=DEFAULT,  X
               HILIGHT=OFF
         DFHMDF POS=(13,04),LENGTH=0,ATTRB=(ASKIP,NORM)
* 'CMDTY-CODE-4074-PU64'
ZFLD054  DFHMDF POS=(13,06),LENGTH=0008,ATTRB=(PROT,ASKIP),            X
               COLOR=TURQUOISE,HILIGHT=OFF
* 'CMDTY-DESC-4074-PU64'
ZFLD055  DFHMDF POS=(13,15),LENGTH=0035,ATTRB=(PROT),COLOR=TURQUOISE,  X
               HILIGHT=OFF
* 'UNIT-MEA-CODE-4074-PU64'
ZFLD056  DFHMDF POS=(13,52),LENGTH=0006,ATTRB=(PROT),COLOR=TURQUOISE,  X
               HILIGHT=OFF
* 'START-DATE-4074-PU64'
ZFLD057  DFHMDF POS=(13,60),LENGTH=0008,ATTRB=(PROT),COLOR=TURQUOISE,  X
               HILIGHT=OFF
* 'ACTVY-DATE-4074-PU64'
ZFLD058  DFHMDF POS=(13,69),LENGTH=0008,ATTRB=(PROT),COLOR=TURQUOISE,  X
               HILIGHT=OFF
         DFHMDF POS=(13,79),LENGTH=0,ATTRB=(ASKIP,NORM)
* 'ACTN-CODE-PU64'
ZFLD059  DFHMDF POS=(14,02),LENGTH=0001,ATTRB=(UNPROT),COLOR=DEFAULT,  X
               HILIGHT=OFF
         DFHMDF POS=(14,04),LENGTH=0,ATTRB=(ASKIP,NORM)
* 'CMDTY-CODE-4074-PU64'
ZFLD060  DFHMDF POS=(14,06),LENGTH=0008,ATTRB=(PROT,ASKIP),            X
               COLOR=TURQUOISE,HILIGHT=OFF
* 'CMDTY-DESC-4074-PU64'
ZFLD061  DFHMDF POS=(14,15),LENGTH=0035,ATTRB=(PROT),COLOR=TURQUOISE,  X
               HILIGHT=OFF
* 'UNIT-MEA-CODE-4074-PU64'
ZFLD062  DFHMDF POS=(14,52),LENGTH=0006,ATTRB=(PROT),COLOR=TURQUOISE,  X
               HILIGHT=OFF
* 'START-DATE-4074-PU64'
ZFLD063  DFHMDF POS=(14,60),LENGTH=0008,ATTRB=(PROT),COLOR=TURQUOISE,  X
               HILIGHT=OFF
* 'ACTVY-DATE-4074-PU64'
ZFLD064  DFHMDF POS=(14,69),LENGTH=0008,ATTRB=(PROT),COLOR=TURQUOISE,  X
               HILIGHT=OFF
         DFHMDF POS=(14,79),LENGTH=0,ATTRB=(ASKIP,NORM)
* 'ACTN-CODE-PU64'
ZFLD065  DFHMDF POS=(15,02),LENGTH=0001,ATTRB=(UNPROT),COLOR=DEFAULT,  X
               HILIGHT=OFF
         DFHMDF POS=(15,04),LENGTH=0,ATTRB=(ASKIP,NORM)
* 'CMDTY-CODE-4074-PU64'
ZFLD066  DFHMDF POS=(15,06),LENGTH=0008,ATTRB=(PROT,ASKIP),            X
               COLOR=TURQUOISE,HILIGHT=OFF
* 'CMDTY-DESC-4074-PU64'
ZFLD067  DFHMDF POS=(15,15),LENGTH=0035,ATTRB=(PROT),COLOR=TURQUOISE,  X
               HILIGHT=OFF
* 'UNIT-MEA-CODE-4074-PU64'
ZFLD068  DFHMDF POS=(15,52),LENGTH=0006,ATTRB=(PROT),COLOR=TURQUOISE,  X
               HILIGHT=OFF
* 'START-DATE-4074-PU64'
ZFLD069  DFHMDF POS=(15,60),LENGTH=0008,ATTRB=(PROT),COLOR=TURQUOISE,  X
               HILIGHT=OFF
* 'ACTVY-DATE-4074-PU64'
ZFLD070  DFHMDF POS=(15,69),LENGTH=0008,ATTRB=(PROT),COLOR=TURQUOISE,  X
               HILIGHT=OFF
         DFHMDF POS=(15,79),LENGTH=0,ATTRB=(ASKIP,NORM)
* 'ACTN-CODE-PU64'
ZFLD071  DFHMDF POS=(16,02),LENGTH=0001,ATTRB=(UNPROT),COLOR=DEFAULT,  X
               HILIGHT=OFF
         DFHMDF POS=(16,04),LENGTH=0,ATTRB=(ASKIP,NORM)
* 'CMDTY-CODE-4074-PU64'
ZFLD072  DFHMDF POS=(16,06),LENGTH=0008,ATTRB=(PROT,ASKIP),            X
               COLOR=TURQUOISE,HILIGHT=OFF
* 'CMDTY-DESC-4074-PU64'
ZFLD073  DFHMDF POS=(16,15),LENGTH=0035,ATTRB=(PROT),COLOR=TURQUOISE,  X
               HILIGHT=OFF
* 'UNIT-MEA-CODE-4074-PU64'
ZFLD074  DFHMDF POS=(16,52),LENGTH=0006,ATTRB=(PROT),COLOR=TURQUOISE,  X
               HILIGHT=OFF
* 'START-DATE-4074-PU64'
ZFLD075  DFHMDF POS=(16,60),LENGTH=0008,ATTRB=(PROT),COLOR=TURQUOISE,  X
               HILIGHT=OFF
* 'ACTVY-DATE-4074-PU64'
ZFLD076  DFHMDF POS=(16,69),LENGTH=0008,ATTRB=(PROT),COLOR=TURQUOISE,  X
               HILIGHT=OFF
         DFHMDF POS=(16,79),LENGTH=0,ATTRB=(ASKIP,NORM)
* 'ACTN-CODE-PU64'
ZFLD077  DFHMDF POS=(17,02),LENGTH=0001,ATTRB=(UNPROT),COLOR=DEFAULT,  X
               HILIGHT=OFF
         DFHMDF POS=(17,04),LENGTH=0,ATTRB=(ASKIP,NORM)
* 'CMDTY-CODE-4074-PU64'
ZFLD078  DFHMDF POS=(17,06),LENGTH=0008,ATTRB=(PROT,ASKIP),            X
               COLOR=TURQUOISE,HILIGHT=OFF
* 'CMDTY-DESC-4074-PU64'
ZFLD079  DFHMDF POS=(17,15),LENGTH=0035,ATTRB=(PROT),COLOR=TURQUOISE,  X
               HILIGHT=OFF
* 'UNIT-MEA-CODE-4074-PU64'
ZFLD080  DFHMDF POS=(17,52),LENGTH=0006,ATTRB=(PROT),COLOR=TURQUOISE,  X
               HILIGHT=OFF
* 'START-DATE-4074-PU64'
ZFLD081  DFHMDF POS=(17,60),LENGTH=0008,ATTRB=(PROT),COLOR=TURQUOISE,  X
               HILIGHT=OFF
* 'ACTVY-DATE-4074-PU64'
ZFLD082  DFHMDF POS=(17,69),LENGTH=0008,ATTRB=(PROT),COLOR=TURQUOISE,  X
               HILIGHT=OFF
         DFHMDF POS=(17,79),LENGTH=0,ATTRB=(ASKIP,NORM)
         DFHMDF POS=(19,01),LENGTH=22,ATTRB=(PROT,ASKIP),              X
               INITIAL='SEARCH BY DESCRIPTION: ',COLOR=BLUE,           X
               HILIGHT=OFF
* 'RQST-CMDTY-DESC-PU64'
ZFLD083  DFHMDF POS=(19,24),LENGTH=0035,ATTRB=(UNPROT),COLOR=DEFAULT,  X
               HILIGHT=UNDERLINE
         DFHMDF POS=(19,60),LENGTH=8,INITIAL='OR CODE:',ATTRB=(ASKIP,NO*00003170
               RM),COLOR=BLUE                                           00003180
* 'RQST-CMDTY-CODE-PU64'
ZFLD090  DFHMDF POS=(19,69),LENGTH=8,ATTRB=(UNPROT,NORM),              *00003200
               HILIGHT=UNDERLINE                                        00003210
         DFHMDF POS=(19,78),LENGTH=1,ATTRB=(ASKIP,NORM)                 00003220
         DFHMDF POS=(20,1),LENGTH=14,INITIAL='DISPLAY (A/V):',         *00003230
               ATTRB=(ASKIP,NORM),COLOR=BLUE                            00003240
*DISP-OPTION-PU64                                                       00003250
ZFLD091  DFHMDF POS=(20,16),LENGTH=1,ATTRB=(UNPROT,NORM),              *00003260
               HILIGHT=UNDERLINE                                        00003270
         DFHMDF POS=(20,18),LENGTH=54,                                 *00003280
               INITIAL='      EQUIPMENT: $1,500 - 4,999 (N) OR OVER $5,*00003290
               000(I):',ATTRB=(ASKIP,NORM),COLOR=BLUE                   00003300
*EQUIP-PRICE-RNG-PU64                                                   00003310
ZFLD092M DFHMDF POS=(20,73),LENGTH=1,ATTRB=(UNPROT,NORM),              *00003320
               HILIGHT=UNDERLINE                                        00003330
         DFHMDF POS=(20,75),LENGTH=1,ATTRB=(ASKIP,NORM)                 00003340
* 'DCLINK-MESSAGE'
ZFLD084  DFHMDF POS=(21,80),LENGTH=0160,ATTRB=(PROT,BRT),              X
               COLOR=DEFAULT,HILIGHT=OFF
         DFHMDF POS=(24,01),LENGTH=0012,ATTRB=(PROT,ASKIP,NUM),        X
               INITIAL='NEXT SCREEN:',COLOR=BLUE,HILIGHT=OFF
* 'AGR-PASSED-ONE'
ZFLD085  DFHMDF POS=(24,14),LENGTH=0030,ATTRB=(UNPROT),COLOR=DEFAULT,  X
               HILIGHT=UNDERLINE
         DFHMDF POS=(24,45),LENGTH=0009,ATTRB=(PROT,ASKIP),            X
               INITIAL='RESPONSE:',COLOR=BLUE,HILIGHT=OFF
* 'AGR-MAP-RESPONSE'
ZFLD086  DFHMDF POS=(24,55),LENGTH=0008,ATTRB=(UNPROT),COLOR=DEFAULT,  X
               HILIGHT=UNDERLINE
         DFHMDF POS=(24,64),LENGTH=0,ATTRB=(ASKIP,NORM)
* 'ERROR-TEXT-SY00'
ZFLD087  DFHMDF POS=(24,65),LENGTH=0014,ATTRB=(PROT,DRK),              X
               COLOR=DEFAULT,HILIGHT=OFF
         DFHMSD TYPE=FINAL
         END
