FPUMI41  DFHMSD TYPE=MAP,LANG=COBOL,TERM=3270,MODE=INOUT,              X
               TIOAPFX=YES,MAPATTS=(COLOR,HILIGHT),                    X
               DSATTS=(COLOR,HILIGHT)
FPUMI41  DFHMDI SIZE=(24,80),LINE=1,COLUMN=1,CTRL=FREEKB,TIOAPFX=YES
         DFHMDF POS=(01,01),LENGTH=0007,ATTRB=(PROT,ASKIP),            X
               INITIAL='FPUMI41',COLOR=BLUE,HILIGHT=OFF
* 'TRMNL-ID-SY00'
ZFLD002  DFHMDF POS=(01,10),LENGTH=0008,ATTRB=(PROT),COLOR=BLUE,       X
               HILIGHT=OFF
         DFHMDF POS=(01,19),LENGTH=0,ATTRB=(ASKIP,NORM)
* 'FULL-NAME-6001-SY00'
ZFLD003  DFHMDF POS=(01,23),LENGTH=0035,ATTRB=(PROT),COLOR=BLUE,       X
               HILIGHT=OFF
         DFHMDF POS=(01,59),LENGTH=0,ATTRB=(ASKIP,NORM)
* 'AGR-DATE'
ZFLD004  DFHMDF POS=(01,64),LENGTH=0008,ATTRB=(PROT),COLOR=BLUE,       X
               HILIGHT=OFF
* 'WORK-HH-MM-TIME-SY00'
ZFLD005  DFHMDF POS=(01,73),LENGTH=0005,ATTRB=(PROT),COLOR=BLUE,       X
               HILIGHT=OFF
* 'AM-PM-FLAG-SY00'
ZFLD006  DFHMDF POS=(01,79),LENGTH=0001,ATTRB=(PROT),COLOR=BLUE,       X
               HILIGHT=OFF
* 'AGR-USER-ID'
ZFLD007  DFHMDF POS=(02,01),LENGTH=0008,ATTRB=(PROT),COLOR=BLUE,       X
               HILIGHT=OFF
         DFHMDF POS=(02,10),LENGTH=0,ATTRB=(ASKIP,NORM)
* 'CURR-RSPNS-ID-SY00'
ZFLD008  DFHMDF POS=(02,21),LENGTH=0008,ATTRB=(PROT,BRT),              X
               COLOR=DEFAULT,HILIGHT=OFF
         DFHMDF POS=(02,30),LENGTH=0001,ATTRB=(PROT,ASKIP,BRT),        X
               INITIAL=':',COLOR=DEFAULT,HILIGHT=OFF
* 'AGR-FUNC-DESCRIPTION'
ZFLD009  DFHMDF POS=(02,32),LENGTH=0028,ATTRB=(PROT,BRT),              X
               COLOR=DEFAULT,HILIGHT=OFF
         DFHMDF POS=(02,61),LENGTH=0,ATTRB=(ASKIP,NORM)
* 'PAGE-STATUS-CODE-SY00'
ZFLD010  DFHMDF POS=(02,64),LENGTH=0010,ATTRB=(PROT,BRT),              X
               COLOR=DEFAULT,HILIGHT=OFF
         DFHMDF POS=(02,75),LENGTH=0,ATTRB=(ASKIP,NORM)
         DFHMDF POS=(04,01),LENGTH=0076,ATTRB=(PROT,ASKIP),            X
               INITIAL='PURCHASE ORDER  VENDOR CODE           VENDOR NAX
               ME                 ORDER DATE',COLOR=BLUE,HILIGHT=OFF
* 'PO-NMBR-4083-PU41'
ZFLD011  DFHMDF POS=(05,01),LENGTH=0008,ATTRB=(UNPROT,IC),             X
               COLOR=DEFAULT,HILIGHT=UNDERLINE
         DFHMDF POS=(05,10),LENGTH=0001,ATTRB=(PROT,ASKIP),            X
               INITIAL='-',COLOR=BLUE,HILIGHT=OFF
* 'CHNG-SEQ-NMBR-4096-PU41'
ZFLD012  DFHMDF POS=(05,12),LENGTH=0003,ATTRB=(UNPROT),COLOR=DEFAULT,  X
               HILIGHT=UNDERLINE
         DFHMDF POS=(05,16),LENGTH=0,ATTRB=(ASKIP,NORM)
* 'VNDR-ID-LAST-NINE-4073-PU41'
ZFLD013  DFHMDF POS=(05,17),LENGTH=0009,ATTRB=(PROT),COLOR=TURQUOISE,  X
               HILIGHT=OFF
         DFHMDF POS=(05,27),LENGTH=0,ATTRB=(ASKIP,NORM)
* 'NAME-KEY-6311-PU41'
ZFLD014  DFHMDF POS=(05,28),LENGTH=0035,ATTRB=(PROT),COLOR=TURQUOISE,  X
               HILIGHT=OFF
         DFHMDF POS=(05,64),LENGTH=0,ATTRB=(ASKIP,NORM)
* 'ORDER-DATE-4096-PU41'
ZFLD015  DFHMDF POS=(05,68),LENGTH=0008,ATTRB=(PROT),COLOR=TURQUOISE,  X
               HILIGHT=OFF
         DFHMDF POS=(05,77),LENGTH=0,ATTRB=(ASKIP,NORM)
* 'DELETE-LIT-PU41'
ZFLD016  DFHMDF POS=(06,01),LENGTH=0013,ATTRB=(PROT),COLOR=BLUE,       X
               HILIGHT=OFF
* 'DELETE-FLAG-PU41'
ZFLD017  DFHMDF POS=(06,15),LENGTH=0001,ATTRB=(PROT),COLOR=DEFAULT,    X
               HILIGHT=OFF
         DFHMDF POS=(06,17),LENGTH=0,ATTRB=(ASKIP,NORM)
* 'WORK-ALPHA-PU41'
ZFLD018  DFHMDF POS=(08,01),LENGTH=0003,ATTRB=(PROT),COLOR=BLUE,       X
               HILIGHT=OFF
         DFHMDF POS=(08,05),LENGTH=0,ATTRB=(ASKIP,NORM)
         DFHMDF POS=(08,06),LENGTH=0067,ATTRB=(PROT,ASKIP),            X
               INITIAL='ITEM COMMODITY          DESCRIPTION            X
                  U/M     QUANTITY/',COLOR=BLUE,HILIGHT=OFF
* 'WORK-ALPHA-PU41'
ZFLD019  DFHMDF POS=(09,01),LENGTH=0003,ATTRB=(PROT),COLOR=BLUE,       X
               HILIGHT=OFF
         DFHMDF POS=(09,05),LENGTH=0,ATTRB=(ASKIP,NORM)
         DFHMDF POS=(09,06),LENGTH=0069,ATTRB=(PROT,ASKIP),            X
               INITIAL='                                               X
                       EXTENDED PRICE',COLOR=BLUE,HILIGHT=OFF
* 'ACTN-CODE-PU41'
ZFLD020  DFHMDF POS=(10,02),LENGTH=0001,ATTRB=(UNPROT),COLOR=DEFAULT,  X
               HILIGHT=OFF
         DFHMDF POS=(10,04),LENGTH=0,ATTRB=(ASKIP,NORM)
* 'ITEM-NMBR-4085-PU41'
ZFLD021  DFHMDF POS=(10,06),LENGTH=0004,ATTRB=(PROT,ASKIP),            X
               COLOR=TURQUOISE,HILIGHT=OFF
* 'CMDTY-CODE-4074-PU41'
ZFLD022  DFHMDF POS=(10,11),LENGTH=0008,ATTRB=(PROT,ASKIP),            X
               COLOR=TURQUOISE,HILIGHT=OFF
* 'CMDTY-DESC-4074-PU41'
ZFLD023  DFHMDF POS=(10,20),LENGTH=0035,ATTRB=(PROT,ASKIP),            X
               COLOR=TURQUOISE,HILIGHT=OFF
* 'UNIT-MEA-CODE-4085-PU41'
ZFLD024  DFHMDF POS=(10,56),LENGTH=0003,ATTRB=(PROT,ASKIP),            X
               COLOR=TURQUOISE,HILIGHT=OFF
         DFHMDF POS=(10,60),LENGTH=0,ATTRB=(ASKIP,NORM)
* 'QTY-4085-PU41'
ZFLD025  DFHMDF POS=(10,66),LENGTH=0011,ATTRB=(PROT,ASKIP),            X
               COLOR=TURQUOISE,HILIGHT=OFF
         DFHMDF POS=(10,78),LENGTH=0,ATTRB=(ASKIP,NORM)
* 'EXTENDED-PRICE-4085-PU41'
ZFLD026  DFHMDF POS=(11,60),LENGTH=0017,ATTRB=(PROT,ASKIP),            X
               COLOR=TURQUOISE,HILIGHT=OFF
         DFHMDF POS=(11,78),LENGTH=0,ATTRB=(ASKIP,NORM)
* 'ACTN-CODE-PU41'
ZFLD027  DFHMDF POS=(12,02),LENGTH=0001,ATTRB=(UNPROT),COLOR=DEFAULT,  X
               HILIGHT=OFF
         DFHMDF POS=(12,04),LENGTH=0,ATTRB=(ASKIP,NORM)
* 'ITEM-NMBR-4085-PU41'
ZFLD028  DFHMDF POS=(12,06),LENGTH=0004,ATTRB=(PROT,ASKIP),            X
               COLOR=TURQUOISE,HILIGHT=OFF
* 'CMDTY-CODE-4074-PU41'
ZFLD029  DFHMDF POS=(12,11),LENGTH=0008,ATTRB=(PROT,ASKIP),            X
               COLOR=TURQUOISE,HILIGHT=OFF
* 'CMDTY-DESC-4074-PU41'
ZFLD030  DFHMDF POS=(12,20),LENGTH=0035,ATTRB=(PROT,ASKIP),            X
               COLOR=TURQUOISE,HILIGHT=OFF
* 'UNIT-MEA-CODE-4085-PU41'
ZFLD031  DFHMDF POS=(12,56),LENGTH=0003,ATTRB=(PROT,ASKIP),            X
               COLOR=TURQUOISE,HILIGHT=OFF
         DFHMDF POS=(12,60),LENGTH=0,ATTRB=(ASKIP,NORM)
* 'QTY-4085-PU41'
ZFLD032  DFHMDF POS=(12,66),LENGTH=0011,ATTRB=(PROT,ASKIP),            X
               COLOR=TURQUOISE,HILIGHT=OFF
         DFHMDF POS=(12,78),LENGTH=0,ATTRB=(ASKIP,NORM)
* 'EXTENDED-PRICE-4085-PU41'
ZFLD033  DFHMDF POS=(13,60),LENGTH=0017,ATTRB=(PROT,ASKIP),            X
               COLOR=TURQUOISE,HILIGHT=OFF
         DFHMDF POS=(13,78),LENGTH=0,ATTRB=(ASKIP,NORM)
* 'ACTN-CODE-PU41'
ZFLD034  DFHMDF POS=(14,02),LENGTH=0001,ATTRB=(UNPROT),COLOR=DEFAULT,  X
               HILIGHT=OFF
         DFHMDF POS=(14,04),LENGTH=0,ATTRB=(ASKIP,NORM)
* 'ITEM-NMBR-4085-PU41'
ZFLD035  DFHMDF POS=(14,06),LENGTH=0004,ATTRB=(PROT,ASKIP),            X
               COLOR=TURQUOISE,HILIGHT=OFF
* 'CMDTY-CODE-4074-PU41'
ZFLD036  DFHMDF POS=(14,11),LENGTH=0008,ATTRB=(PROT,ASKIP),            X
               COLOR=TURQUOISE,HILIGHT=OFF
* 'CMDTY-DESC-4074-PU41'
ZFLD037  DFHMDF POS=(14,20),LENGTH=0035,ATTRB=(PROT,ASKIP),            X
               COLOR=TURQUOISE,HILIGHT=OFF
* 'UNIT-MEA-CODE-4085-PU41'
ZFLD038  DFHMDF POS=(14,56),LENGTH=0003,ATTRB=(PROT,ASKIP),            X
               COLOR=TURQUOISE,HILIGHT=OFF
         DFHMDF POS=(14,60),LENGTH=0,ATTRB=(ASKIP,NORM)
* 'QTY-4085-PU41'
ZFLD039  DFHMDF POS=(14,66),LENGTH=0011,ATTRB=(PROT,ASKIP),            X
               COLOR=TURQUOISE,HILIGHT=OFF
         DFHMDF POS=(14,78),LENGTH=0,ATTRB=(ASKIP,NORM)
* 'EXTENDED-PRICE-4085-PU41'
ZFLD040  DFHMDF POS=(15,60),LENGTH=0017,ATTRB=(PROT,ASKIP),            X
               COLOR=TURQUOISE,HILIGHT=OFF
         DFHMDF POS=(15,78),LENGTH=0,ATTRB=(ASKIP,NORM)
* 'ACTN-CODE-PU41'
ZFLD041  DFHMDF POS=(16,02),LENGTH=0001,ATTRB=(UNPROT),COLOR=DEFAULT,  X
               HILIGHT=OFF
         DFHMDF POS=(16,04),LENGTH=0,ATTRB=(ASKIP,NORM)
* 'ITEM-NMBR-4085-PU41'
ZFLD042  DFHMDF POS=(16,06),LENGTH=0004,ATTRB=(PROT,ASKIP),            X
               COLOR=TURQUOISE,HILIGHT=OFF
* 'CMDTY-CODE-4074-PU41'
ZFLD043  DFHMDF POS=(16,11),LENGTH=0008,ATTRB=(PROT,ASKIP),            X
               COLOR=TURQUOISE,HILIGHT=OFF
* 'CMDTY-DESC-4074-PU41'
ZFLD044  DFHMDF POS=(16,20),LENGTH=0035,ATTRB=(PROT,ASKIP),            X
               COLOR=TURQUOISE,HILIGHT=OFF
* 'UNIT-MEA-CODE-4085-PU41'
ZFLD045  DFHMDF POS=(16,56),LENGTH=0003,ATTRB=(PROT,ASKIP),            X
               COLOR=TURQUOISE,HILIGHT=OFF
         DFHMDF POS=(16,60),LENGTH=0,ATTRB=(ASKIP,NORM)
* 'QTY-4085-PU41'
ZFLD046  DFHMDF POS=(16,66),LENGTH=0011,ATTRB=(PROT,ASKIP),            X
               COLOR=TURQUOISE,HILIGHT=OFF
         DFHMDF POS=(16,78),LENGTH=0,ATTRB=(ASKIP,NORM)
* 'EXTENDED-PRICE-4085-PU41'
ZFLD047  DFHMDF POS=(17,60),LENGTH=0017,ATTRB=(PROT,ASKIP),            X
               COLOR=TURQUOISE,HILIGHT=OFF
         DFHMDF POS=(17,78),LENGTH=0,ATTRB=(ASKIP,NORM)
* 'ACTN-CODE-PU41'
ZFLD048  DFHMDF POS=(18,02),LENGTH=0001,ATTRB=(UNPROT),COLOR=DEFAULT,  X
               HILIGHT=OFF
         DFHMDF POS=(18,04),LENGTH=0,ATTRB=(ASKIP,NORM)
* 'ITEM-NMBR-4085-PU41'
ZFLD049  DFHMDF POS=(18,06),LENGTH=0004,ATTRB=(PROT,ASKIP),            X
               COLOR=TURQUOISE,HILIGHT=OFF
* 'CMDTY-CODE-4074-PU41'
ZFLD050  DFHMDF POS=(18,11),LENGTH=0008,ATTRB=(PROT,ASKIP),            X
               COLOR=TURQUOISE,HILIGHT=OFF
* 'CMDTY-DESC-4074-PU41'
ZFLD051  DFHMDF POS=(18,20),LENGTH=0035,ATTRB=(PROT,ASKIP),            X
               COLOR=TURQUOISE,HILIGHT=OFF
* 'UNIT-MEA-CODE-4085-PU41'
ZFLD052  DFHMDF POS=(18,56),LENGTH=0003,ATTRB=(PROT,ASKIP),            X
               COLOR=TURQUOISE,HILIGHT=OFF
         DFHMDF POS=(18,60),LENGTH=0,ATTRB=(ASKIP,NORM)
* 'QTY-4085-PU41'
ZFLD053  DFHMDF POS=(18,66),LENGTH=0011,ATTRB=(PROT,ASKIP),            X
               COLOR=TURQUOISE,HILIGHT=OFF
         DFHMDF POS=(18,78),LENGTH=0,ATTRB=(ASKIP,NORM)
* 'EXTENDED-PRICE-4085-PU41'
ZFLD054  DFHMDF POS=(19,60),LENGTH=0017,ATTRB=(PROT,ASKIP),            X
               COLOR=TURQUOISE,HILIGHT=OFF
         DFHMDF POS=(19,78),LENGTH=0,ATTRB=(ASKIP,NORM)
         DFHMDF POS=(20,01),LENGTH=0013,ATTRB=(PROT,ASKIP),            X
               INITIAL='ITEM REQUEST:',COLOR=BLUE,HILIGHT=OFF
* 'RQST-ITEM-NMBR-PU41'
ZFLD055  DFHMDF POS=(20,15),LENGTH=0004,ATTRB=(UNPROT),COLOR=DEFAULT,  X
               HILIGHT=UNDERLINE
         DFHMDF POS=(20,20),LENGTH=0,ATTRB=(ASKIP,NORM)
* 'DCLINK-MESSAGE'
ZFLD056  DFHMDF POS=(21,80),LENGTH=0160,ATTRB=(PROT,BRT),              X
               COLOR=DEFAULT,HILIGHT=OFF
         DFHMDF POS=(24,01),LENGTH=0012,ATTRB=(PROT,ASKIP,NUM),        X
               INITIAL='NEXT SCREEN:',COLOR=BLUE,HILIGHT=OFF
* 'AGR-PASSED-ONE'
ZFLD057  DFHMDF POS=(24,14),LENGTH=0030,ATTRB=(UNPROT),COLOR=DEFAULT,  X
               HILIGHT=UNDERLINE
         DFHMDF POS=(24,45),LENGTH=0009,ATTRB=(PROT,ASKIP),            X
               INITIAL='RESPONSE:',COLOR=BLUE,HILIGHT=OFF
* 'AGR-MAP-RESPONSE'
ZFLD058  DFHMDF POS=(24,55),LENGTH=0008,ATTRB=(UNPROT),COLOR=DEFAULT,  X
               HILIGHT=UNDERLINE
         DFHMDF POS=(24,64),LENGTH=0,ATTRB=(ASKIP,NORM)
* 'ERROR-TEXT-SY00'
ZFLD059  DFHMDF POS=(24,65),LENGTH=0014,ATTRB=(PROT,DRK),              X
               COLOR=DEFAULT,HILIGHT=OFF
         DFHMSD TYPE=FINAL
         END
