FPUMI49  DFHMSD TYPE=MAP,LANG=COBOL,TERM=3270,MODE=INOUT,              X
               TIOAPFX=YES,MAPATTS=(COLOR,HILIGHT),                    X
               DSATTS=(COLOR,HILIGHT)
FPUMI49  DFHMDI SIZE=(24,80),LINE=1,COLUMN=1,CTRL=FREEKB,TIOAPFX=YES
         DFHMDF POS=(01,01),LENGTH=0007,ATTRB=(PROT,ASKIP),            X
               INITIAL='FPUMI49',COLOR=BLUE,HILIGHT=OFF
* 'TRMNL-ID-SY00'
ZFLD002  DFHMDF POS=(01,10),LENGTH=0008,ATTRB=(PROT),COLOR=BLUE,       X
               HILIGHT=OFF
         DFHMDF POS=(01,19),LENGTH=0,ATTRB=(ASKIP,NORM)
* 'FULL-NAME-6001-SY00'
ZFLD003  DFHMDF POS=(01,23),LENGTH=0035,ATTRB=(PROT),COLOR=BLUE,       X
               HILIGHT=OFF
         DFHMDF POS=(01,59),LENGTH=0,ATTRB=(ASKIP,NORM)
* 'AGR-DATE'
ZFLD004  DFHMDF POS=(01,64),LENGTH=0008,ATTRB=(PROT),COLOR=BLUE,       X
               HILIGHT=OFF
* 'WORK-HH-MM-TIME-SY00'
ZFLD005  DFHMDF POS=(01,73),LENGTH=0005,ATTRB=(PROT),COLOR=BLUE,       X
               HILIGHT=OFF
* 'AM-PM-FLAG-SY00'
ZFLD006  DFHMDF POS=(01,79),LENGTH=0001,ATTRB=(PROT),COLOR=BLUE,       X
               HILIGHT=OFF
* 'AGR-USER-ID'
ZFLD007  DFHMDF POS=(02,01),LENGTH=0008,ATTRB=(PROT),COLOR=BLUE,       X
               HILIGHT=OFF
         DFHMDF POS=(02,10),LENGTH=0,ATTRB=(ASKIP,NORM)
* 'CURR-RSPNS-ID-SY00'
ZFLD008  DFHMDF POS=(02,21),LENGTH=0008,ATTRB=(PROT,BRT),              X
               COLOR=DEFAULT,HILIGHT=OFF
         DFHMDF POS=(02,30),LENGTH=0001,ATTRB=(PROT,ASKIP,BRT),        X
               INITIAL=':',COLOR=DEFAULT,HILIGHT=OFF
* 'AGR-FUNC-DESCRIPTION'
ZFLD009  DFHMDF POS=(02,32),LENGTH=0028,ATTRB=(PROT,BRT),              X
               COLOR=DEFAULT,HILIGHT=OFF
         DFHMDF POS=(02,61),LENGTH=0,ATTRB=(ASKIP,NORM)
* 'PAGE-STATUS-CODE-SY00'
ZFLD010  DFHMDF POS=(02,64),LENGTH=0010,ATTRB=(PROT,BRT),              X
               COLOR=DEFAULT,HILIGHT=OFF
         DFHMDF POS=(02,75),LENGTH=0,ATTRB=(ASKIP,NORM)
         DFHMDF POS=(04,02),LENGTH=0003,ATTRB=(PROT,ASKIP),            X
               INITIAL='ACT',COLOR=BLUE,HILIGHT=OFF
         DFHMDF POS=(05,01),LENGTH=0078,ATTRB=(PROT,ASKIP),            X
               INITIAL='(AL) BUYER      NAME                           X
                 PHONE           EXT. MAILCODE',COLOR=BLUE,            X
               HILIGHT=OFF
* 'ACTN-CODE-PU49'
ZFLD011  DFHMDF POS=(06,02),LENGTH=0001,ATTRB=(UNPROT,IC),             X
               COLOR=DEFAULT,HILIGHT=OFF
         DFHMDF POS=(06,04),LENGTH=0,ATTRB=(ASKIP,NORM)
* 'BUYER-CODE-4072-PU49'
ZFLD012  DFHMDF POS=(06,06),LENGTH=0004,ATTRB=(PROT,ASKIP),            X
               COLOR=TURQUOISE,HILIGHT=OFF
         DFHMDF POS=(06,11),LENGTH=0,ATTRB=(ASKIP,NORM)
* 'BUYER-NAME-4072-PU49'
ZFLD013  DFHMDF POS=(06,12),LENGTH=0035,ATTRB=(PROT,ASKIP),            X
               COLOR=TURQUOISE,HILIGHT=OFF
         DFHMDF POS=(06,48),LENGTH=0,ATTRB=(ASKIP,NORM)
* 'TLPHN-AREA-CODE-PU49'
ZFLD014  DFHMDF POS=(06,51),LENGTH=0003,ATTRB=(PROT,ASKIP),            X
               COLOR=TURQUOISE,HILIGHT=OFF
         DFHMDF POS=(06,55),LENGTH=0,ATTRB=(ASKIP,NORM)
* 'TLPHN-XCHNG-ID-PU49'
ZFLD015  DFHMDF POS=(06,56),LENGTH=0003,ATTRB=(PROT,ASKIP),            X
               COLOR=TURQUOISE,HILIGHT=OFF
         DFHMDF POS=(06,60),LENGTH=0,ATTRB=(ASKIP,NORM)
* 'TLPHN-SEQ-ID-PU49'
ZFLD016  DFHMDF POS=(06,61),LENGTH=0004,ATTRB=(PROT,ASKIP),            X
               COLOR=TURQUOISE,HILIGHT=OFF
* 'TLPHN-XTNSN-ID-PU49'
ZFLD017  DFHMDF POS=(06,66),LENGTH=0004,ATTRB=(PROT,ASKIP),            X
               COLOR=TURQUOISE,HILIGHT=OFF
         DFHMDF POS=(06,71),LENGTH=0,ATTRB=(ASKIP,NORM)
* 'MAIL-CODE-PU49'
ZFLD018  DFHMDF POS=(06,73),LENGTH=0005,ATTRB=(PROT),COLOR=TURQUOISE,  X
               HILIGHT=OFF
         DFHMDF POS=(06,79),LENGTH=0,ATTRB=(ASKIP,NORM)
* 'ACTN-CODE-PU49'
ZFLD019  DFHMDF POS=(07,02),LENGTH=0001,ATTRB=(UNPROT),COLOR=DEFAULT,  X
               HILIGHT=OFF
         DFHMDF POS=(07,04),LENGTH=0,ATTRB=(ASKIP,NORM)
* 'BUYER-CODE-4072-PU49'
ZFLD020  DFHMDF POS=(07,06),LENGTH=0004,ATTRB=(PROT,ASKIP),            X
               COLOR=TURQUOISE,HILIGHT=OFF
         DFHMDF POS=(07,11),LENGTH=0,ATTRB=(ASKIP,NORM)
* 'BUYER-NAME-4072-PU49'
ZFLD021  DFHMDF POS=(07,12),LENGTH=0035,ATTRB=(PROT,ASKIP),            X
               COLOR=TURQUOISE,HILIGHT=OFF
         DFHMDF POS=(07,48),LENGTH=0,ATTRB=(ASKIP,NORM)
* 'TLPHN-AREA-CODE-PU49'
ZFLD022  DFHMDF POS=(07,51),LENGTH=0003,ATTRB=(PROT,ASKIP),            X
               COLOR=TURQUOISE,HILIGHT=OFF
         DFHMDF POS=(07,55),LENGTH=0,ATTRB=(ASKIP,NORM)
* 'TLPHN-XCHNG-ID-PU49'
ZFLD023  DFHMDF POS=(07,56),LENGTH=0003,ATTRB=(PROT,ASKIP),            X
               COLOR=TURQUOISE,HILIGHT=OFF
         DFHMDF POS=(07,60),LENGTH=0,ATTRB=(ASKIP,NORM)
* 'TLPHN-SEQ-ID-PU49'
ZFLD024  DFHMDF POS=(07,61),LENGTH=0004,ATTRB=(PROT,ASKIP),            X
               COLOR=TURQUOISE,HILIGHT=OFF
* 'TLPHN-XTNSN-ID-PU49'
ZFLD025  DFHMDF POS=(07,66),LENGTH=0004,ATTRB=(PROT,ASKIP),            X
               COLOR=TURQUOISE,HILIGHT=OFF
         DFHMDF POS=(07,71),LENGTH=0,ATTRB=(ASKIP,NORM)
* 'MAIL-CODE-PU49'
ZFLD026  DFHMDF POS=(07,73),LENGTH=0005,ATTRB=(PROT),COLOR=TURQUOISE,  X
               HILIGHT=OFF
         DFHMDF POS=(07,79),LENGTH=0,ATTRB=(ASKIP,NORM)
* 'ACTN-CODE-PU49'
ZFLD027  DFHMDF POS=(08,02),LENGTH=0001,ATTRB=(UNPROT),COLOR=DEFAULT,  X
               HILIGHT=OFF
         DFHMDF POS=(08,04),LENGTH=0,ATTRB=(ASKIP,NORM)
* 'BUYER-CODE-4072-PU49'
ZFLD028  DFHMDF POS=(08,06),LENGTH=0004,ATTRB=(PROT,ASKIP),            X
               COLOR=TURQUOISE,HILIGHT=OFF
         DFHMDF POS=(08,11),LENGTH=0,ATTRB=(ASKIP,NORM)
* 'BUYER-NAME-4072-PU49'
ZFLD029  DFHMDF POS=(08,12),LENGTH=0035,ATTRB=(PROT,ASKIP),            X
               COLOR=TURQUOISE,HILIGHT=OFF
         DFHMDF POS=(08,48),LENGTH=0,ATTRB=(ASKIP,NORM)
* 'TLPHN-AREA-CODE-PU49'
ZFLD030  DFHMDF POS=(08,51),LENGTH=0003,ATTRB=(PROT,ASKIP),            X
               COLOR=TURQUOISE,HILIGHT=OFF
         DFHMDF POS=(08,55),LENGTH=0,ATTRB=(ASKIP,NORM)
* 'TLPHN-XCHNG-ID-PU49'
ZFLD031  DFHMDF POS=(08,56),LENGTH=0003,ATTRB=(PROT,ASKIP),            X
               COLOR=TURQUOISE,HILIGHT=OFF
         DFHMDF POS=(08,60),LENGTH=0,ATTRB=(ASKIP,NORM)
* 'TLPHN-SEQ-ID-PU49'
ZFLD032  DFHMDF POS=(08,61),LENGTH=0004,ATTRB=(PROT,ASKIP),            X
               COLOR=TURQUOISE,HILIGHT=OFF
* 'TLPHN-XTNSN-ID-PU49'
ZFLD033  DFHMDF POS=(08,66),LENGTH=0004,ATTRB=(PROT,ASKIP),            X
               COLOR=TURQUOISE,HILIGHT=OFF
         DFHMDF POS=(08,71),LENGTH=0,ATTRB=(ASKIP,NORM)
* 'MAIL-CODE-PU49'
ZFLD034  DFHMDF POS=(08,73),LENGTH=0005,ATTRB=(PROT),COLOR=TURQUOISE,  X
               HILIGHT=OFF
         DFHMDF POS=(08,79),LENGTH=0,ATTRB=(ASKIP,NORM)
* 'ACTN-CODE-PU49'
ZFLD035  DFHMDF POS=(09,02),LENGTH=0001,ATTRB=(UNPROT),COLOR=DEFAULT,  X
               HILIGHT=OFF
         DFHMDF POS=(09,04),LENGTH=0,ATTRB=(ASKIP,NORM)
* 'BUYER-CODE-4072-PU49'
ZFLD036  DFHMDF POS=(09,06),LENGTH=0004,ATTRB=(PROT,ASKIP),            X
               COLOR=TURQUOISE,HILIGHT=OFF
         DFHMDF POS=(09,11),LENGTH=0,ATTRB=(ASKIP,NORM)
* 'BUYER-NAME-4072-PU49'
ZFLD037  DFHMDF POS=(09,12),LENGTH=0035,ATTRB=(PROT,ASKIP),            X
               COLOR=TURQUOISE,HILIGHT=OFF
         DFHMDF POS=(09,48),LENGTH=0,ATTRB=(ASKIP,NORM)
* 'TLPHN-AREA-CODE-PU49'
ZFLD038  DFHMDF POS=(09,51),LENGTH=0003,ATTRB=(PROT,ASKIP),            X
               COLOR=TURQUOISE,HILIGHT=OFF
         DFHMDF POS=(09,55),LENGTH=0,ATTRB=(ASKIP,NORM)
* 'TLPHN-XCHNG-ID-PU49'
ZFLD039  DFHMDF POS=(09,56),LENGTH=0003,ATTRB=(PROT,ASKIP),            X
               COLOR=TURQUOISE,HILIGHT=OFF
         DFHMDF POS=(09,60),LENGTH=0,ATTRB=(ASKIP,NORM)
* 'TLPHN-SEQ-ID-PU49'
ZFLD040  DFHMDF POS=(09,61),LENGTH=0004,ATTRB=(PROT,ASKIP),            X
               COLOR=TURQUOISE,HILIGHT=OFF
* 'TLPHN-XTNSN-ID-PU49'
ZFLD041  DFHMDF POS=(09,66),LENGTH=0004,ATTRB=(PROT,ASKIP),            X
               COLOR=TURQUOISE,HILIGHT=OFF
         DFHMDF POS=(09,71),LENGTH=0,ATTRB=(ASKIP,NORM)
* 'MAIL-CODE-PU49'
ZFLD042  DFHMDF POS=(09,73),LENGTH=0005,ATTRB=(PROT),COLOR=TURQUOISE,  X
               HILIGHT=OFF
         DFHMDF POS=(09,79),LENGTH=0,ATTRB=(ASKIP,NORM)
* 'ACTN-CODE-PU49'
ZFLD043  DFHMDF POS=(10,02),LENGTH=0001,ATTRB=(UNPROT),COLOR=DEFAULT,  X
               HILIGHT=OFF
         DFHMDF POS=(10,04),LENGTH=0,ATTRB=(ASKIP,NORM)
* 'BUYER-CODE-4072-PU49'
ZFLD044  DFHMDF POS=(10,06),LENGTH=0004,ATTRB=(PROT,ASKIP),            X
               COLOR=TURQUOISE,HILIGHT=OFF
         DFHMDF POS=(10,11),LENGTH=0,ATTRB=(ASKIP,NORM)
* 'BUYER-NAME-4072-PU49'
ZFLD045  DFHMDF POS=(10,12),LENGTH=0035,ATTRB=(PROT,ASKIP),            X
               COLOR=TURQUOISE,HILIGHT=OFF
         DFHMDF POS=(10,48),LENGTH=0,ATTRB=(ASKIP,NORM)
* 'TLPHN-AREA-CODE-PU49'
ZFLD046  DFHMDF POS=(10,51),LENGTH=0003,ATTRB=(PROT,ASKIP),            X
               COLOR=TURQUOISE,HILIGHT=OFF
         DFHMDF POS=(10,55),LENGTH=0,ATTRB=(ASKIP,NORM)
* 'TLPHN-XCHNG-ID-PU49'
ZFLD047  DFHMDF POS=(10,56),LENGTH=0003,ATTRB=(PROT,ASKIP),            X
               COLOR=TURQUOISE,HILIGHT=OFF
         DFHMDF POS=(10,60),LENGTH=0,ATTRB=(ASKIP,NORM)
* 'TLPHN-SEQ-ID-PU49'
ZFLD048  DFHMDF POS=(10,61),LENGTH=0004,ATTRB=(PROT,ASKIP),            X
               COLOR=TURQUOISE,HILIGHT=OFF
* 'TLPHN-XTNSN-ID-PU49'
ZFLD049  DFHMDF POS=(10,66),LENGTH=0004,ATTRB=(PROT,ASKIP),            X
               COLOR=TURQUOISE,HILIGHT=OFF
         DFHMDF POS=(10,71),LENGTH=0,ATTRB=(ASKIP,NORM)
* 'MAIL-CODE-PU49'
ZFLD050  DFHMDF POS=(10,73),LENGTH=0005,ATTRB=(PROT),COLOR=TURQUOISE,  X
               HILIGHT=OFF
         DFHMDF POS=(10,79),LENGTH=0,ATTRB=(ASKIP,NORM)
* 'ACTN-CODE-PU49'
ZFLD051  DFHMDF POS=(11,02),LENGTH=0001,ATTRB=(UNPROT),COLOR=DEFAULT,  X
               HILIGHT=OFF
         DFHMDF POS=(11,04),LENGTH=0,ATTRB=(ASKIP,NORM)
* 'BUYER-CODE-4072-PU49'
ZFLD052  DFHMDF POS=(11,06),LENGTH=0004,ATTRB=(PROT,ASKIP),            X
               COLOR=TURQUOISE,HILIGHT=OFF
         DFHMDF POS=(11,11),LENGTH=0,ATTRB=(ASKIP,NORM)
* 'BUYER-NAME-4072-PU49'
ZFLD053  DFHMDF POS=(11,12),LENGTH=0035,ATTRB=(PROT,ASKIP),            X
               COLOR=TURQUOISE,HILIGHT=OFF
         DFHMDF POS=(11,48),LENGTH=0,ATTRB=(ASKIP,NORM)
* 'TLPHN-AREA-CODE-PU49'
ZFLD054  DFHMDF POS=(11,51),LENGTH=0003,ATTRB=(PROT,ASKIP),            X
               COLOR=TURQUOISE,HILIGHT=OFF
         DFHMDF POS=(11,55),LENGTH=0,ATTRB=(ASKIP,NORM)
* 'TLPHN-XCHNG-ID-PU49'
ZFLD055  DFHMDF POS=(11,56),LENGTH=0003,ATTRB=(PROT,ASKIP),            X
               COLOR=TURQUOISE,HILIGHT=OFF
         DFHMDF POS=(11,60),LENGTH=0,ATTRB=(ASKIP,NORM)
* 'TLPHN-SEQ-ID-PU49'
ZFLD056  DFHMDF POS=(11,61),LENGTH=0004,ATTRB=(PROT,ASKIP),            X
               COLOR=TURQUOISE,HILIGHT=OFF
* 'TLPHN-XTNSN-ID-PU49'
ZFLD057  DFHMDF POS=(11,66),LENGTH=0004,ATTRB=(PROT,ASKIP),            X
               COLOR=TURQUOISE,HILIGHT=OFF
         DFHMDF POS=(11,71),LENGTH=0,ATTRB=(ASKIP,NORM)
* 'MAIL-CODE-PU49'
ZFLD058  DFHMDF POS=(11,73),LENGTH=0005,ATTRB=(PROT),COLOR=TURQUOISE,  X
               HILIGHT=OFF
         DFHMDF POS=(11,79),LENGTH=0,ATTRB=(ASKIP,NORM)
* 'ACTN-CODE-PU49'
ZFLD059  DFHMDF POS=(12,02),LENGTH=0001,ATTRB=(UNPROT),COLOR=DEFAULT,  X
               HILIGHT=OFF
         DFHMDF POS=(12,04),LENGTH=0,ATTRB=(ASKIP,NORM)
* 'BUYER-CODE-4072-PU49'
ZFLD060  DFHMDF POS=(12,06),LENGTH=0004,ATTRB=(PROT,ASKIP),            X
               COLOR=TURQUOISE,HILIGHT=OFF
         DFHMDF POS=(12,11),LENGTH=0,ATTRB=(ASKIP,NORM)
* 'BUYER-NAME-4072-PU49'
ZFLD061  DFHMDF POS=(12,12),LENGTH=0035,ATTRB=(PROT,ASKIP),            X
               COLOR=TURQUOISE,HILIGHT=OFF
         DFHMDF POS=(12,48),LENGTH=0,ATTRB=(ASKIP,NORM)
* 'TLPHN-AREA-CODE-PU49'
ZFLD062  DFHMDF POS=(12,51),LENGTH=0003,ATTRB=(PROT,ASKIP),            X
               COLOR=TURQUOISE,HILIGHT=OFF
         DFHMDF POS=(12,55),LENGTH=0,ATTRB=(ASKIP,NORM)
* 'TLPHN-XCHNG-ID-PU49'
ZFLD063  DFHMDF POS=(12,56),LENGTH=0003,ATTRB=(PROT,ASKIP),            X
               COLOR=TURQUOISE,HILIGHT=OFF
         DFHMDF POS=(12,60),LENGTH=0,ATTRB=(ASKIP,NORM)
* 'TLPHN-SEQ-ID-PU49'
ZFLD064  DFHMDF POS=(12,61),LENGTH=0004,ATTRB=(PROT,ASKIP),            X
               COLOR=TURQUOISE,HILIGHT=OFF
* 'TLPHN-XTNSN-ID-PU49'
ZFLD065  DFHMDF POS=(12,66),LENGTH=0004,ATTRB=(PROT,ASKIP),            X
               COLOR=TURQUOISE,HILIGHT=OFF
         DFHMDF POS=(12,71),LENGTH=0,ATTRB=(ASKIP,NORM)
* 'MAIL-CODE-PU49'
ZFLD066  DFHMDF POS=(12,73),LENGTH=0005,ATTRB=(PROT),COLOR=TURQUOISE,  X
               HILIGHT=OFF
         DFHMDF POS=(12,79),LENGTH=0,ATTRB=(ASKIP,NORM)
* 'ACTN-CODE-PU49'
ZFLD067  DFHMDF POS=(13,02),LENGTH=0001,ATTRB=(UNPROT),COLOR=DEFAULT,  X
               HILIGHT=OFF
         DFHMDF POS=(13,04),LENGTH=0,ATTRB=(ASKIP,NORM)
* 'BUYER-CODE-4072-PU49'
ZFLD068  DFHMDF POS=(13,06),LENGTH=0004,ATTRB=(PROT,ASKIP),            X
               COLOR=TURQUOISE,HILIGHT=OFF
         DFHMDF POS=(13,11),LENGTH=0,ATTRB=(ASKIP,NORM)
* 'BUYER-NAME-4072-PU49'
ZFLD069  DFHMDF POS=(13,12),LENGTH=0035,ATTRB=(PROT,ASKIP),            X
               COLOR=TURQUOISE,HILIGHT=OFF
         DFHMDF POS=(13,48),LENGTH=0,ATTRB=(ASKIP,NORM)
* 'TLPHN-AREA-CODE-PU49'
ZFLD070  DFHMDF POS=(13,51),LENGTH=0003,ATTRB=(PROT,ASKIP),            X
               COLOR=TURQUOISE,HILIGHT=OFF
         DFHMDF POS=(13,55),LENGTH=0,ATTRB=(ASKIP,NORM)
* 'TLPHN-XCHNG-ID-PU49'
ZFLD071  DFHMDF POS=(13,56),LENGTH=0003,ATTRB=(PROT,ASKIP),            X
               COLOR=TURQUOISE,HILIGHT=OFF
         DFHMDF POS=(13,60),LENGTH=0,ATTRB=(ASKIP,NORM)
* 'TLPHN-SEQ-ID-PU49'
ZFLD072  DFHMDF POS=(13,61),LENGTH=0004,ATTRB=(PROT,ASKIP),            X
               COLOR=TURQUOISE,HILIGHT=OFF
* 'TLPHN-XTNSN-ID-PU49'
ZFLD073  DFHMDF POS=(13,66),LENGTH=0004,ATTRB=(PROT,ASKIP),            X
               COLOR=TURQUOISE,HILIGHT=OFF
         DFHMDF POS=(13,71),LENGTH=0,ATTRB=(ASKIP,NORM)
* 'MAIL-CODE-PU49'
ZFLD074  DFHMDF POS=(13,73),LENGTH=0005,ATTRB=(PROT),COLOR=TURQUOISE,  X
               HILIGHT=OFF
         DFHMDF POS=(13,79),LENGTH=0,ATTRB=(ASKIP,NORM)
* 'ACTN-CODE-PU49'
ZFLD075  DFHMDF POS=(14,02),LENGTH=0001,ATTRB=(UNPROT),COLOR=DEFAULT,  X
               HILIGHT=OFF
         DFHMDF POS=(14,04),LENGTH=0,ATTRB=(ASKIP,NORM)
* 'BUYER-CODE-4072-PU49'
ZFLD076  DFHMDF POS=(14,06),LENGTH=0004,ATTRB=(PROT,ASKIP),            X
               COLOR=TURQUOISE,HILIGHT=OFF
         DFHMDF POS=(14,11),LENGTH=0,ATTRB=(ASKIP,NORM)
* 'BUYER-NAME-4072-PU49'
ZFLD077  DFHMDF POS=(14,12),LENGTH=0035,ATTRB=(PROT,ASKIP),            X
               COLOR=TURQUOISE,HILIGHT=OFF
         DFHMDF POS=(14,48),LENGTH=0,ATTRB=(ASKIP,NORM)
* 'TLPHN-AREA-CODE-PU49'
ZFLD078  DFHMDF POS=(14,51),LENGTH=0003,ATTRB=(PROT,ASKIP),            X
               COLOR=TURQUOISE,HILIGHT=OFF
         DFHMDF POS=(14,55),LENGTH=0,ATTRB=(ASKIP,NORM)
* 'TLPHN-XCHNG-ID-PU49'
ZFLD079  DFHMDF POS=(14,56),LENGTH=0003,ATTRB=(PROT,ASKIP),            X
               COLOR=TURQUOISE,HILIGHT=OFF
         DFHMDF POS=(14,60),LENGTH=0,ATTRB=(ASKIP,NORM)
* 'TLPHN-SEQ-ID-PU49'
ZFLD080  DFHMDF POS=(14,61),LENGTH=0004,ATTRB=(PROT,ASKIP),            X
               COLOR=TURQUOISE,HILIGHT=OFF
* 'TLPHN-XTNSN-ID-PU49'
ZFLD081  DFHMDF POS=(14,66),LENGTH=0004,ATTRB=(PROT,ASKIP),            X
               COLOR=TURQUOISE,HILIGHT=OFF
         DFHMDF POS=(14,71),LENGTH=0,ATTRB=(ASKIP,NORM)
* 'MAIL-CODE-PU49'
ZFLD082  DFHMDF POS=(14,73),LENGTH=0005,ATTRB=(PROT),COLOR=TURQUOISE,  X
               HILIGHT=OFF
         DFHMDF POS=(14,79),LENGTH=0,ATTRB=(ASKIP,NORM)
* 'ACTN-CODE-PU49'
ZFLD083  DFHMDF POS=(15,02),LENGTH=0001,ATTRB=(UNPROT),COLOR=DEFAULT,  X
               HILIGHT=OFF
         DFHMDF POS=(15,04),LENGTH=0,ATTRB=(ASKIP,NORM)
* 'BUYER-CODE-4072-PU49'
ZFLD084  DFHMDF POS=(15,06),LENGTH=0004,ATTRB=(PROT,ASKIP),            X
               COLOR=TURQUOISE,HILIGHT=OFF
         DFHMDF POS=(15,11),LENGTH=0,ATTRB=(ASKIP,NORM)
* 'BUYER-NAME-4072-PU49'
ZFLD085  DFHMDF POS=(15,12),LENGTH=0035,ATTRB=(PROT,ASKIP),            X
               COLOR=TURQUOISE,HILIGHT=OFF
         DFHMDF POS=(15,48),LENGTH=0,ATTRB=(ASKIP,NORM)
* 'TLPHN-AREA-CODE-PU49'
ZFLD086  DFHMDF POS=(15,51),LENGTH=0003,ATTRB=(PROT,ASKIP),            X
               COLOR=TURQUOISE,HILIGHT=OFF
         DFHMDF POS=(15,55),LENGTH=0,ATTRB=(ASKIP,NORM)
* 'TLPHN-XCHNG-ID-PU49'
ZFLD087  DFHMDF POS=(15,56),LENGTH=0003,ATTRB=(PROT,ASKIP),            X
               COLOR=TURQUOISE,HILIGHT=OFF
         DFHMDF POS=(15,60),LENGTH=0,ATTRB=(ASKIP,NORM)
* 'TLPHN-SEQ-ID-PU49'
ZFLD088  DFHMDF POS=(15,61),LENGTH=0004,ATTRB=(PROT,ASKIP),            X
               COLOR=TURQUOISE,HILIGHT=OFF
* 'TLPHN-XTNSN-ID-PU49'
ZFLD089  DFHMDF POS=(15,66),LENGTH=0004,ATTRB=(PROT,ASKIP),            X
               COLOR=TURQUOISE,HILIGHT=OFF
         DFHMDF POS=(15,71),LENGTH=0,ATTRB=(ASKIP,NORM)
* 'MAIL-CODE-PU49'
ZFLD090  DFHMDF POS=(15,73),LENGTH=0005,ATTRB=(PROT),COLOR=TURQUOISE,  X
               HILIGHT=OFF
         DFHMDF POS=(15,79),LENGTH=0,ATTRB=(ASKIP,NORM)
* 'ACTN-CODE-PU49'
ZFLD091  DFHMDF POS=(16,02),LENGTH=0001,ATTRB=(UNPROT),COLOR=DEFAULT,  X
               HILIGHT=OFF
         DFHMDF POS=(16,04),LENGTH=0,ATTRB=(ASKIP,NORM)
* 'BUYER-CODE-4072-PU49'
ZFLD092  DFHMDF POS=(16,06),LENGTH=0004,ATTRB=(PROT,ASKIP),            X
               COLOR=TURQUOISE,HILIGHT=OFF
         DFHMDF POS=(16,11),LENGTH=0,ATTRB=(ASKIP,NORM)
* 'BUYER-NAME-4072-PU49'
ZFLD093  DFHMDF POS=(16,12),LENGTH=0035,ATTRB=(PROT,ASKIP),            X
               COLOR=TURQUOISE,HILIGHT=OFF
         DFHMDF POS=(16,48),LENGTH=0,ATTRB=(ASKIP,NORM)
* 'TLPHN-AREA-CODE-PU49'
ZFLD094  DFHMDF POS=(16,51),LENGTH=0003,ATTRB=(PROT,ASKIP),            X
               COLOR=TURQUOISE,HILIGHT=OFF
         DFHMDF POS=(16,55),LENGTH=0,ATTRB=(ASKIP,NORM)
* 'TLPHN-XCHNG-ID-PU49'
ZFLD095  DFHMDF POS=(16,56),LENGTH=0003,ATTRB=(PROT,ASKIP),            X
               COLOR=TURQUOISE,HILIGHT=OFF
         DFHMDF POS=(16,60),LENGTH=0,ATTRB=(ASKIP,NORM)
* 'TLPHN-SEQ-ID-PU49'
ZFLD096  DFHMDF POS=(16,61),LENGTH=0004,ATTRB=(PROT,ASKIP),            X
               COLOR=TURQUOISE,HILIGHT=OFF
* 'TLPHN-XTNSN-ID-PU49'
ZFLD097  DFHMDF POS=(16,66),LENGTH=0004,ATTRB=(PROT,ASKIP),            X
               COLOR=TURQUOISE,HILIGHT=OFF
         DFHMDF POS=(16,71),LENGTH=0,ATTRB=(ASKIP,NORM)
* 'MAIL-CODE-PU49'
ZFLD098  DFHMDF POS=(16,73),LENGTH=0005,ATTRB=(PROT),COLOR=TURQUOISE,  X
               HILIGHT=OFF
         DFHMDF POS=(16,79),LENGTH=0,ATTRB=(ASKIP,NORM)
* 'ACTN-CODE-PU49'
ZFLD099  DFHMDF POS=(17,02),LENGTH=0001,ATTRB=(UNPROT),COLOR=DEFAULT,  X
               HILIGHT=OFF
         DFHMDF POS=(17,04),LENGTH=0,ATTRB=(ASKIP,NORM)
* 'BUYER-CODE-4072-PU49'
ZFLD100  DFHMDF POS=(17,06),LENGTH=0004,ATTRB=(PROT,ASKIP),            X
               COLOR=TURQUOISE,HILIGHT=OFF
         DFHMDF POS=(17,11),LENGTH=0,ATTRB=(ASKIP,NORM)
* 'BUYER-NAME-4072-PU49'
ZFLD101  DFHMDF POS=(17,12),LENGTH=0035,ATTRB=(PROT,ASKIP),            X
               COLOR=TURQUOISE,HILIGHT=OFF
         DFHMDF POS=(17,48),LENGTH=0,ATTRB=(ASKIP,NORM)
* 'TLPHN-AREA-CODE-PU49'
ZFLD102  DFHMDF POS=(17,51),LENGTH=0003,ATTRB=(PROT,ASKIP),            X
               COLOR=TURQUOISE,HILIGHT=OFF
         DFHMDF POS=(17,55),LENGTH=0,ATTRB=(ASKIP,NORM)
* 'TLPHN-XCHNG-ID-PU49'
ZFLD103  DFHMDF POS=(17,56),LENGTH=0003,ATTRB=(PROT,ASKIP),            X
               COLOR=TURQUOISE,HILIGHT=OFF
         DFHMDF POS=(17,60),LENGTH=0,ATTRB=(ASKIP,NORM)
* 'TLPHN-SEQ-ID-PU49'
ZFLD104  DFHMDF POS=(17,61),LENGTH=0004,ATTRB=(PROT,ASKIP),            X
               COLOR=TURQUOISE,HILIGHT=OFF
* 'TLPHN-XTNSN-ID-PU49'
ZFLD105  DFHMDF POS=(17,66),LENGTH=0004,ATTRB=(PROT,ASKIP),            X
               COLOR=TURQUOISE,HILIGHT=OFF
         DFHMDF POS=(17,71),LENGTH=0,ATTRB=(ASKIP,NORM)
* 'MAIL-CODE-PU49'
ZFLD106  DFHMDF POS=(17,73),LENGTH=0005,ATTRB=(PROT),COLOR=TURQUOISE,  X
               HILIGHT=OFF
         DFHMDF POS=(17,79),LENGTH=0,ATTRB=(ASKIP,NORM)
         DFHMDF POS=(20,01),LENGTH=0019,ATTRB=(PROT,ASKIP),            X
               INITIAL='REQUEST BUYER NAME:',COLOR=BLUE,HILIGHT=OFF
* 'RQST-BUYER-NAME-PU49'
ZFLD112  DFHMDF POS=(20,21),LENGTH=0035,ATTRB=(UNPROT),COLOR=DEFAULT,  X
               HILIGHT=UNDERLINE
         DFHMDF POS=(20,57),LENGTH=0,ATTRB=(ASKIP,NORM)
         DFHMDF POS=(20,59),LENGTH=0014,ATTRB=(PROT,ASKIP),            X
               INITIAL='OR BUYER CODE:',COLOR=BLUE,HILIGHT=OFF
* 'RQST-BUYER-CODE-PU49'
ZFLD107  DFHMDF POS=(20,74),LENGTH=0004,ATTRB=(UNPROT),COLOR=DEFAULT,  X
               HILIGHT=UNDERLINE
         DFHMDF POS=(20,79),LENGTH=0,ATTRB=(ASKIP,NORM)
* 'DCLINK-MESSAGE'
ZFLD108  DFHMDF POS=(21,80),LENGTH=0160,ATTRB=(PROT,BRT),              X
               COLOR=DEFAULT,HILIGHT=OFF
         DFHMDF POS=(24,01),LENGTH=0012,ATTRB=(PROT,ASKIP,NUM),        X
               INITIAL='NEXT SCREEN:',COLOR=BLUE,HILIGHT=OFF
* 'AGR-PASSED-ONE'
ZFLD109  DFHMDF POS=(24,14),LENGTH=0030,ATTRB=(UNPROT),COLOR=DEFAULT,  X
               HILIGHT=UNDERLINE
         DFHMDF POS=(24,45),LENGTH=0009,ATTRB=(PROT,ASKIP),            X
               INITIAL='RESPONSE:',COLOR=BLUE,HILIGHT=OFF
* 'AGR-MAP-RESPONSE'
ZFLD110  DFHMDF POS=(24,55),LENGTH=0008,ATTRB=(UNPROT),COLOR=DEFAULT,  X
               HILIGHT=UNDERLINE
         DFHMDF POS=(24,64),LENGTH=0,ATTRB=(ASKIP,NORM)
* 'ERROR-TEXT-SY00'
ZFLD111  DFHMDF POS=(24,65),LENGTH=0014,ATTRB=(PROT,DRK),              X
               COLOR=DEFAULT,HILIGHT=OFF
         DFHMSD TYPE=FINAL
         END
