FSYMM02  DFHMSD TYPE=MAP,LANG=COBOL,TERM=3270,MODE=INOUT,              X
               TIOAPFX=YES,MAPATTS=(COLOR,HILIGHT),                    X
               DSATTS=(COLOR,HILIGHT)
FSYMM02  DFHMDI SIZE=(24,80),LINE=1,COLUMN=1,CTRL=FREEKB,TIOAPFX=YES
         DFHMDF POS=(01,01),LENGTH=0007,ATTRB=(PROT),                  X
               INITIAL='FSYMM02',COLOR=BLUE,HILIGHT=OFF
* 'TRMNL-ID-SY00'
ZFLD002  DFHMDF POS=(01,10),LENGTH=0008,ATTRB=(PROT),COLOR=BLUE,       X
               HILIGHT=OFF
         DFHMDF POS=(01,19),LENGTH=0,ATTRB=(ASKIP,NORM)
* 'FULL-NAME-6001-SY00'
ZFLD003  DFHMDF POS=(01,23),LENGTH=0035,ATTRB=(PROT),COLOR=BLUE,       X
               HILIGHT=OFF
         DFHMDF POS=(01,59),LENGTH=0,ATTRB=(ASKIP,NORM)
* 'AGR-DATE'
ZFLD004  DFHMDF POS=(01,64),LENGTH=0008,ATTRB=(PROT),COLOR=BLUE,       X
               HILIGHT=OFF
* 'WORK-HH-MM-TIME-SY00'
ZFLD005  DFHMDF POS=(01,73),LENGTH=0005,ATTRB=(PROT),COLOR=BLUE,       X
               HILIGHT=OFF
* 'AM-PM-FLAG-SY00'
ZFLD006  DFHMDF POS=(01,79),LENGTH=0001,ATTRB=(PROT),COLOR=BLUE,       X
               HILIGHT=OFF
* 'AGR-USER-ID'
ZFLD007  DFHMDF POS=(02,01),LENGTH=0008,ATTRB=(PROT),COLOR=BLUE,       X
               HILIGHT=OFF
         DFHMDF POS=(02,10),LENGTH=0,ATTRB=(ASKIP,NORM)
* 'CURR-RSPNS-ID-SY00'
ZFLD008  DFHMDF POS=(02,21),LENGTH=0008,ATTRB=(PROT,BRT),              X
               COLOR=DEFAULT,HILIGHT=OFF
         DFHMDF POS=(02,30),LENGTH=0001,ATTRB=(PROT,BRT),INITIAL=':',  X
               COLOR=DEFAULT,HILIGHT=OFF
* 'AGR-FUNC-DESCRIPTION'
ZFLD009  DFHMDF POS=(02,32),LENGTH=0028,ATTRB=(PROT,BRT),              X
               COLOR=DEFAULT,HILIGHT=OFF
         DFHMDF POS=(02,61),LENGTH=0,ATTRB=(ASKIP,NORM)
         DFHMDF POS=(04,01),LENGTH=0063,ATTRB=(PROT),                  X
               INITIAL='MAKE SELECTION WITH PF KEY, BY MARKING ITEM, ORX
                DIRECT TRANSFER',COLOR=BLUE,HILIGHT=OFF
* 'AMR-SELECT'
ZFLD010  DFHMDF POS=(06,12),LENGTH=0001,ATTRB=(UNPROT,IC),             X
               COLOR=DEFAULT,HILIGHT=OFF
         DFHMDF POS=(06,14),LENGTH=0,ATTRB=(ASKIP,NORM)
* 'AMR-RESPONSE'
ZFLD011  DFHMDF POS=(06,15),LENGTH=0008,ATTRB=(PROT),COLOR=TURQUOISE,  X
               HILIGHT=OFF
         DFHMDF POS=(06,24),LENGTH=0,ATTRB=(ASKIP,NORM)
* 'AMR-KEY'
ZFLD012  DFHMDF POS=(06,27),LENGTH=0007,ATTRB=(PROT),COLOR=TURQUOISE,  X
               HILIGHT=OFF
         DFHMDF POS=(06,35),LENGTH=0,ATTRB=(ASKIP,NORM)
* 'AMR-DESCRIPTION'
ZFLD013  DFHMDF POS=(06,39),LENGTH=0028,ATTRB=(PROT),COLOR=TURQUOISE,  X
               HILIGHT=OFF
         DFHMDF POS=(06,68),LENGTH=0,ATTRB=(ASKIP,NORM)
* 'AMR-SELECT'
ZFLD014  DFHMDF POS=(07,12),LENGTH=0001,ATTRB=(UNPROT),COLOR=DEFAULT,  X
               HILIGHT=OFF
         DFHMDF POS=(07,14),LENGTH=0,ATTRB=(ASKIP,NORM)
* 'AMR-RESPONSE'
ZFLD015  DFHMDF POS=(07,15),LENGTH=0008,ATTRB=(PROT),COLOR=TURQUOISE,  X
               HILIGHT=OFF
         DFHMDF POS=(07,24),LENGTH=0,ATTRB=(ASKIP,NORM)
* 'AMR-KEY'
ZFLD016  DFHMDF POS=(07,27),LENGTH=0007,ATTRB=(PROT),COLOR=TURQUOISE,  X
               HILIGHT=OFF
         DFHMDF POS=(07,35),LENGTH=0,ATTRB=(ASKIP,NORM)
* 'AMR-DESCRIPTION'
ZFLD017  DFHMDF POS=(07,39),LENGTH=0028,ATTRB=(PROT),COLOR=TURQUOISE,  X
               HILIGHT=OFF
         DFHMDF POS=(07,68),LENGTH=0,ATTRB=(ASKIP,NORM)
* 'AMR-SELECT'
ZFLD018  DFHMDF POS=(08,12),LENGTH=0001,ATTRB=(UNPROT),COLOR=DEFAULT,  X
               HILIGHT=OFF
         DFHMDF POS=(08,14),LENGTH=0,ATTRB=(ASKIP,NORM)
* 'AMR-RESPONSE'
ZFLD019  DFHMDF POS=(08,15),LENGTH=0008,ATTRB=(PROT),COLOR=TURQUOISE,  X
               HILIGHT=OFF
         DFHMDF POS=(08,24),LENGTH=0,ATTRB=(ASKIP,NORM)
* 'AMR-KEY'
ZFLD020  DFHMDF POS=(08,27),LENGTH=0007,ATTRB=(PROT),COLOR=TURQUOISE,  X
               HILIGHT=OFF
         DFHMDF POS=(08,35),LENGTH=0,ATTRB=(ASKIP,NORM)
* 'AMR-DESCRIPTION'
ZFLD021  DFHMDF POS=(08,39),LENGTH=0028,ATTRB=(PROT),COLOR=TURQUOISE,  X
               HILIGHT=OFF
         DFHMDF POS=(08,68),LENGTH=0,ATTRB=(ASKIP,NORM)
* 'AMR-SELECT'
ZFLD022  DFHMDF POS=(09,12),LENGTH=0001,ATTRB=(UNPROT),COLOR=DEFAULT,  X
               HILIGHT=OFF
         DFHMDF POS=(09,14),LENGTH=0,ATTRB=(ASKIP,NORM)
* 'AMR-RESPONSE'
ZFLD023  DFHMDF POS=(09,15),LENGTH=0008,ATTRB=(PROT),COLOR=TURQUOISE,  X
               HILIGHT=OFF
         DFHMDF POS=(09,24),LENGTH=0,ATTRB=(ASKIP,NORM)
* 'AMR-KEY'
ZFLD024  DFHMDF POS=(09,27),LENGTH=0007,ATTRB=(PROT),COLOR=TURQUOISE,  X
               HILIGHT=OFF
         DFHMDF POS=(09,35),LENGTH=0,ATTRB=(ASKIP,NORM)
* 'AMR-DESCRIPTION'
ZFLD025  DFHMDF POS=(09,39),LENGTH=0028,ATTRB=(PROT),COLOR=TURQUOISE,  X
               HILIGHT=OFF
         DFHMDF POS=(09,68),LENGTH=0,ATTRB=(ASKIP,NORM)
* 'AMR-SELECT'
ZFLD026  DFHMDF POS=(10,12),LENGTH=0001,ATTRB=(UNPROT),COLOR=DEFAULT,  X
               HILIGHT=OFF
         DFHMDF POS=(10,14),LENGTH=0,ATTRB=(ASKIP,NORM)
* 'AMR-RESPONSE'
ZFLD027  DFHMDF POS=(10,15),LENGTH=0008,ATTRB=(PROT),COLOR=TURQUOISE,  X
               HILIGHT=OFF
         DFHMDF POS=(10,24),LENGTH=0,ATTRB=(ASKIP,NORM)
* 'AMR-KEY'
ZFLD028  DFHMDF POS=(10,27),LENGTH=0007,ATTRB=(PROT),COLOR=TURQUOISE,  X
               HILIGHT=OFF
         DFHMDF POS=(10,35),LENGTH=0,ATTRB=(ASKIP,NORM)
* 'AMR-DESCRIPTION'
ZFLD029  DFHMDF POS=(10,39),LENGTH=0028,ATTRB=(PROT),COLOR=TURQUOISE,  X
               HILIGHT=OFF
         DFHMDF POS=(10,68),LENGTH=0,ATTRB=(ASKIP,NORM)
* 'AMR-SELECT'
ZFLD030  DFHMDF POS=(11,12),LENGTH=0001,ATTRB=(UNPROT),COLOR=DEFAULT,  X
               HILIGHT=OFF
         DFHMDF POS=(11,14),LENGTH=0,ATTRB=(ASKIP,NORM)
* 'AMR-RESPONSE'
ZFLD031  DFHMDF POS=(11,15),LENGTH=0008,ATTRB=(PROT),COLOR=TURQUOISE,  X
               HILIGHT=OFF
         DFHMDF POS=(11,24),LENGTH=0,ATTRB=(ASKIP,NORM)
* 'AMR-KEY'
ZFLD032  DFHMDF POS=(11,27),LENGTH=0007,ATTRB=(PROT),COLOR=TURQUOISE,  X
               HILIGHT=OFF
         DFHMDF POS=(11,35),LENGTH=0,ATTRB=(ASKIP,NORM)
* 'AMR-DESCRIPTION'
ZFLD033  DFHMDF POS=(11,39),LENGTH=0028,ATTRB=(PROT),COLOR=TURQUOISE,  X
               HILIGHT=OFF
         DFHMDF POS=(11,68),LENGTH=0,ATTRB=(ASKIP,NORM)
* 'AMR-SELECT'
ZFLD034  DFHMDF POS=(12,12),LENGTH=0001,ATTRB=(UNPROT),COLOR=DEFAULT,  X
               HILIGHT=OFF
         DFHMDF POS=(12,14),LENGTH=0,ATTRB=(ASKIP,NORM)
* 'AMR-RESPONSE'
ZFLD035  DFHMDF POS=(12,15),LENGTH=0008,ATTRB=(PROT),COLOR=TURQUOISE,  X
               HILIGHT=OFF
         DFHMDF POS=(12,24),LENGTH=0,ATTRB=(ASKIP,NORM)
* 'AMR-KEY'
ZFLD036  DFHMDF POS=(12,27),LENGTH=0007,ATTRB=(PROT),COLOR=TURQUOISE,  X
               HILIGHT=OFF
         DFHMDF POS=(12,35),LENGTH=0,ATTRB=(ASKIP,NORM)
* 'AMR-DESCRIPTION'
ZFLD037  DFHMDF POS=(12,39),LENGTH=0028,ATTRB=(PROT),COLOR=TURQUOISE,  X
               HILIGHT=OFF
         DFHMDF POS=(12,68),LENGTH=0,ATTRB=(ASKIP,NORM)
* 'AMR-SELECT'
ZFLD038  DFHMDF POS=(13,12),LENGTH=0001,ATTRB=(UNPROT),COLOR=DEFAULT,  X
               HILIGHT=OFF
         DFHMDF POS=(13,14),LENGTH=0,ATTRB=(ASKIP,NORM)
* 'AMR-RESPONSE'
ZFLD039  DFHMDF POS=(13,15),LENGTH=0008,ATTRB=(PROT),COLOR=TURQUOISE,  X
               HILIGHT=OFF
         DFHMDF POS=(13,24),LENGTH=0,ATTRB=(ASKIP,NORM)
* 'AMR-KEY'
ZFLD040  DFHMDF POS=(13,27),LENGTH=0007,ATTRB=(PROT),COLOR=TURQUOISE,  X
               HILIGHT=OFF
         DFHMDF POS=(13,35),LENGTH=0,ATTRB=(ASKIP,NORM)
* 'AMR-DESCRIPTION'
ZFLD041  DFHMDF POS=(13,39),LENGTH=0028,ATTRB=(PROT),COLOR=TURQUOISE,  X
               HILIGHT=OFF
         DFHMDF POS=(13,68),LENGTH=0,ATTRB=(ASKIP,NORM)
* 'AMR-SELECT'
ZFLD042  DFHMDF POS=(14,12),LENGTH=0001,ATTRB=(UNPROT),COLOR=DEFAULT,  X
               HILIGHT=OFF
         DFHMDF POS=(14,14),LENGTH=0,ATTRB=(ASKIP,NORM)
* 'AMR-RESPONSE'
ZFLD043  DFHMDF POS=(14,15),LENGTH=0008,ATTRB=(PROT),COLOR=TURQUOISE,  X
               HILIGHT=OFF
         DFHMDF POS=(14,24),LENGTH=0,ATTRB=(ASKIP,NORM)
* 'AMR-KEY'
ZFLD044  DFHMDF POS=(14,27),LENGTH=0007,ATTRB=(PROT),COLOR=TURQUOISE,  X
               HILIGHT=OFF
         DFHMDF POS=(14,35),LENGTH=0,ATTRB=(ASKIP,NORM)
* 'AMR-DESCRIPTION'
ZFLD045  DFHMDF POS=(14,39),LENGTH=0028,ATTRB=(PROT),COLOR=TURQUOISE,  X
               HILIGHT=OFF
         DFHMDF POS=(14,68),LENGTH=0,ATTRB=(ASKIP,NORM)
* 'AMR-SELECT'
ZFLD046  DFHMDF POS=(15,12),LENGTH=0001,ATTRB=(UNPROT),COLOR=DEFAULT,  X
               HILIGHT=OFF
         DFHMDF POS=(15,14),LENGTH=0,ATTRB=(ASKIP,NORM)
* 'AMR-RESPONSE'
ZFLD047  DFHMDF POS=(15,15),LENGTH=0008,ATTRB=(PROT),COLOR=TURQUOISE,  X
               HILIGHT=OFF
         DFHMDF POS=(15,24),LENGTH=0,ATTRB=(ASKIP,NORM)
* 'AMR-KEY'
ZFLD048  DFHMDF POS=(15,27),LENGTH=0007,ATTRB=(PROT),COLOR=TURQUOISE,  X
               HILIGHT=OFF
         DFHMDF POS=(15,35),LENGTH=0,ATTRB=(ASKIP,NORM)
* 'AMR-DESCRIPTION'
ZFLD049  DFHMDF POS=(15,39),LENGTH=0028,ATTRB=(PROT),COLOR=TURQUOISE,  X
               HILIGHT=OFF
         DFHMDF POS=(15,68),LENGTH=0,ATTRB=(ASKIP,NORM)
* 'AMR-SELECT'
ZFLD050  DFHMDF POS=(16,12),LENGTH=0001,ATTRB=(UNPROT),COLOR=DEFAULT,  X
               HILIGHT=OFF
         DFHMDF POS=(16,14),LENGTH=0,ATTRB=(ASKIP,NORM)
* 'AMR-RESPONSE'
ZFLD051  DFHMDF POS=(16,15),LENGTH=0008,ATTRB=(PROT),COLOR=TURQUOISE,  X
               HILIGHT=OFF
         DFHMDF POS=(16,24),LENGTH=0,ATTRB=(ASKIP,NORM)
* 'AMR-KEY'
ZFLD052  DFHMDF POS=(16,27),LENGTH=0007,ATTRB=(PROT),COLOR=TURQUOISE,  X
               HILIGHT=OFF
         DFHMDF POS=(16,35),LENGTH=0,ATTRB=(ASKIP,NORM)
* 'AMR-DESCRIPTION'
ZFLD053  DFHMDF POS=(16,39),LENGTH=0028,ATTRB=(PROT),COLOR=TURQUOISE,  X
               HILIGHT=OFF
         DFHMDF POS=(16,68),LENGTH=0,ATTRB=(ASKIP,NORM)
* 'AMR-SELECT'
ZFLD054  DFHMDF POS=(17,12),LENGTH=0001,ATTRB=(UNPROT),COLOR=DEFAULT,  X
               HILIGHT=OFF
         DFHMDF POS=(17,14),LENGTH=0,ATTRB=(ASKIP,NORM)
* 'AMR-RESPONSE'
ZFLD055  DFHMDF POS=(17,15),LENGTH=0008,ATTRB=(PROT),COLOR=TURQUOISE,  X
               HILIGHT=OFF
         DFHMDF POS=(17,24),LENGTH=0,ATTRB=(ASKIP,NORM)
* 'AMR-KEY'
ZFLD056  DFHMDF POS=(17,27),LENGTH=0007,ATTRB=(PROT),COLOR=TURQUOISE,  X
               HILIGHT=OFF
         DFHMDF POS=(17,35),LENGTH=0,ATTRB=(ASKIP,NORM)
* 'AMR-DESCRIPTION'
ZFLD057  DFHMDF POS=(17,39),LENGTH=0028,ATTRB=(PROT),COLOR=TURQUOISE,  X
               HILIGHT=OFF
         DFHMDF POS=(17,68),LENGTH=0,ATTRB=(ASKIP,NORM)
* 'AMR-SELECT'
ZFLD058  DFHMDF POS=(18,12),LENGTH=0001,ATTRB=(UNPROT),COLOR=DEFAULT,  X
               HILIGHT=OFF
         DFHMDF POS=(18,14),LENGTH=0,ATTRB=(ASKIP,NORM)
* 'AMR-RESPONSE'
ZFLD059  DFHMDF POS=(18,15),LENGTH=0008,ATTRB=(PROT),COLOR=TURQUOISE,  X
               HILIGHT=OFF
         DFHMDF POS=(18,24),LENGTH=0,ATTRB=(ASKIP,NORM)
* 'AMR-KEY'
ZFLD060  DFHMDF POS=(18,27),LENGTH=0007,ATTRB=(PROT),COLOR=TURQUOISE,  X
               HILIGHT=OFF
         DFHMDF POS=(18,35),LENGTH=0,ATTRB=(ASKIP,NORM)
* 'AMR-DESCRIPTION'
ZFLD061  DFHMDF POS=(18,39),LENGTH=0028,ATTRB=(PROT),COLOR=TURQUOISE,  X
               HILIGHT=OFF
         DFHMDF POS=(18,68),LENGTH=0,ATTRB=(ASKIP,NORM)
* 'AMR-SELECT'
ZFLD062  DFHMDF POS=(19,12),LENGTH=0001,ATTRB=(UNPROT),COLOR=DEFAULT,  X
               HILIGHT=OFF
         DFHMDF POS=(19,14),LENGTH=0,ATTRB=(ASKIP,NORM)
* 'AMR-RESPONSE'
ZFLD063  DFHMDF POS=(19,15),LENGTH=0008,ATTRB=(PROT),COLOR=TURQUOISE,  X
               HILIGHT=OFF
         DFHMDF POS=(19,24),LENGTH=0,ATTRB=(ASKIP,NORM)
* 'AMR-KEY'
ZFLD064  DFHMDF POS=(19,27),LENGTH=0007,ATTRB=(PROT),COLOR=TURQUOISE,  X
               HILIGHT=OFF
         DFHMDF POS=(19,35),LENGTH=0,ATTRB=(ASKIP,NORM)
* 'AMR-DESCRIPTION'
ZFLD065  DFHMDF POS=(19,39),LENGTH=0028,ATTRB=(PROT),COLOR=TURQUOISE,  X
               HILIGHT=OFF
         DFHMDF POS=(19,68),LENGTH=0,ATTRB=(ASKIP,NORM)
* 'AMR-SELECT'
ZFLD066  DFHMDF POS=(20,12),LENGTH=0001,ATTRB=(UNPROT),COLOR=DEFAULT,  X
               HILIGHT=OFF
         DFHMDF POS=(20,14),LENGTH=0,ATTRB=(ASKIP,NORM)
* 'AMR-RESPONSE'
ZFLD067  DFHMDF POS=(20,15),LENGTH=0008,ATTRB=(PROT),COLOR=TURQUOISE,  X
               HILIGHT=OFF
         DFHMDF POS=(20,24),LENGTH=0,ATTRB=(ASKIP,NORM)
* 'AMR-KEY'
ZFLD068  DFHMDF POS=(20,27),LENGTH=0007,ATTRB=(PROT),COLOR=TURQUOISE,  X
               HILIGHT=OFF
         DFHMDF POS=(20,35),LENGTH=0,ATTRB=(ASKIP,NORM)
* 'AMR-DESCRIPTION'
ZFLD069  DFHMDF POS=(20,39),LENGTH=0028,ATTRB=(PROT),COLOR=TURQUOISE,  X
               HILIGHT=OFF
         DFHMDF POS=(20,68),LENGTH=0,ATTRB=(ASKIP,NORM)
* 'DCLINK-MESSAGE'
ZFLD070  DFHMDF POS=(21,80),LENGTH=0160,ATTRB=(PROT,BRT),              X
               COLOR=DEFAULT,HILIGHT=OFF
         DFHMDF POS=(24,01),LENGTH=0012,ATTRB=(PROT,NUM),              X
               INITIAL='NEXT SCREEN:',COLOR=BLUE,HILIGHT=OFF
* 'AGR-PASSED-ONE'
ZFLD071  DFHMDF POS=(24,14),LENGTH=0030,ATTRB=(UNPROT),COLOR=DEFAULT,  X
               HILIGHT=UNDERLINE
         DFHMDF POS=(24,45),LENGTH=0009,ATTRB=(ASKIP,PROT),            X
               INITIAL='RESPONSE:',COLOR=BLUE,HILIGHT=OFF
* 'AMR-RESPONSE-FIELD'
ZFLD072  DFHMDF POS=(24,55),LENGTH=0008,ATTRB=(UNPROT),COLOR=DEFAULT,  X
               HILIGHT=UNDERLINE
         DFHMDF POS=(24,64),LENGTH=0,ATTRB=(ASKIP,NORM)
* 'ERROR-TEXT-SY00'
ZFLD073  DFHMDF POS=(24,65),LENGTH=0014,ATTRB=(PROT,DRK),              X
               COLOR=DEFAULT,HILIGHT=OFF
         DFHMSD TYPE=FINAL
         END
