FSYMM00  DFHMSD TYPE=MAP,LANG=COBOL,TERM=3270,MODE=INOUT,              X
               TIOAPFX=YES,MAPATTS=(COLOR,HILIGHT),                    X
               DSATTS=(COLOR,HILIGHT)
FSYMM00  DFHMDI SIZE=(24,80),LINE=1,COLUMN=1,CTRL=FREEKB,TIOAPFX=YES
         DFHMDF POS=(01,01),LENGTH=0007,ATTRB=(PROT),                  X
               INITIAL='FSYMM00',COLOR=BLUE,HILIGHT=OFF
* 'TRMNL-ID-SY00'
ZFLD002  DFHMDF POS=(01,10),LENGTH=0008,ATTRB=(PROT),COLOR=BLUE,       X
               HILIGHT=OFF
         DFHMDF POS=(01,19),LENGTH=0,ATTRB=(ASKIP,NORM)
         DFHMDF POS=(01,22),LENGTH=0039,ATTRB=(PROT,BRT),              X
               INITIAL='FINANCIAL INFORMATION MANAGEMENT SERIES',      X
               COLOR=DEFAULT,HILIGHT=OFF
* 'AGR-DATE'
ZFLD003  DFHMDF POS=(01,64),LENGTH=0008,ATTRB=(PROT),COLOR=BLUE,       X
               HILIGHT=OFF
* 'WORK-HH-MM-TIME-SY00'
ZFLD004  DFHMDF POS=(01,73),LENGTH=0005,ATTRB=(PROT),COLOR=BLUE,       X
               HILIGHT=OFF
* 'AM-PM-FLAG-SY00'
ZFLD005  DFHMDF POS=(01,79),LENGTH=0001,ATTRB=(PROT),COLOR=BLUE,       X
               HILIGHT=OFF
* 'AGR-USER-ID'
ZFLD006  DFHMDF POS=(02,01),LENGTH=0008,ATTRB=(PROT),COLOR=BLUE,       X
               HILIGHT=OFF
         DFHMDF POS=(02,10),LENGTH=0,ATTRB=(ASKIP,NORM)
         DFHMDF POS=(02,36),LENGTH=0009,ATTRB=(PROT,BRT),              X
               INITIAL='MAIN MENU',COLOR=DEFAULT,HILIGHT=OFF
         DFHMDF POS=(04,01),LENGTH=0063,ATTRB=(PROT),                  X
               INITIAL='MAKE SELECTION WITH PF KEY, BY MARKING ITEM, ORX
                DIRECT TRANSFER',COLOR=BLUE,HILIGHT=OFF
* 'AMR-SELECT'
ZFLD007  DFHMDF POS=(06,12),LENGTH=0001,ATTRB=(UNPROT,IC),             X
               COLOR=DEFAULT,HILIGHT=OFF
         DFHMDF POS=(06,14),LENGTH=0,ATTRB=(ASKIP,NORM)
* 'AMR-RESPONSE'
ZFLD008  DFHMDF POS=(06,15),LENGTH=0008,ATTRB=(PROT),COLOR=TURQUOISE,  X
               HILIGHT=OFF
* 'AMR-KEY'
ZFLD009  DFHMDF POS=(06,24),LENGTH=0007,ATTRB=(PROT),COLOR=TURQUOISE,  X
               HILIGHT=OFF
         DFHMDF POS=(06,32),LENGTH=0,ATTRB=(ASKIP,NORM)
* 'AMR-DESCRIPTION'
ZFLD010  DFHMDF POS=(06,34),LENGTH=0028,ATTRB=(PROT),COLOR=TURQUOISE,  X
               HILIGHT=OFF
         DFHMDF POS=(06,63),LENGTH=0,ATTRB=(ASKIP,NORM)
* 'AMR-SELECT'
ZFLD011  DFHMDF POS=(07,12),LENGTH=0001,ATTRB=(UNPROT),COLOR=DEFAULT,  X
               HILIGHT=OFF
         DFHMDF POS=(07,14),LENGTH=0,ATTRB=(ASKIP,NORM)
* 'AMR-RESPONSE'
ZFLD012  DFHMDF POS=(07,15),LENGTH=0008,ATTRB=(PROT),COLOR=TURQUOISE,  X
               HILIGHT=OFF
* 'AMR-KEY'
ZFLD013  DFHMDF POS=(07,24),LENGTH=0007,ATTRB=(PROT),COLOR=TURQUOISE,  X
               HILIGHT=OFF
         DFHMDF POS=(07,32),LENGTH=0,ATTRB=(ASKIP,NORM)
* 'AMR-DESCRIPTION'
ZFLD014  DFHMDF POS=(07,34),LENGTH=0028,ATTRB=(PROT),COLOR=TURQUOISE,  X
               HILIGHT=OFF
         DFHMDF POS=(07,63),LENGTH=0,ATTRB=(ASKIP,NORM)
* 'AMR-SELECT'
ZFLD015  DFHMDF POS=(08,12),LENGTH=0001,ATTRB=(UNPROT),COLOR=DEFAULT,  X
               HILIGHT=OFF
         DFHMDF POS=(08,14),LENGTH=0,ATTRB=(ASKIP,NORM)
* 'AMR-RESPONSE'
ZFLD016  DFHMDF POS=(08,15),LENGTH=0008,ATTRB=(PROT),COLOR=TURQUOISE,  X
               HILIGHT=OFF
* 'AMR-KEY'
ZFLD017  DFHMDF POS=(08,24),LENGTH=0007,ATTRB=(PROT),COLOR=TURQUOISE,  X
               HILIGHT=OFF
         DFHMDF POS=(08,32),LENGTH=0,ATTRB=(ASKIP,NORM)
* 'AMR-DESCRIPTION'
ZFLD018  DFHMDF POS=(08,34),LENGTH=0028,ATTRB=(PROT),COLOR=TURQUOISE,  X
               HILIGHT=OFF
         DFHMDF POS=(08,63),LENGTH=0,ATTRB=(ASKIP,NORM)
* 'AMR-SELECT'
ZFLD019  DFHMDF POS=(09,12),LENGTH=0001,ATTRB=(UNPROT),COLOR=DEFAULT,  X
               HILIGHT=OFF
         DFHMDF POS=(09,14),LENGTH=0,ATTRB=(ASKIP,NORM)
* 'AMR-RESPONSE'
ZFLD020  DFHMDF POS=(09,15),LENGTH=0008,ATTRB=(PROT),COLOR=TURQUOISE,  X
               HILIGHT=OFF
* 'AMR-KEY'
ZFLD021  DFHMDF POS=(09,24),LENGTH=0007,ATTRB=(PROT),COLOR=TURQUOISE,  X
               HILIGHT=OFF
         DFHMDF POS=(09,32),LENGTH=0,ATTRB=(ASKIP,NORM)
* 'AMR-DESCRIPTION'
ZFLD022  DFHMDF POS=(09,34),LENGTH=0028,ATTRB=(PROT),COLOR=TURQUOISE,  X
               HILIGHT=OFF
         DFHMDF POS=(09,63),LENGTH=0,ATTRB=(ASKIP,NORM)
* 'AMR-SELECT'
ZFLD023  DFHMDF POS=(10,12),LENGTH=0001,ATTRB=(UNPROT),COLOR=DEFAULT,  X
               HILIGHT=OFF
         DFHMDF POS=(10,14),LENGTH=0,ATTRB=(ASKIP,NORM)
* 'AMR-RESPONSE'
ZFLD024  DFHMDF POS=(10,15),LENGTH=0008,ATTRB=(PROT),COLOR=TURQUOISE,  X
               HILIGHT=OFF
* 'AMR-KEY'
ZFLD025  DFHMDF POS=(10,24),LENGTH=0007,ATTRB=(PROT),COLOR=TURQUOISE,  X
               HILIGHT=OFF
         DFHMDF POS=(10,32),LENGTH=0,ATTRB=(ASKIP,NORM)
* 'AMR-DESCRIPTION'
ZFLD026  DFHMDF POS=(10,34),LENGTH=0028,ATTRB=(PROT),COLOR=TURQUOISE,  X
               HILIGHT=OFF
         DFHMDF POS=(10,63),LENGTH=0,ATTRB=(ASKIP,NORM)
* 'AMR-SELECT'
ZFLD027  DFHMDF POS=(11,12),LENGTH=0001,ATTRB=(UNPROT),COLOR=DEFAULT,  X
               HILIGHT=OFF
         DFHMDF POS=(11,14),LENGTH=0,ATTRB=(ASKIP,NORM)
* 'AMR-RESPONSE'
ZFLD028  DFHMDF POS=(11,15),LENGTH=0008,ATTRB=(PROT),COLOR=TURQUOISE,  X
               HILIGHT=OFF
* 'AMR-KEY'
ZFLD029  DFHMDF POS=(11,24),LENGTH=0007,ATTRB=(PROT),COLOR=TURQUOISE,  X
               HILIGHT=OFF
         DFHMDF POS=(11,32),LENGTH=0,ATTRB=(ASKIP,NORM)
* 'AMR-DESCRIPTION'
ZFLD030  DFHMDF POS=(11,34),LENGTH=0028,ATTRB=(PROT),COLOR=TURQUOISE,  X
               HILIGHT=OFF
         DFHMDF POS=(11,63),LENGTH=0,ATTRB=(ASKIP,NORM)
* 'AMR-SELECT'
ZFLD031  DFHMDF POS=(12,12),LENGTH=0001,ATTRB=(UNPROT),COLOR=DEFAULT,  X
               HILIGHT=OFF
         DFHMDF POS=(12,14),LENGTH=0,ATTRB=(ASKIP,NORM)
* 'AMR-RESPONSE'
ZFLD032  DFHMDF POS=(12,15),LENGTH=0008,ATTRB=(PROT),COLOR=TURQUOISE,  X
               HILIGHT=OFF
* 'AMR-KEY'
ZFLD033  DFHMDF POS=(12,24),LENGTH=0007,ATTRB=(PROT),COLOR=TURQUOISE,  X
               HILIGHT=OFF
         DFHMDF POS=(12,32),LENGTH=0,ATTRB=(ASKIP,NORM)
* 'AMR-DESCRIPTION'
ZFLD034  DFHMDF POS=(12,34),LENGTH=0028,ATTRB=(PROT),COLOR=TURQUOISE,  X
               HILIGHT=OFF
         DFHMDF POS=(12,63),LENGTH=0,ATTRB=(ASKIP,NORM)
* 'AMR-SELECT'
ZFLD035  DFHMDF POS=(13,12),LENGTH=0001,ATTRB=(UNPROT),COLOR=DEFAULT,  X
               HILIGHT=OFF
         DFHMDF POS=(13,14),LENGTH=0,ATTRB=(ASKIP,NORM)
* 'AMR-RESPONSE'
ZFLD036  DFHMDF POS=(13,15),LENGTH=0008,ATTRB=(PROT),COLOR=TURQUOISE,  X
               HILIGHT=OFF
* 'AMR-KEY'
ZFLD037  DFHMDF POS=(13,24),LENGTH=0007,ATTRB=(PROT),COLOR=TURQUOISE,  X
               HILIGHT=OFF
         DFHMDF POS=(13,32),LENGTH=0,ATTRB=(ASKIP,NORM)
* 'AMR-DESCRIPTION'
ZFLD038  DFHMDF POS=(13,34),LENGTH=0028,ATTRB=(PROT),COLOR=TURQUOISE,  X
               HILIGHT=OFF
         DFHMDF POS=(13,63),LENGTH=0,ATTRB=(ASKIP,NORM)
* 'AMR-SELECT'
ZFLD039  DFHMDF POS=(14,12),LENGTH=0001,ATTRB=(UNPROT),COLOR=DEFAULT,  X
               HILIGHT=OFF
         DFHMDF POS=(14,14),LENGTH=0,ATTRB=(ASKIP,NORM)
* 'AMR-RESPONSE'
ZFLD040  DFHMDF POS=(14,15),LENGTH=0008,ATTRB=(PROT),COLOR=TURQUOISE,  X
               HILIGHT=OFF
* 'AMR-KEY'
ZFLD041  DFHMDF POS=(14,24),LENGTH=0007,ATTRB=(PROT),COLOR=TURQUOISE,  X
               HILIGHT=OFF
         DFHMDF POS=(14,32),LENGTH=0,ATTRB=(ASKIP,NORM)
* 'AMR-DESCRIPTION'
ZFLD042  DFHMDF POS=(14,34),LENGTH=0028,ATTRB=(PROT),COLOR=TURQUOISE,  X
               HILIGHT=OFF
         DFHMDF POS=(14,63),LENGTH=0,ATTRB=(ASKIP,NORM)
* 'AMR-SELECT'
ZFLD043  DFHMDF POS=(15,12),LENGTH=0001,ATTRB=(UNPROT),COLOR=DEFAULT,  X
               HILIGHT=OFF
         DFHMDF POS=(15,14),LENGTH=0,ATTRB=(ASKIP,NORM)
* 'AMR-RESPONSE'
ZFLD044  DFHMDF POS=(15,15),LENGTH=0008,ATTRB=(PROT),COLOR=TURQUOISE,  X
               HILIGHT=OFF
* 'AMR-KEY'
ZFLD045  DFHMDF POS=(15,24),LENGTH=0007,ATTRB=(PROT),COLOR=TURQUOISE,  X
               HILIGHT=OFF
         DFHMDF POS=(15,32),LENGTH=0,ATTRB=(ASKIP,NORM)
* 'AMR-DESCRIPTION'
ZFLD046  DFHMDF POS=(15,34),LENGTH=0028,ATTRB=(PROT),COLOR=TURQUOISE,  X
               HILIGHT=OFF
         DFHMDF POS=(15,63),LENGTH=0,ATTRB=(ASKIP,NORM)
* 'AMR-SELECT'
ZFLD047  DFHMDF POS=(16,12),LENGTH=0001,ATTRB=(UNPROT),COLOR=DEFAULT,  X
               HILIGHT=OFF
         DFHMDF POS=(16,14),LENGTH=0,ATTRB=(ASKIP,NORM)
* 'AMR-RESPONSE'
ZFLD048  DFHMDF POS=(16,15),LENGTH=0008,ATTRB=(PROT),COLOR=TURQUOISE,  X
               HILIGHT=OFF
* 'AMR-KEY'
ZFLD049  DFHMDF POS=(16,24),LENGTH=0007,ATTRB=(PROT),COLOR=TURQUOISE,  X
               HILIGHT=OFF
         DFHMDF POS=(16,32),LENGTH=0,ATTRB=(ASKIP,NORM)
* 'AMR-DESCRIPTION'
ZFLD050  DFHMDF POS=(16,34),LENGTH=0028,ATTRB=(PROT),COLOR=TURQUOISE,  X
               HILIGHT=OFF
         DFHMDF POS=(16,63),LENGTH=0,ATTRB=(ASKIP,NORM)
* 'AMR-SELECT'
ZFLD051  DFHMDF POS=(17,12),LENGTH=0001,ATTRB=(UNPROT),COLOR=DEFAULT,  X
               HILIGHT=OFF
         DFHMDF POS=(17,14),LENGTH=0,ATTRB=(ASKIP,NORM)
* 'AMR-RESPONSE'
ZFLD052  DFHMDF POS=(17,15),LENGTH=0008,ATTRB=(PROT),COLOR=TURQUOISE,  X
               HILIGHT=OFF
* 'AMR-KEY'
ZFLD053  DFHMDF POS=(17,24),LENGTH=0007,ATTRB=(PROT),COLOR=TURQUOISE,  X
               HILIGHT=OFF
         DFHMDF POS=(17,32),LENGTH=0,ATTRB=(ASKIP,NORM)
* 'AMR-DESCRIPTION'
ZFLD054  DFHMDF POS=(17,34),LENGTH=0028,ATTRB=(PROT),COLOR=TURQUOISE,  X
               HILIGHT=OFF
         DFHMDF POS=(17,63),LENGTH=0,ATTRB=(ASKIP,NORM)
* 'AMR-SELECT'
ZFLD055  DFHMDF POS=(18,12),LENGTH=0001,ATTRB=(UNPROT),COLOR=DEFAULT,  X
               HILIGHT=OFF
         DFHMDF POS=(18,14),LENGTH=0,ATTRB=(ASKIP,NORM)
* 'AMR-RESPONSE'
ZFLD056  DFHMDF POS=(18,15),LENGTH=0008,ATTRB=(PROT),COLOR=TURQUOISE,  X
               HILIGHT=OFF
* 'AMR-KEY'
ZFLD057  DFHMDF POS=(18,24),LENGTH=0007,ATTRB=(PROT),COLOR=TURQUOISE,  X
               HILIGHT=OFF
         DFHMDF POS=(18,32),LENGTH=0,ATTRB=(ASKIP,NORM)
* 'AMR-DESCRIPTION'
ZFLD058  DFHMDF POS=(18,34),LENGTH=0028,ATTRB=(PROT),COLOR=TURQUOISE,  X
               HILIGHT=OFF
         DFHMDF POS=(18,63),LENGTH=0,ATTRB=(ASKIP,NORM)
* 'AMR-SELECT'
ZFLD059  DFHMDF POS=(19,12),LENGTH=0001,ATTRB=(UNPROT),COLOR=DEFAULT,  X
               HILIGHT=OFF
         DFHMDF POS=(19,14),LENGTH=0,ATTRB=(ASKIP,NORM)
* 'AMR-RESPONSE'
ZFLD060  DFHMDF POS=(19,15),LENGTH=0008,ATTRB=(PROT),COLOR=TURQUOISE,  X
               HILIGHT=OFF
* 'AMR-KEY'
ZFLD061  DFHMDF POS=(19,24),LENGTH=0007,ATTRB=(PROT),COLOR=TURQUOISE,  X
               HILIGHT=OFF
         DFHMDF POS=(19,32),LENGTH=0,ATTRB=(ASKIP,NORM)
* 'AMR-DESCRIPTION'
ZFLD062  DFHMDF POS=(19,34),LENGTH=0028,ATTRB=(PROT),COLOR=TURQUOISE,  X
               HILIGHT=OFF
         DFHMDF POS=(19,63),LENGTH=0,ATTRB=(ASKIP,NORM)
* 'AMR-SELECT'
ZFLD063  DFHMDF POS=(20,12),LENGTH=0001,ATTRB=(UNPROT),COLOR=DEFAULT,  X
               HILIGHT=OFF
         DFHMDF POS=(20,14),LENGTH=0,ATTRB=(ASKIP,NORM)
* 'AMR-RESPONSE'
ZFLD064  DFHMDF POS=(20,15),LENGTH=0008,ATTRB=(PROT),COLOR=TURQUOISE,  X
               HILIGHT=OFF
* 'AMR-KEY'
ZFLD065  DFHMDF POS=(20,24),LENGTH=0007,ATTRB=(PROT),COLOR=TURQUOISE,  X
               HILIGHT=OFF
         DFHMDF POS=(20,32),LENGTH=0,ATTRB=(ASKIP,NORM)
* 'AMR-DESCRIPTION'
ZFLD066  DFHMDF POS=(20,34),LENGTH=0028,ATTRB=(PROT),COLOR=TURQUOISE,  X
               HILIGHT=OFF
         DFHMDF POS=(20,63),LENGTH=0,ATTRB=(ASKIP,NORM)
* 'AMR-SELECT'
ZFLD067  DFHMDF POS=(21,12),LENGTH=0001,ATTRB=(UNPROT),COLOR=DEFAULT,  X
               HILIGHT=OFF
         DFHMDF POS=(21,14),LENGTH=0,ATTRB=(ASKIP,NORM)
* 'AMR-RESPONSE'
ZFLD068  DFHMDF POS=(21,15),LENGTH=0008,ATTRB=(PROT),COLOR=TURQUOISE,  X
               HILIGHT=OFF
* 'AMR-KEY'
ZFLD069  DFHMDF POS=(21,24),LENGTH=0001,ATTRB=(PROT),COLOR=TURQUOISE,  X
               HILIGHT=OFF
         DFHMDF POS=(21,26),LENGTH=0,ATTRB=(ASKIP,NORM)
* 'AMR-DESCRIPTION'
ZFLD070  DFHMDF POS=(21,34),LENGTH=0028,ATTRB=(PROT),COLOR=TURQUOISE,  X
               HILIGHT=OFF
         DFHMDF POS=(21,63),LENGTH=0,ATTRB=(ASKIP,NORM)
* 'DCLINK-MESSAGE'
ZFLD071  DFHMDF POS=(21,80),LENGTH=0160,ATTRB=(PROT,BRT),              X
               COLOR=DEFAULT,HILIGHT=OFF
         DFHMDF POS=(24,01),LENGTH=0012,ATTRB=(PROT,NUM),              X
               INITIAL='NEXT SCREEN:',COLOR=BLUE,HILIGHT=OFF
* 'AGR-PASSED-ONE'
ZFLD072  DFHMDF POS=(24,14),LENGTH=0030,ATTRB=(UNPROT),COLOR=DEFAULT,  X
               HILIGHT=UNDERLINE
         DFHMDF POS=(24,45),LENGTH=0009,ATTRB=(ASKIP,PROT),            X
               INITIAL='RESPONSE:',COLOR=BLUE,HILIGHT=OFF
* 'AMR-RESPONSE-FIELD'
ZFLD073  DFHMDF POS=(24,55),LENGTH=0008,ATTRB=(UNPROT),COLOR=DEFAULT,  X
               HILIGHT=UNDERLINE
         DFHMDF POS=(24,64),LENGTH=0,ATTRB=(ASKIP,NORM)
* 'ERROR-TEXT-SY00'
ZFLD074  DFHMDF POS=(24,65),LENGTH=0014,ATTRB=(PROT,DRK),              X
               COLOR=DEFAULT,HILIGHT=OFF
         DFHMSD TYPE=FINAL
         END
