FTAMI15  DFHMSD TYPE=MAP,LANG=COBOL,TERM=3270,MODE=INOUT,              X
               TIOAPFX=YES,MAPATTS=(COLOR,HILIGHT),                    X
               DSATTS=(COLOR,HILIGHT)
FTAMI15  DFHMDI SIZE=(24,80),LINE=1,COLUMN=1,CTRL=FREEKB,TIOAPFX=YES
         DFHMDF POS=(01,01),LENGTH=0007,ATTRB=(PROT,ASKIP),            X
               INITIAL='FTAMI15',COLOR=BLUE,HILIGHT=OFF
* 'TRMNL-ID-SY00'
ZFLD002  DFHMDF POS=(01,10),LENGTH=0008,ATTRB=(PROT),COLOR=BLUE,       X
               HILIGHT=OFF
         DFHMDF POS=(01,19),LENGTH=0,ATTRB=(ASKIP,NORM)
* 'FULL-NAME-6001-SY00'
ZFLD003  DFHMDF POS=(01,23),LENGTH=0035,ATTRB=(PROT),COLOR=BLUE,       X
               HILIGHT=OFF
         DFHMDF POS=(01,59),LENGTH=0,ATTRB=(ASKIP,NORM)
* 'AGR-DATE'
ZFLD004  DFHMDF POS=(01,64),LENGTH=0008,ATTRB=(PROT),COLOR=BLUE,       X
               HILIGHT=OFF
* 'WORK-HH-MM-TIME-SY00'
ZFLD005  DFHMDF POS=(01,73),LENGTH=0005,ATTRB=(PROT),COLOR=BLUE,       X
               HILIGHT=OFF
* 'AM-PM-FLAG-SY00'
ZFLD006  DFHMDF POS=(01,79),LENGTH=0001,ATTRB=(PROT),COLOR=BLUE,       X
               HILIGHT=OFF
* 'AGR-USER-ID'
ZFLD007  DFHMDF POS=(02,01),LENGTH=0008,ATTRB=(PROT),COLOR=BLUE,       X
               HILIGHT=OFF
         DFHMDF POS=(02,10),LENGTH=0,ATTRB=(ASKIP,NORM)
* 'CURR-RSPNS-ID-SY00'
ZFLD008  DFHMDF POS=(02,21),LENGTH=0008,ATTRB=(PROT,BRT),              X
               COLOR=DEFAULT,HILIGHT=OFF
         DFHMDF POS=(02,30),LENGTH=0001,ATTRB=(PROT,ASKIP,BRT),        X
               INITIAL=':',COLOR=DEFAULT,HILIGHT=OFF
* 'AGR-FUNC-DESCRIPTION'
ZFLD009  DFHMDF POS=(02,32),LENGTH=0028,ATTRB=(PROT,BRT),              X
               COLOR=DEFAULT,HILIGHT=OFF
         DFHMDF POS=(02,61),LENGTH=0,ATTRB=(ASKIP,NORM)
* 'PAGE-STATUS-CODE-SY00'
ZFLD010  DFHMDF POS=(02,64),LENGTH=0010,ATTRB=(PROT,BRT),              X
               COLOR=DEFAULT,HILIGHT=OFF
         DFHMDF POS=(02,75),LENGTH=0,ATTRB=(ASKIP,NORM)
         DFHMDF POS=(04,01),LENGTH=0010,ATTRB=(PROT,ASKIP),            X
               INITIAL='ACCOUNT #:',COLOR=BLUE,HILIGHT=OFF
* 'TRVL-ACCT-LAST-NINE-4400-TA15'
ZFLD011  DFHMDF POS=(04,12),LENGTH=0009,ATTRB=(UNPROT,IC),             X
               COLOR=DEFAULT,HILIGHT=UNDERLINE
         DFHMDF POS=(04,22),LENGTH=0,ATTRB=(ASKIP,NORM)
* 'NAME-KEY-6117-TA15'
ZFLD012  DFHMDF POS=(04,23),LENGTH=0035,ATTRB=(PROT),COLOR=TURQUOISE,  X
               HILIGHT=OFF
         DFHMDF POS=(04,59),LENGTH=0,ATTRB=(ASKIP,NORM)
* 'MSG-DESC-TA15'
ZFLD013  DFHMDF POS=(04,62),LENGTH=0017,ATTRB=(PROT),COLOR=TURQUOISE,  X
               HILIGHT=OFF
         DFHMDF POS=(04,80),LENGTH=0,ATTRB=(ASKIP,NORM)
         DFHMDF POS=(05,62),LENGTH=0009,ATTRB=(PROT,ASKIP),            X
               INITIAL='EMPLOYEE:',COLOR=BLUE,HILIGHT=OFF
* 'EMPLY-IND-4400-TA15'
ZFLD014  DFHMDF POS=(05,72),LENGTH=0001,ATTRB=(PROT),COLOR=TURQUOISE,  X
               HILIGHT=OFF
         DFHMDF POS=(05,74),LENGTH=0,ATTRB=(ASKIP,NORM)
         DFHMDF POS=(06,01),LENGTH=0070,ATTRB=(PROT,ASKIP),            X
               INITIAL='ACTION ADVANCE  ADVANCE     ADVANCE  ADVNC ADVAX
               NCE       EVENT   EVENT',COLOR=BLUE,HILIGHT=OFF
         DFHMDF POS=(07,01),LENGTH=0071,ATTRB=(PROT,ASKIP),            X
               INITIAL=' (AL)  NUMBER     DATE       AMOUNT  TYPE  STATX
               US        NUMBER  STATUS',COLOR=BLUE,HILIGHT=OFF
* 'ACTN-CODE-TA15'
ZFLD015  DFHMDF POS=(08,03),LENGTH=0001,ATTRB=(UNPROT),COLOR=DEFAULT,  X
               HILIGHT=OFF
         DFHMDF POS=(08,05),LENGTH=0,ATTRB=(ASKIP,NORM)
* 'ADVNC-NMBR-4404-TA15'
ZFLD016  DFHMDF POS=(08,08),LENGTH=0008,ATTRB=(PROT),COLOR=TURQUOISE,  X
               HILIGHT=OFF
* 'ADVNC-DATE-4404-TA15'
ZFLD017  DFHMDF POS=(08,17),LENGTH=0008,ATTRB=(PROT),COLOR=TURQUOISE,  X
               HILIGHT=OFF
* 'ADVNC-AMT-4404-TA15'
ZFLD018  DFHMDF POS=(08,26),LENGTH=0011,ATTRB=(PROT),COLOR=TURQUOISE,  X
               HILIGHT=OFF
* 'ADVNC-TYPE-4404-TA15'
ZFLD019  DFHMDF POS=(08,38),LENGTH=0004,ATTRB=(PROT),COLOR=TURQUOISE,  X
               HILIGHT=OFF
         DFHMDF POS=(08,43),LENGTH=0,ATTRB=(ASKIP,NORM)
* 'ADVNC-STATUS-4404-TA15'
ZFLD020  DFHMDF POS=(08,44),LENGTH=0001,ATTRB=(PROT),COLOR=TURQUOISE,  X
               HILIGHT=OFF
* 'STATUS-DESC-TA15'
ZFLD021  DFHMDF POS=(08,46),LENGTH=0010,ATTRB=(PROT),COLOR=TURQUOISE,  X
               HILIGHT=OFF
* 'EVENT-NMBR-4401-TA15'
ZFLD022  DFHMDF POS=(08,57),LENGTH=0008,ATTRB=(PROT),COLOR=TURQUOISE,  X
               HILIGHT=OFF
* 'EVENT-STATUS-TA15'
ZFLD023  DFHMDF POS=(08,66),LENGTH=0010,ATTRB=(PROT),COLOR=TURQUOISE,  X
               HILIGHT=OFF
         DFHMDF POS=(08,77),LENGTH=0,ATTRB=(ASKIP,NORM)
* 'ACTN-CODE-TA15'
ZFLD024  DFHMDF POS=(09,03),LENGTH=0001,ATTRB=(UNPROT),COLOR=DEFAULT,  X
               HILIGHT=OFF
         DFHMDF POS=(09,05),LENGTH=0,ATTRB=(ASKIP,NORM)
* 'ADVNC-NMBR-4404-TA15'
ZFLD025  DFHMDF POS=(09,08),LENGTH=0008,ATTRB=(PROT),COLOR=TURQUOISE,  X
               HILIGHT=OFF
* 'ADVNC-DATE-4404-TA15'
ZFLD026  DFHMDF POS=(09,17),LENGTH=0008,ATTRB=(PROT),COLOR=TURQUOISE,  X
               HILIGHT=OFF
* 'ADVNC-AMT-4404-TA15'
ZFLD027  DFHMDF POS=(09,26),LENGTH=0011,ATTRB=(PROT),COLOR=TURQUOISE,  X
               HILIGHT=OFF
* 'ADVNC-TYPE-4404-TA15'
ZFLD028  DFHMDF POS=(09,38),LENGTH=0004,ATTRB=(PROT),COLOR=TURQUOISE,  X
               HILIGHT=OFF
         DFHMDF POS=(09,43),LENGTH=0,ATTRB=(ASKIP,NORM)
* 'ADVNC-STATUS-4404-TA15'
ZFLD029  DFHMDF POS=(09,44),LENGTH=0001,ATTRB=(PROT),COLOR=TURQUOISE,  X
               HILIGHT=OFF
* 'STATUS-DESC-TA15'
ZFLD030  DFHMDF POS=(09,46),LENGTH=0010,ATTRB=(PROT),COLOR=TURQUOISE,  X
               HILIGHT=OFF
* 'EVENT-NMBR-4401-TA15'
ZFLD031  DFHMDF POS=(09,57),LENGTH=0008,ATTRB=(PROT),COLOR=TURQUOISE,  X
               HILIGHT=OFF
* 'EVENT-STATUS-TA15'
ZFLD032  DFHMDF POS=(09,66),LENGTH=0010,ATTRB=(PROT),COLOR=TURQUOISE,  X
               HILIGHT=OFF
         DFHMDF POS=(09,77),LENGTH=0,ATTRB=(ASKIP,NORM)
* 'ACTN-CODE-TA15'
ZFLD033  DFHMDF POS=(10,03),LENGTH=0001,ATTRB=(UNPROT),COLOR=DEFAULT,  X
               HILIGHT=OFF
         DFHMDF POS=(10,05),LENGTH=0,ATTRB=(ASKIP,NORM)
* 'ADVNC-NMBR-4404-TA15'
ZFLD034  DFHMDF POS=(10,08),LENGTH=0008,ATTRB=(PROT),COLOR=TURQUOISE,  X
               HILIGHT=OFF
* 'ADVNC-DATE-4404-TA15'
ZFLD035  DFHMDF POS=(10,17),LENGTH=0008,ATTRB=(PROT),COLOR=TURQUOISE,  X
               HILIGHT=OFF
* 'ADVNC-AMT-4404-TA15'
ZFLD036  DFHMDF POS=(10,26),LENGTH=0011,ATTRB=(PROT),COLOR=TURQUOISE,  X
               HILIGHT=OFF
* 'ADVNC-TYPE-4404-TA15'
ZFLD037  DFHMDF POS=(10,38),LENGTH=0004,ATTRB=(PROT),COLOR=TURQUOISE,  X
               HILIGHT=OFF
         DFHMDF POS=(10,43),LENGTH=0,ATTRB=(ASKIP,NORM)
* 'ADVNC-STATUS-4404-TA15'
ZFLD038  DFHMDF POS=(10,44),LENGTH=0001,ATTRB=(PROT),COLOR=TURQUOISE,  X
               HILIGHT=OFF
* 'STATUS-DESC-TA15'
ZFLD039  DFHMDF POS=(10,46),LENGTH=0010,ATTRB=(PROT),COLOR=TURQUOISE,  X
               HILIGHT=OFF
* 'EVENT-NMBR-4401-TA15'
ZFLD040  DFHMDF POS=(10,57),LENGTH=0008,ATTRB=(PROT),COLOR=TURQUOISE,  X
               HILIGHT=OFF
* 'EVENT-STATUS-TA15'
ZFLD041  DFHMDF POS=(10,66),LENGTH=0010,ATTRB=(PROT),COLOR=TURQUOISE,  X
               HILIGHT=OFF
         DFHMDF POS=(10,77),LENGTH=0,ATTRB=(ASKIP,NORM)
* 'ACTN-CODE-TA15'
ZFLD042  DFHMDF POS=(11,03),LENGTH=0001,ATTRB=(UNPROT),COLOR=DEFAULT,  X
               HILIGHT=OFF
         DFHMDF POS=(11,05),LENGTH=0,ATTRB=(ASKIP,NORM)
* 'ADVNC-NMBR-4404-TA15'
ZFLD043  DFHMDF POS=(11,08),LENGTH=0008,ATTRB=(PROT),COLOR=TURQUOISE,  X
               HILIGHT=OFF
* 'ADVNC-DATE-4404-TA15'
ZFLD044  DFHMDF POS=(11,17),LENGTH=0008,ATTRB=(PROT),COLOR=TURQUOISE,  X
               HILIGHT=OFF
* 'ADVNC-AMT-4404-TA15'
ZFLD045  DFHMDF POS=(11,26),LENGTH=0011,ATTRB=(PROT),COLOR=TURQUOISE,  X
               HILIGHT=OFF
* 'ADVNC-TYPE-4404-TA15'
ZFLD046  DFHMDF POS=(11,38),LENGTH=0004,ATTRB=(PROT),COLOR=TURQUOISE,  X
               HILIGHT=OFF
         DFHMDF POS=(11,43),LENGTH=0,ATTRB=(ASKIP,NORM)
* 'ADVNC-STATUS-4404-TA15'
ZFLD047  DFHMDF POS=(11,44),LENGTH=0001,ATTRB=(PROT),COLOR=TURQUOISE,  X
               HILIGHT=OFF
* 'STATUS-DESC-TA15'
ZFLD048  DFHMDF POS=(11,46),LENGTH=0010,ATTRB=(PROT),COLOR=TURQUOISE,  X
               HILIGHT=OFF
* 'EVENT-NMBR-4401-TA15'
ZFLD049  DFHMDF POS=(11,57),LENGTH=0008,ATTRB=(PROT),COLOR=TURQUOISE,  X
               HILIGHT=OFF
* 'EVENT-STATUS-TA15'
ZFLD050  DFHMDF POS=(11,66),LENGTH=0010,ATTRB=(PROT),COLOR=TURQUOISE,  X
               HILIGHT=OFF
         DFHMDF POS=(11,77),LENGTH=0,ATTRB=(ASKIP,NORM)
* 'ACTN-CODE-TA15'
ZFLD051  DFHMDF POS=(12,03),LENGTH=0001,ATTRB=(UNPROT),COLOR=DEFAULT,  X
               HILIGHT=OFF
         DFHMDF POS=(12,05),LENGTH=0,ATTRB=(ASKIP,NORM)
* 'ADVNC-NMBR-4404-TA15'
ZFLD052  DFHMDF POS=(12,08),LENGTH=0008,ATTRB=(PROT),COLOR=TURQUOISE,  X
               HILIGHT=OFF
* 'ADVNC-DATE-4404-TA15'
ZFLD053  DFHMDF POS=(12,17),LENGTH=0008,ATTRB=(PROT),COLOR=TURQUOISE,  X
               HILIGHT=OFF
* 'ADVNC-AMT-4404-TA15'
ZFLD054  DFHMDF POS=(12,26),LENGTH=0011,ATTRB=(PROT),COLOR=TURQUOISE,  X
               HILIGHT=OFF
* 'ADVNC-TYPE-4404-TA15'
ZFLD055  DFHMDF POS=(12,38),LENGTH=0004,ATTRB=(PROT),COLOR=TURQUOISE,  X
               HILIGHT=OFF
         DFHMDF POS=(12,43),LENGTH=0,ATTRB=(ASKIP,NORM)
* 'ADVNC-STATUS-4404-TA15'
ZFLD056  DFHMDF POS=(12,44),LENGTH=0001,ATTRB=(PROT),COLOR=TURQUOISE,  X
               HILIGHT=OFF
* 'STATUS-DESC-TA15'
ZFLD057  DFHMDF POS=(12,46),LENGTH=0010,ATTRB=(PROT),COLOR=TURQUOISE,  X
               HILIGHT=OFF
* 'EVENT-NMBR-4401-TA15'
ZFLD058  DFHMDF POS=(12,57),LENGTH=0008,ATTRB=(PROT),COLOR=TURQUOISE,  X
               HILIGHT=OFF
* 'EVENT-STATUS-TA15'
ZFLD059  DFHMDF POS=(12,66),LENGTH=0010,ATTRB=(PROT),COLOR=TURQUOISE,  X
               HILIGHT=OFF
         DFHMDF POS=(12,77),LENGTH=0,ATTRB=(ASKIP,NORM)
* 'ACTN-CODE-TA15'
ZFLD060  DFHMDF POS=(13,03),LENGTH=0001,ATTRB=(UNPROT),COLOR=DEFAULT,  X
               HILIGHT=OFF
         DFHMDF POS=(13,05),LENGTH=0,ATTRB=(ASKIP,NORM)
* 'ADVNC-NMBR-4404-TA15'
ZFLD061  DFHMDF POS=(13,08),LENGTH=0008,ATTRB=(PROT),COLOR=TURQUOISE,  X
               HILIGHT=OFF
* 'ADVNC-DATE-4404-TA15'
ZFLD062  DFHMDF POS=(13,17),LENGTH=0008,ATTRB=(PROT),COLOR=TURQUOISE,  X
               HILIGHT=OFF
* 'ADVNC-AMT-4404-TA15'
ZFLD063  DFHMDF POS=(13,26),LENGTH=0011,ATTRB=(PROT),COLOR=TURQUOISE,  X
               HILIGHT=OFF
* 'ADVNC-TYPE-4404-TA15'
ZFLD064  DFHMDF POS=(13,38),LENGTH=0004,ATTRB=(PROT),COLOR=TURQUOISE,  X
               HILIGHT=OFF
         DFHMDF POS=(13,43),LENGTH=0,ATTRB=(ASKIP,NORM)
* 'ADVNC-STATUS-4404-TA15'
ZFLD065  DFHMDF POS=(13,44),LENGTH=0001,ATTRB=(PROT),COLOR=TURQUOISE,  X
               HILIGHT=OFF
* 'STATUS-DESC-TA15'
ZFLD066  DFHMDF POS=(13,46),LENGTH=0010,ATTRB=(PROT),COLOR=TURQUOISE,  X
               HILIGHT=OFF
* 'EVENT-NMBR-4401-TA15'
ZFLD067  DFHMDF POS=(13,57),LENGTH=0008,ATTRB=(PROT),COLOR=TURQUOISE,  X
               HILIGHT=OFF
* 'EVENT-STATUS-TA15'
ZFLD068  DFHMDF POS=(13,66),LENGTH=0010,ATTRB=(PROT),COLOR=TURQUOISE,  X
               HILIGHT=OFF
         DFHMDF POS=(13,77),LENGTH=0,ATTRB=(ASKIP,NORM)
* 'ACTN-CODE-TA15'
ZFLD069  DFHMDF POS=(14,03),LENGTH=0001,ATTRB=(UNPROT),COLOR=DEFAULT,  X
               HILIGHT=OFF
         DFHMDF POS=(14,05),LENGTH=0,ATTRB=(ASKIP,NORM)
* 'ADVNC-NMBR-4404-TA15'
ZFLD070  DFHMDF POS=(14,08),LENGTH=0008,ATTRB=(PROT),COLOR=TURQUOISE,  X
               HILIGHT=OFF
* 'ADVNC-DATE-4404-TA15'
ZFLD071  DFHMDF POS=(14,17),LENGTH=0008,ATTRB=(PROT),COLOR=TURQUOISE,  X
               HILIGHT=OFF
* 'ADVNC-AMT-4404-TA15'
ZFLD072  DFHMDF POS=(14,26),LENGTH=0011,ATTRB=(PROT),COLOR=TURQUOISE,  X
               HILIGHT=OFF
* 'ADVNC-TYPE-4404-TA15'
ZFLD073  DFHMDF POS=(14,38),LENGTH=0004,ATTRB=(PROT),COLOR=TURQUOISE,  X
               HILIGHT=OFF
         DFHMDF POS=(14,43),LENGTH=0,ATTRB=(ASKIP,NORM)
* 'ADVNC-STATUS-4404-TA15'
ZFLD074  DFHMDF POS=(14,44),LENGTH=0001,ATTRB=(PROT),COLOR=TURQUOISE,  X
               HILIGHT=OFF
* 'STATUS-DESC-TA15'
ZFLD075  DFHMDF POS=(14,46),LENGTH=0010,ATTRB=(PROT),COLOR=TURQUOISE,  X
               HILIGHT=OFF
* 'EVENT-NMBR-4401-TA15'
ZFLD076  DFHMDF POS=(14,57),LENGTH=0008,ATTRB=(PROT),COLOR=TURQUOISE,  X
               HILIGHT=OFF
* 'EVENT-STATUS-TA15'
ZFLD077  DFHMDF POS=(14,66),LENGTH=0010,ATTRB=(PROT),COLOR=TURQUOISE,  X
               HILIGHT=OFF
         DFHMDF POS=(14,77),LENGTH=0,ATTRB=(ASKIP,NORM)
* 'ACTN-CODE-TA15'
ZFLD078  DFHMDF POS=(15,03),LENGTH=0001,ATTRB=(UNPROT),COLOR=DEFAULT,  X
               HILIGHT=OFF
         DFHMDF POS=(15,05),LENGTH=0,ATTRB=(ASKIP,NORM)
* 'ADVNC-NMBR-4404-TA15'
ZFLD079  DFHMDF POS=(15,08),LENGTH=0008,ATTRB=(PROT),COLOR=TURQUOISE,  X
               HILIGHT=OFF
* 'ADVNC-DATE-4404-TA15'
ZFLD080  DFHMDF POS=(15,17),LENGTH=0008,ATTRB=(PROT),COLOR=TURQUOISE,  X
               HILIGHT=OFF
* 'ADVNC-AMT-4404-TA15'
ZFLD081  DFHMDF POS=(15,26),LENGTH=0011,ATTRB=(PROT),COLOR=TURQUOISE,  X
               HILIGHT=OFF
* 'ADVNC-TYPE-4404-TA15'
ZFLD082  DFHMDF POS=(15,38),LENGTH=0004,ATTRB=(PROT),COLOR=TURQUOISE,  X
               HILIGHT=OFF
         DFHMDF POS=(15,43),LENGTH=0,ATTRB=(ASKIP,NORM)
* 'ADVNC-STATUS-4404-TA15'
ZFLD083  DFHMDF POS=(15,44),LENGTH=0001,ATTRB=(PROT),COLOR=TURQUOISE,  X
               HILIGHT=OFF
* 'STATUS-DESC-TA15'
ZFLD084  DFHMDF POS=(15,46),LENGTH=0010,ATTRB=(PROT),COLOR=TURQUOISE,  X
               HILIGHT=OFF
* 'EVENT-NMBR-4401-TA15'
ZFLD085  DFHMDF POS=(15,57),LENGTH=0008,ATTRB=(PROT),COLOR=TURQUOISE,  X
               HILIGHT=OFF
* 'EVENT-STATUS-TA15'
ZFLD086  DFHMDF POS=(15,66),LENGTH=0010,ATTRB=(PROT),COLOR=TURQUOISE,  X
               HILIGHT=OFF
         DFHMDF POS=(15,77),LENGTH=0,ATTRB=(ASKIP,NORM)
* 'ACTN-CODE-TA15'
ZFLD087  DFHMDF POS=(16,03),LENGTH=0001,ATTRB=(UNPROT),COLOR=DEFAULT,  X
               HILIGHT=OFF
         DFHMDF POS=(16,05),LENGTH=0,ATTRB=(ASKIP,NORM)
* 'ADVNC-NMBR-4404-TA15'
ZFLD088  DFHMDF POS=(16,08),LENGTH=0008,ATTRB=(PROT),COLOR=TURQUOISE,  X
               HILIGHT=OFF
* 'ADVNC-DATE-4404-TA15'
ZFLD089  DFHMDF POS=(16,17),LENGTH=0008,ATTRB=(PROT),COLOR=TURQUOISE,  X
               HILIGHT=OFF
* 'ADVNC-AMT-4404-TA15'
ZFLD090  DFHMDF POS=(16,26),LENGTH=0011,ATTRB=(PROT),COLOR=TURQUOISE,  X
               HILIGHT=OFF
* 'ADVNC-TYPE-4404-TA15'
ZFLD091  DFHMDF POS=(16,38),LENGTH=0004,ATTRB=(PROT),COLOR=TURQUOISE,  X
               HILIGHT=OFF
         DFHMDF POS=(16,43),LENGTH=0,ATTRB=(ASKIP,NORM)
* 'ADVNC-STATUS-4404-TA15'
ZFLD092  DFHMDF POS=(16,44),LENGTH=0001,ATTRB=(PROT),COLOR=TURQUOISE,  X
               HILIGHT=OFF
* 'STATUS-DESC-TA15'
ZFLD093  DFHMDF POS=(16,46),LENGTH=0010,ATTRB=(PROT),COLOR=TURQUOISE,  X
               HILIGHT=OFF
* 'EVENT-NMBR-4401-TA15'
ZFLD094  DFHMDF POS=(16,57),LENGTH=0008,ATTRB=(PROT),COLOR=TURQUOISE,  X
               HILIGHT=OFF
* 'EVENT-STATUS-TA15'
ZFLD095  DFHMDF POS=(16,66),LENGTH=0010,ATTRB=(PROT),COLOR=TURQUOISE,  X
               HILIGHT=OFF
         DFHMDF POS=(16,77),LENGTH=0,ATTRB=(ASKIP,NORM)
* 'ACTN-CODE-TA15'
ZFLD096  DFHMDF POS=(17,03),LENGTH=0001,ATTRB=(UNPROT),COLOR=DEFAULT,  X
               HILIGHT=OFF
         DFHMDF POS=(17,05),LENGTH=0,ATTRB=(ASKIP,NORM)
* 'ADVNC-NMBR-4404-TA15'
ZFLD097  DFHMDF POS=(17,08),LENGTH=0008,ATTRB=(PROT),COLOR=TURQUOISE,  X
               HILIGHT=OFF
* 'ADVNC-DATE-4404-TA15'
ZFLD098  DFHMDF POS=(17,17),LENGTH=0008,ATTRB=(PROT),COLOR=TURQUOISE,  X
               HILIGHT=OFF
* 'ADVNC-AMT-4404-TA15'
ZFLD099  DFHMDF POS=(17,26),LENGTH=0011,ATTRB=(PROT),COLOR=TURQUOISE,  X
               HILIGHT=OFF
* 'ADVNC-TYPE-4404-TA15'
ZFLD100  DFHMDF POS=(17,38),LENGTH=0004,ATTRB=(PROT),COLOR=TURQUOISE,  X
               HILIGHT=OFF
         DFHMDF POS=(17,43),LENGTH=0,ATTRB=(ASKIP,NORM)
* 'ADVNC-STATUS-4404-TA15'
ZFLD101  DFHMDF POS=(17,44),LENGTH=0001,ATTRB=(PROT),COLOR=TURQUOISE,  X
               HILIGHT=OFF
* 'STATUS-DESC-TA15'
ZFLD102  DFHMDF POS=(17,46),LENGTH=0010,ATTRB=(PROT),COLOR=TURQUOISE,  X
               HILIGHT=OFF
* 'EVENT-NMBR-4401-TA15'
ZFLD103  DFHMDF POS=(17,57),LENGTH=0008,ATTRB=(PROT),COLOR=TURQUOISE,  X
               HILIGHT=OFF
* 'EVENT-STATUS-TA15'
ZFLD104  DFHMDF POS=(17,66),LENGTH=0010,ATTRB=(PROT),COLOR=TURQUOISE,  X
               HILIGHT=OFF
         DFHMDF POS=(17,77),LENGTH=0,ATTRB=(ASKIP,NORM)
* 'ACTN-CODE-TA15'
ZFLD105  DFHMDF POS=(18,03),LENGTH=0001,ATTRB=(UNPROT),COLOR=DEFAULT,  X
               HILIGHT=OFF
         DFHMDF POS=(18,05),LENGTH=0,ATTRB=(ASKIP,NORM)
* 'ADVNC-NMBR-4404-TA15'
ZFLD106  DFHMDF POS=(18,08),LENGTH=0008,ATTRB=(PROT),COLOR=TURQUOISE,  X
               HILIGHT=OFF
* 'ADVNC-DATE-4404-TA15'
ZFLD107  DFHMDF POS=(18,17),LENGTH=0008,ATTRB=(PROT),COLOR=TURQUOISE,  X
               HILIGHT=OFF
* 'ADVNC-AMT-4404-TA15'
ZFLD108  DFHMDF POS=(18,26),LENGTH=0011,ATTRB=(PROT),COLOR=TURQUOISE,  X
               HILIGHT=OFF
* 'ADVNC-TYPE-4404-TA15'
ZFLD109  DFHMDF POS=(18,38),LENGTH=0004,ATTRB=(PROT),COLOR=TURQUOISE,  X
               HILIGHT=OFF
         DFHMDF POS=(18,43),LENGTH=0,ATTRB=(ASKIP,NORM)
* 'ADVNC-STATUS-4404-TA15'
ZFLD110  DFHMDF POS=(18,44),LENGTH=0001,ATTRB=(PROT),COLOR=TURQUOISE,  X
               HILIGHT=OFF
* 'STATUS-DESC-TA15'
ZFLD111  DFHMDF POS=(18,46),LENGTH=0010,ATTRB=(PROT),COLOR=TURQUOISE,  X
               HILIGHT=OFF
* 'EVENT-NMBR-4401-TA15'
ZFLD112  DFHMDF POS=(18,57),LENGTH=0008,ATTRB=(PROT),COLOR=TURQUOISE,  X
               HILIGHT=OFF
* 'EVENT-STATUS-TA15'
ZFLD113  DFHMDF POS=(18,66),LENGTH=0010,ATTRB=(PROT),COLOR=TURQUOISE,  X
               HILIGHT=OFF
         DFHMDF POS=(18,77),LENGTH=0,ATTRB=(ASKIP,NORM)
         DFHMDF POS=(20,01),LENGTH=0023,ATTRB=(PROT,ASKIP),            X
               INITIAL='ADVANCE NUMBER REQUEST:',COLOR=BLUE,           X
               HILIGHT=OFF
* 'RQST-ADVNC-NMBR-TA15'
ZFLD114  DFHMDF POS=(20,25),LENGTH=0008,ATTRB=(UNPROT),COLOR=DEFAULT,  X
               HILIGHT=UNDERLINE
         DFHMDF POS=(20,34),LENGTH=0,ATTRB=(ASKIP,NORM)
* 'DCLINK-MESSAGE'
ZFLD115  DFHMDF POS=(21,80),LENGTH=0160,ATTRB=(PROT,BRT),              X
               COLOR=DEFAULT,HILIGHT=OFF
         DFHMDF POS=(24,01),LENGTH=0012,ATTRB=(PROT,ASKIP,NUM),        X
               INITIAL='NEXT SCREEN:',COLOR=BLUE,HILIGHT=OFF
* 'AGR-PASSED-ONE'
ZFLD116  DFHMDF POS=(24,14),LENGTH=0030,ATTRB=(UNPROT),COLOR=DEFAULT,  X
               HILIGHT=UNDERLINE
         DFHMDF POS=(24,45),LENGTH=0009,ATTRB=(PROT,ASKIP),            X
               INITIAL='RESPONSE:',COLOR=BLUE,HILIGHT=OFF
* 'AGR-MAP-RESPONSE'
ZFLD117  DFHMDF POS=(24,55),LENGTH=0008,ATTRB=(UNPROT),COLOR=DEFAULT,  X
               HILIGHT=UNDERLINE
         DFHMDF POS=(24,64),LENGTH=0,ATTRB=(ASKIP,NORM)
* 'ERROR-TEXT-SY00'
ZFLD118  DFHMDF POS=(24,65),LENGTH=0014,ATTRB=(PROT,DRK),              X
               COLOR=DEFAULT,HILIGHT=OFF
         DFHMSD TYPE=FINAL
         END
