FTAMU05  DFHMSD TYPE=MAP,LANG=COBOL,TERM=3270,MODE=INOUT,              X
               TIOAPFX=YES,MAPATTS=(COLOR,HILIGHT),                    X
               DSATTS=(COLOR,HILIGHT)
FTAMU05  DFHMDI SIZE=(24,80),LINE=1,COLUMN=1,CTRL=FREEKB,TIOAPFX=YES
         DFHMDF POS=(01,01),LENGTH=0007,ATTRB=(PROT,ASKIP),            X
               INITIAL='FTAMU05',COLOR=BLUE,HILIGHT=OFF
* 'TRMNL-ID-SY00'
ZFLD002  DFHMDF POS=(01,10),LENGTH=0008,ATTRB=(PROT),COLOR=BLUE,       X
               HILIGHT=OFF
         DFHMDF POS=(01,19),LENGTH=0,ATTRB=(ASKIP,NORM)
* 'FULL-NAME-6001-SY00'
ZFLD003  DFHMDF POS=(01,23),LENGTH=0035,ATTRB=(PROT),COLOR=BLUE,       X
               HILIGHT=OFF
         DFHMDF POS=(01,59),LENGTH=0,ATTRB=(ASKIP,NORM)
* 'AGR-DATE'
ZFLD004  DFHMDF POS=(01,64),LENGTH=0008,ATTRB=(PROT),COLOR=BLUE,       X
               HILIGHT=OFF
* 'WORK-HH-MM-TIME-SY00'
ZFLD005  DFHMDF POS=(01,73),LENGTH=0005,ATTRB=(PROT),COLOR=BLUE,       X
               HILIGHT=OFF
* 'AM-PM-FLAG-SY00'
ZFLD006  DFHMDF POS=(01,79),LENGTH=0001,ATTRB=(PROT),COLOR=BLUE,       X
               HILIGHT=OFF
* 'AGR-USER-ID'
ZFLD007  DFHMDF POS=(02,01),LENGTH=0008,ATTRB=(PROT),COLOR=BLUE,       X
               HILIGHT=OFF
         DFHMDF POS=(02,10),LENGTH=0,ATTRB=(ASKIP,NORM)
* 'CURR-RSPNS-ID-SY00'
ZFLD008  DFHMDF POS=(02,21),LENGTH=0008,ATTRB=(PROT,BRT),              X
               COLOR=DEFAULT,HILIGHT=OFF
         DFHMDF POS=(02,30),LENGTH=0001,ATTRB=(PROT,ASKIP,BRT),        X
               INITIAL=':',COLOR=DEFAULT,HILIGHT=OFF
* 'AGR-FUNC-DESCRIPTION'
ZFLD009  DFHMDF POS=(02,32),LENGTH=0028,ATTRB=(PROT,BRT),              X
               COLOR=DEFAULT,HILIGHT=OFF
         DFHMDF POS=(02,61),LENGTH=0,ATTRB=(ASKIP,NORM)
* 'PAGE-STATUS-CODE-SY00'
ZFLD010  DFHMDF POS=(02,64),LENGTH=0010,ATTRB=(PROT,BRT),              X
               COLOR=DEFAULT,HILIGHT=OFF
         DFHMDF POS=(02,75),LENGTH=0,ATTRB=(ASKIP,NORM)
* 'DCSD-TEXT-SY01'
ZFLD011  DFHMDF POS=(03,52),LENGTH=0008,ATTRB=(PROT,DRK),              X
               COLOR=DEFAULT,HILIGHT=OFF
         DFHMDF POS=(03,61),LENGTH=0,ATTRB=(ASKIP,NORM)
* 'CNFDL-TEXT-SY01'
ZFLD012  DFHMDF POS=(03,62),LENGTH=0011,ATTRB=(PROT,DRK),              X
               COLOR=DEFAULT,HILIGHT=OFF
         DFHMDF POS=(03,74),LENGTH=0,ATTRB=(ASKIP,NORM)
* 'HOLDS-TEXT-SY01'
ZFLD013  DFHMDF POS=(03,75),LENGTH=0005,ATTRB=(PROT,DRK),              X
               COLOR=DEFAULT,HILIGHT=OFF
         DFHMDF POS=(04,01),LENGTH=0,ATTRB=(ASKIP,NORM)
         DFHMDF POS=(04,02),LENGTH=0010,ATTRB=(PROT,ASKIP),            X
               INITIAL='ACCOUNT #:',COLOR=BLUE,HILIGHT=OFF
* 'TRVL-ACCT-LAST-NINE-4400-TA05'
ZFLD014  DFHMDF POS=(04,13),LENGTH=0009,ATTRB=(UNPROT,IC),             X
               COLOR=DEFAULT,HILIGHT=UNDERLINE
         DFHMDF POS=(04,23),LENGTH=0,ATTRB=(ASKIP,NORM)
* 'NAME-KEY-6117-TA05'
ZFLD015  DFHMDF POS=(04,24),LENGTH=0035,ATTRB=(PROT),COLOR=TURQUOISE,  X
               HILIGHT=OFF
         DFHMDF POS=(04,60),LENGTH=0,ATTRB=(ASKIP,NORM)
* 'MSG-DESC-TA05'
ZFLD016  DFHMDF POS=(04,62),LENGTH=0017,ATTRB=(PROT),COLOR=TURQUOISE,  X
               HILIGHT=OFF
         DFHMDF POS=(04,80),LENGTH=0,ATTRB=(ASKIP,NORM)
         DFHMDF POS=(05,02),LENGTH=0010,ATTRB=(PROT,ASKIP),            X
               INITIAL='EXPENSE #:',COLOR=BLUE,HILIGHT=OFF
* 'EXPNS-NMBR-4405-TA05'
ZFLD017  DFHMDF POS=(05,13),LENGTH=0008,ATTRB=(UNPROT),COLOR=DEFAULT,  X
               HILIGHT=UNDERLINE
         DFHMDF POS=(05,22),LENGTH=0,ATTRB=(ASKIP,NORM)
         DFHMDF POS=(05,62),LENGTH=0009,ATTRB=(PROT,ASKIP),            X
               INITIAL='EMPLOYEE:',COLOR=BLUE,HILIGHT=OFF
* 'EMPLY-IND-4400-TA05'
ZFLD018  DFHMDF POS=(05,72),LENGTH=0001,ATTRB=(PROT),COLOR=TURQUOISE,  X
               HILIGHT=OFF
         DFHMDF POS=(05,74),LENGTH=0,ATTRB=(ASKIP,NORM)
         DFHMDF POS=(07,41),LENGTH=0015,ATTRB=(PROT,ASKIP),            X
               INITIAL='TOTAL EXPENSES:',COLOR=BLUE,HILIGHT=OFF
* 'EXPNS-AMT-4405-TA05'
ZFLD019  DFHMDF POS=(07,57),LENGTH=0011,ATTRB=(PROT),COLOR=TURQUOISE,  X
               HILIGHT=OFF
         DFHMDF POS=(07,69),LENGTH=0,ATTRB=(ASKIP,NORM)
         DFHMDF POS=(08,34),LENGTH=0022,ATTRB=(PROT,ASKIP),            X
               INITIAL='EXPENSE RECEIVED DATE:',COLOR=BLUE,            X
               HILIGHT=OFF
* 'EXPNS-DATE-4405-TA05'
ZFLD020  DFHMDF POS=(08,57),LENGTH=0008,ATTRB=(PROT),COLOR=TURQUOISE,  X
               HILIGHT=OFF
         DFHMDF POS=(08,66),LENGTH=0,ATTRB=(ASKIP,NORM)
         DFHMDF POS=(10,04),LENGTH=0012,ATTRB=(PROT,ASKIP),            X
               INITIAL='TRIPS EXIST:',COLOR=BLUE,HILIGHT=OFF
* 'TRIP-IND-TA05'
ZFLD021  DFHMDF POS=(10,17),LENGTH=0001,ATTRB=(PROT),COLOR=TURQUOISE,  X
               HILIGHT=OFF
         DFHMDF POS=(10,19),LENGTH=0,ATTRB=(ASKIP,NORM)
         DFHMDF POS=(10,25),LENGTH=0008,ATTRB=(PROT,ASKIP),            X
               INITIAL='COPY(C):',COLOR=BLUE,HILIGHT=OFF
* 'COPY-ACTN-CODE-TA05'
ZFLD022  DFHMDF POS=(10,34),LENGTH=0001,ATTRB=(UNPROT),COLOR=DEFAULT,  X
               HILIGHT=UNDERLINE
         DFHMDF POS=(10,36),LENGTH=0,ATTRB=(ASKIP,NORM)
         DFHMDF POS=(10,38),LENGTH=0012,ATTRB=(PROT,ASKIP),            X
               INITIAL='TRIP NUMBER:',COLOR=BLUE,HILIGHT=OFF
* 'COPY-TRIP-NMBR-TA05'
ZFLD023  DFHMDF POS=(10,51),LENGTH=0008,ATTRB=(UNPROT),COLOR=DEFAULT,  X
               HILIGHT=UNDERLINE
         DFHMDF POS=(10,60),LENGTH=0,ATTRB=(ASKIP,NORM)
         DFHMDF POS=(11,01),LENGTH=0073,ATTRB=(PROT,ASKIP),            X
               INITIAL='ACTION  SEQ    TRIP     SEQ      AMOUNT   RULE X
                    PRTL/TOTAL LIQ   ERRS',COLOR=BLUE,HILIGHT=OFF
         DFHMDF POS=(12,01),LENGTH=0070,ATTRB=(PROT,ASKIP),            X
               INITIAL='(ACDR)    COA    INDEX     FUND    ORG     ACCTX
                   PROG    ACT     LOC',COLOR=BLUE,HILIGHT=OFF
* 'ACTN-CODE-TA05'
ZFLD024  DFHMDF POS=(13,03),LENGTH=0001,ATTRB=(UNPROT),COLOR=DEFAULT,  X
               HILIGHT=OFF
         DFHMDF POS=(13,05),LENGTH=0,ATTRB=(ASKIP,NORM)
* 'SEQ-NMBR-4408-TA05'
ZFLD025  DFHMDF POS=(13,08),LENGTH=0004,ATTRB=(PROT),COLOR=TURQUOISE,  X
               HILIGHT=OFF
         DFHMDF POS=(13,13),LENGTH=0,ATTRB=(ASKIP,NORM)
* 'TRIP-NMBR-4408-TA05'
ZFLD026  DFHMDF POS=(13,14),LENGTH=0008,ATTRB=(UNPROT),COLOR=DEFAULT,  X
               HILIGHT=UNDERLINE
         DFHMDF POS=(13,23),LENGTH=0,ATTRB=(ASKIP,NORM)
* 'TRIP-SEQ-NMBR-4408-TA05'
ZFLD027  DFHMDF POS=(13,24),LENGTH=0004,ATTRB=(UNPROT),COLOR=DEFAULT,  X
               HILIGHT=UNDERLINE
         DFHMDF POS=(13,29),LENGTH=0,ATTRB=(ASKIP,NORM)
* 'EXPNS-DSTBN-AMT-4408-TA05'
ZFLD028  DFHMDF POS=(13,30),LENGTH=0011,ATTRB=(UNPROT),COLOR=DEFAULT,  X
               HILIGHT=UNDERLINE
         DFHMDF POS=(13,42),LENGTH=0,ATTRB=(ASKIP,NORM)
* 'RULE-CLASS-CODE-4408-TA05'
ZFLD029  DFHMDF POS=(13,43),LENGTH=0004,ATTRB=(UNPROT),COLOR=DEFAULT,  X
               HILIGHT=UNDERLINE
         DFHMDF POS=(13,48),LENGTH=0,ATTRB=(ASKIP,NORM)
* 'ENCMBRNC-ACTN-IND-4408-TA05'
ZFLD030  DFHMDF POS=(13,60),LENGTH=0001,ATTRB=(UNPROT),COLOR=DEFAULT,  X
               HILIGHT=UNDERLINE
         DFHMDF POS=(13,62),LENGTH=0,ATTRB=(ASKIP,NORM)
* 'ACCT-ERROR-IND-4408-TA05'
ZFLD031  DFHMDF POS=(13,72),LENGTH=0001,ATTRB=(PROT),COLOR=TURQUOISE,  X
               HILIGHT=OFF
         DFHMDF POS=(13,74),LENGTH=0,ATTRB=(ASKIP,NORM)
* 'COA-CODE-4408-TA05'
ZFLD032  DFHMDF POS=(14,12),LENGTH=0001,ATTRB=(UNPROT),COLOR=DEFAULT,  X
               HILIGHT=UNDERLINE
         DFHMDF POS=(14,14),LENGTH=0,ATTRB=(ASKIP,NORM)
* 'ACCT-INDX-CODE-4408-TA05'
ZFLD033  DFHMDF POS=(14,15),LENGTH=0010,ATTRB=(UNPROT),COLOR=DEFAULT,  X
               HILIGHT=UNDERLINE
         DFHMDF POS=(14,26),LENGTH=0,ATTRB=(ASKIP,NORM)
* 'FUND-CODE-4408-TA05'
ZFLD034  DFHMDF POS=(14,27),LENGTH=0006,ATTRB=(UNPROT),COLOR=DEFAULT,  X
               HILIGHT=UNDERLINE
         DFHMDF POS=(14,34),LENGTH=0,ATTRB=(ASKIP,NORM)
* 'ORGZN-CODE-4408-TA05'
ZFLD035  DFHMDF POS=(14,35),LENGTH=0006,ATTRB=(UNPROT),COLOR=DEFAULT,  X
               HILIGHT=UNDERLINE
         DFHMDF POS=(14,42),LENGTH=0,ATTRB=(ASKIP,NORM)
* 'ACCT-CODE-4408-TA05'
ZFLD036  DFHMDF POS=(14,43),LENGTH=0006,ATTRB=(UNPROT),COLOR=DEFAULT,  X
               HILIGHT=UNDERLINE
         DFHMDF POS=(14,50),LENGTH=0,ATTRB=(ASKIP,NORM)
* 'PRGRM-CODE-4408-TA05'
ZFLD037  DFHMDF POS=(14,51),LENGTH=0006,ATTRB=(UNPROT),COLOR=DEFAULT,  X
               HILIGHT=UNDERLINE
         DFHMDF POS=(14,58),LENGTH=0,ATTRB=(ASKIP,NORM)
* 'ACTVY-CODE-4408-TA05'
ZFLD038  DFHMDF POS=(14,59),LENGTH=0006,ATTRB=(UNPROT),COLOR=DEFAULT,  X
               HILIGHT=UNDERLINE
         DFHMDF POS=(14,66),LENGTH=0,ATTRB=(ASKIP,NORM)
* 'LCTN-CODE-4408-TA05'
ZFLD039  DFHMDF POS=(14,67),LENGTH=0006,ATTRB=(UNPROT),COLOR=DEFAULT,  X
               HILIGHT=UNDERLINE
         DFHMDF POS=(14,74),LENGTH=0,ATTRB=(ASKIP,NORM)
* 'ACTN-CODE-TA05'
ZFLD040  DFHMDF POS=(15,03),LENGTH=0001,ATTRB=(UNPROT),COLOR=DEFAULT,  X
               HILIGHT=OFF
         DFHMDF POS=(15,05),LENGTH=0,ATTRB=(ASKIP,NORM)
* 'SEQ-NMBR-4408-TA05'
ZFLD041  DFHMDF POS=(15,08),LENGTH=0004,ATTRB=(PROT),COLOR=TURQUOISE,  X
               HILIGHT=OFF
         DFHMDF POS=(15,13),LENGTH=0,ATTRB=(ASKIP,NORM)
* 'TRIP-NMBR-4408-TA05'
ZFLD042  DFHMDF POS=(15,14),LENGTH=0008,ATTRB=(UNPROT),COLOR=DEFAULT,  X
               HILIGHT=UNDERLINE
         DFHMDF POS=(15,23),LENGTH=0,ATTRB=(ASKIP,NORM)
* 'TRIP-SEQ-NMBR-4408-TA05'
ZFLD043  DFHMDF POS=(15,24),LENGTH=0004,ATTRB=(UNPROT),COLOR=DEFAULT,  X
               HILIGHT=UNDERLINE
         DFHMDF POS=(15,29),LENGTH=0,ATTRB=(ASKIP,NORM)
* 'EXPNS-DSTBN-AMT-4408-TA05'
ZFLD044  DFHMDF POS=(15,30),LENGTH=0011,ATTRB=(UNPROT),COLOR=DEFAULT,  X
               HILIGHT=UNDERLINE
         DFHMDF POS=(15,42),LENGTH=0,ATTRB=(ASKIP,NORM)
* 'RULE-CLASS-CODE-4408-TA05'
ZFLD045  DFHMDF POS=(15,43),LENGTH=0004,ATTRB=(UNPROT),COLOR=DEFAULT,  X
               HILIGHT=UNDERLINE
         DFHMDF POS=(15,48),LENGTH=0,ATTRB=(ASKIP,NORM)
* 'ENCMBRNC-ACTN-IND-4408-TA05'
ZFLD046  DFHMDF POS=(15,60),LENGTH=0001,ATTRB=(UNPROT),COLOR=DEFAULT,  X
               HILIGHT=UNDERLINE
         DFHMDF POS=(15,62),LENGTH=0,ATTRB=(ASKIP,NORM)
* 'ACCT-ERROR-IND-4408-TA05'
ZFLD047  DFHMDF POS=(15,72),LENGTH=0001,ATTRB=(PROT),COLOR=TURQUOISE,  X
               HILIGHT=OFF
         DFHMDF POS=(15,74),LENGTH=0,ATTRB=(ASKIP,NORM)
* 'COA-CODE-4408-TA05'
ZFLD048  DFHMDF POS=(16,12),LENGTH=0001,ATTRB=(UNPROT),COLOR=DEFAULT,  X
               HILIGHT=UNDERLINE
         DFHMDF POS=(16,14),LENGTH=0,ATTRB=(ASKIP,NORM)
* 'ACCT-INDX-CODE-4408-TA05'
ZFLD049  DFHMDF POS=(16,15),LENGTH=0010,ATTRB=(UNPROT),COLOR=DEFAULT,  X
               HILIGHT=UNDERLINE
         DFHMDF POS=(16,26),LENGTH=0,ATTRB=(ASKIP,NORM)
* 'FUND-CODE-4408-TA05'
ZFLD050  DFHMDF POS=(16,27),LENGTH=0006,ATTRB=(UNPROT),COLOR=DEFAULT,  X
               HILIGHT=UNDERLINE
         DFHMDF POS=(16,34),LENGTH=0,ATTRB=(ASKIP,NORM)
* 'ORGZN-CODE-4408-TA05'
ZFLD051  DFHMDF POS=(16,35),LENGTH=0006,ATTRB=(UNPROT),COLOR=DEFAULT,  X
               HILIGHT=UNDERLINE
         DFHMDF POS=(16,42),LENGTH=0,ATTRB=(ASKIP,NORM)
* 'ACCT-CODE-4408-TA05'
ZFLD052  DFHMDF POS=(16,43),LENGTH=0006,ATTRB=(UNPROT),COLOR=DEFAULT,  X
               HILIGHT=UNDERLINE
         DFHMDF POS=(16,50),LENGTH=0,ATTRB=(ASKIP,NORM)
* 'PRGRM-CODE-4408-TA05'
ZFLD053  DFHMDF POS=(16,51),LENGTH=0006,ATTRB=(UNPROT),COLOR=DEFAULT,  X
               HILIGHT=UNDERLINE
         DFHMDF POS=(16,58),LENGTH=0,ATTRB=(ASKIP,NORM)
* 'ACTVY-CODE-4408-TA05'
ZFLD054  DFHMDF POS=(16,59),LENGTH=0006,ATTRB=(UNPROT),COLOR=DEFAULT,  X
               HILIGHT=UNDERLINE
         DFHMDF POS=(16,66),LENGTH=0,ATTRB=(ASKIP,NORM)
* 'LCTN-CODE-4408-TA05'
ZFLD055  DFHMDF POS=(16,67),LENGTH=0006,ATTRB=(UNPROT),COLOR=DEFAULT,  X
               HILIGHT=UNDERLINE
         DFHMDF POS=(16,74),LENGTH=0,ATTRB=(ASKIP,NORM)
* 'ACTN-CODE-TA05'
ZFLD056  DFHMDF POS=(17,03),LENGTH=0001,ATTRB=(UNPROT),COLOR=DEFAULT,  X
               HILIGHT=OFF
         DFHMDF POS=(17,05),LENGTH=0,ATTRB=(ASKIP,NORM)
* 'SEQ-NMBR-4408-TA05'
ZFLD057  DFHMDF POS=(17,08),LENGTH=0004,ATTRB=(PROT),COLOR=TURQUOISE,  X
               HILIGHT=OFF
         DFHMDF POS=(17,13),LENGTH=0,ATTRB=(ASKIP,NORM)
* 'TRIP-NMBR-4408-TA05'
ZFLD058  DFHMDF POS=(17,14),LENGTH=0008,ATTRB=(UNPROT),COLOR=DEFAULT,  X
               HILIGHT=UNDERLINE
         DFHMDF POS=(17,23),LENGTH=0,ATTRB=(ASKIP,NORM)
* 'TRIP-SEQ-NMBR-4408-TA05'
ZFLD059  DFHMDF POS=(17,24),LENGTH=0004,ATTRB=(UNPROT),COLOR=DEFAULT,  X
               HILIGHT=UNDERLINE
         DFHMDF POS=(17,29),LENGTH=0,ATTRB=(ASKIP,NORM)
* 'EXPNS-DSTBN-AMT-4408-TA05'
ZFLD060  DFHMDF POS=(17,30),LENGTH=0011,ATTRB=(UNPROT),COLOR=DEFAULT,  X
               HILIGHT=UNDERLINE
         DFHMDF POS=(17,42),LENGTH=0,ATTRB=(ASKIP,NORM)
* 'RULE-CLASS-CODE-4408-TA05'
ZFLD061  DFHMDF POS=(17,43),LENGTH=0004,ATTRB=(UNPROT),COLOR=DEFAULT,  X
               HILIGHT=UNDERLINE
         DFHMDF POS=(17,48),LENGTH=0,ATTRB=(ASKIP,NORM)
* 'ENCMBRNC-ACTN-IND-4408-TA05'
ZFLD062  DFHMDF POS=(17,60),LENGTH=0001,ATTRB=(UNPROT),COLOR=DEFAULT,  X
               HILIGHT=UNDERLINE
         DFHMDF POS=(17,62),LENGTH=0,ATTRB=(ASKIP,NORM)
* 'ACCT-ERROR-IND-4408-TA05'
ZFLD063  DFHMDF POS=(17,72),LENGTH=0001,ATTRB=(PROT),COLOR=TURQUOISE,  X
               HILIGHT=OFF
         DFHMDF POS=(17,74),LENGTH=0,ATTRB=(ASKIP,NORM)
* 'COA-CODE-4408-TA05'
ZFLD064  DFHMDF POS=(18,12),LENGTH=0001,ATTRB=(UNPROT),COLOR=DEFAULT,  X
               HILIGHT=UNDERLINE
         DFHMDF POS=(18,14),LENGTH=0,ATTRB=(ASKIP,NORM)
* 'ACCT-INDX-CODE-4408-TA05'
ZFLD065  DFHMDF POS=(18,15),LENGTH=0010,ATTRB=(UNPROT),COLOR=DEFAULT,  X
               HILIGHT=UNDERLINE
         DFHMDF POS=(18,26),LENGTH=0,ATTRB=(ASKIP,NORM)
* 'FUND-CODE-4408-TA05'
ZFLD066  DFHMDF POS=(18,27),LENGTH=0006,ATTRB=(UNPROT),COLOR=DEFAULT,  X
               HILIGHT=UNDERLINE
         DFHMDF POS=(18,34),LENGTH=0,ATTRB=(ASKIP,NORM)
* 'ORGZN-CODE-4408-TA05'
ZFLD067  DFHMDF POS=(18,35),LENGTH=0006,ATTRB=(UNPROT),COLOR=DEFAULT,  X
               HILIGHT=UNDERLINE
         DFHMDF POS=(18,42),LENGTH=0,ATTRB=(ASKIP,NORM)
* 'ACCT-CODE-4408-TA05'
ZFLD068  DFHMDF POS=(18,43),LENGTH=0006,ATTRB=(UNPROT),COLOR=DEFAULT,  X
               HILIGHT=UNDERLINE
         DFHMDF POS=(18,50),LENGTH=0,ATTRB=(ASKIP,NORM)
* 'PRGRM-CODE-4408-TA05'
ZFLD069  DFHMDF POS=(18,51),LENGTH=0006,ATTRB=(UNPROT),COLOR=DEFAULT,  X
               HILIGHT=UNDERLINE
         DFHMDF POS=(18,58),LENGTH=0,ATTRB=(ASKIP,NORM)
* 'ACTVY-CODE-4408-TA05'
ZFLD070  DFHMDF POS=(18,59),LENGTH=0006,ATTRB=(UNPROT),COLOR=DEFAULT,  X
               HILIGHT=UNDERLINE
         DFHMDF POS=(18,66),LENGTH=0,ATTRB=(ASKIP,NORM)
* 'LCTN-CODE-4408-TA05'
ZFLD071  DFHMDF POS=(18,67),LENGTH=0006,ATTRB=(UNPROT),COLOR=DEFAULT,  X
               HILIGHT=UNDERLINE
         DFHMDF POS=(18,74),LENGTH=0,ATTRB=(ASKIP,NORM)
         DFHMDF POS=(20,01),LENGTH=0024,ATTRB=(PROT,ASKIP),            X
               INITIAL='REQUEST SEQUENCE NUMBER:',COLOR=BLUE,          X
               HILIGHT=OFF
* 'RQST-SEQ-NMBR-TA05'
ZFLD072  DFHMDF POS=(20,26),LENGTH=0004,ATTRB=(UNPROT),COLOR=DEFAULT,  X
               HILIGHT=UNDERLINE
         DFHMDF POS=(20,31),LENGTH=0,ATTRB=(ASKIP,NORM)
* 'DCLINK-MESSAGE'
ZFLD073  DFHMDF POS=(21,80),LENGTH=0160,ATTRB=(PROT,BRT),              X
               COLOR=DEFAULT,HILIGHT=OFF
         DFHMDF POS=(24,01),LENGTH=0012,ATTRB=(PROT,ASKIP,NUM),        X
               INITIAL='NEXT SCREEN:',COLOR=BLUE,HILIGHT=OFF
* 'AGR-PASSED-ONE'
ZFLD074  DFHMDF POS=(24,14),LENGTH=0030,ATTRB=(UNPROT),COLOR=DEFAULT,  X
               HILIGHT=UNDERLINE
         DFHMDF POS=(24,45),LENGTH=0009,ATTRB=(PROT,ASKIP),            X
               INITIAL='RESPONSE:',COLOR=BLUE,HILIGHT=OFF
* 'AGR-MAP-RESPONSE'
ZFLD075  DFHMDF POS=(24,55),LENGTH=0008,ATTRB=(UNPROT),COLOR=DEFAULT,  X
               HILIGHT=UNDERLINE
         DFHMDF POS=(24,64),LENGTH=0,ATTRB=(ASKIP,NORM)
* 'ERROR-TEXT-SY00'
ZFLD076  DFHMDF POS=(24,65),LENGTH=0014,ATTRB=(PROT,DRK),              X
               COLOR=DEFAULT,HILIGHT=OFF
         DFHMSD TYPE=FINAL
         END
