FUTMU29  DFHMSD TYPE=MAP,LANG=COBOL,TERM=3270,MODE=INOUT,              X
               TIOAPFX=YES,MAPATTS=(COLOR,HILIGHT),                    X
               DSATTS=(COLOR,HILIGHT)
FUTMU29  DFHMDI SIZE=(24,80),LINE=1,COLUMN=1,CTRL=FREEKB,TIOAPFX=YES
         DFHMDF POS=(01,01),LENGTH=0007,ATTRB=(PROT,ASKIP),            X
               INITIAL='FUTMU29',COLOR=BLUE,HILIGHT=OFF
* 'TRMNL-ID-SY00'
ZFLD002  DFHMDF POS=(01,10),LENGTH=0008,ATTRB=(PROT),COLOR=BLUE,       X
               HILIGHT=OFF
         DFHMDF POS=(01,19),LENGTH=0,ATTRB=(ASKIP,NORM)
* 'FULL-NAME-6001-SY00'
ZFLD003  DFHMDF POS=(01,23),LENGTH=0035,ATTRB=(PROT),COLOR=BLUE,       X
               HILIGHT=OFF
         DFHMDF POS=(01,59),LENGTH=0,ATTRB=(ASKIP,NORM)
* 'AGR-DATE'
ZFLD004  DFHMDF POS=(01,64),LENGTH=0008,ATTRB=(PROT),COLOR=BLUE,       X
               HILIGHT=OFF
* 'WORK-HH-MM-TIME-SY00'
ZFLD005  DFHMDF POS=(01,73),LENGTH=0005,ATTRB=(PROT),COLOR=BLUE,       X
               HILIGHT=OFF
* 'AM-PM-FLAG-SY00'
ZFLD006  DFHMDF POS=(01,79),LENGTH=0001,ATTRB=(PROT),COLOR=BLUE,       X
               HILIGHT=OFF
* 'AGR-USER-ID'
ZFLD007  DFHMDF POS=(02,01),LENGTH=0008,ATTRB=(PROT),COLOR=BLUE,       X
               HILIGHT=OFF
         DFHMDF POS=(02,10),LENGTH=0,ATTRB=(ASKIP,NORM)
* 'CURR-RSPNS-ID-SY00'
ZFLD008  DFHMDF POS=(02,21),LENGTH=0008,ATTRB=(PROT,BRT),              X
               COLOR=DEFAULT,HILIGHT=OFF
         DFHMDF POS=(02,30),LENGTH=0001,ATTRB=(PROT,ASKIP,BRT),        X
               INITIAL=':',COLOR=DEFAULT,HILIGHT=OFF
* 'AGR-FUNC-DESCRIPTION'
ZFLD009  DFHMDF POS=(02,32),LENGTH=0028,ATTRB=(PROT,BRT),              X
               COLOR=DEFAULT,HILIGHT=OFF
         DFHMDF POS=(02,61),LENGTH=0,ATTRB=(ASKIP,NORM)
* 'PAGE-STATUS-CODE-SY00'
ZFLD010  DFHMDF POS=(02,64),LENGTH=0010,ATTRB=(PROT,BRT),              X
               COLOR=DEFAULT,HILIGHT=OFF
         DFHMDF POS=(02,75),LENGTH=0,ATTRB=(ASKIP,NORM)
         DFHMDF POS=(04,02),LENGTH=0003,ATTRB=(PROT,ASKIP),            X
               INITIAL='ACT',COLOR=BLUE,HILIGHT=OFF
         DFHMDF POS=(04,09),LENGTH=0015,ATTRB=(PROT,ASKIP),            X
               INITIAL='USER ID       :',COLOR=BLUE,HILIGHT=OFF
* 'USER-ID-UT02'
ZFLD011  DFHMDF POS=(04,25),LENGTH=0008,ATTRB=(ASKIP,PROT),            X
               COLOR=DEFAULT,HILIGHT=OFF
         DFHMDF POS=(04,34),LENGTH=0,ATTRB=(ASKIP,NORM)
* 'USER-NAME-UT02'
ZFLD012  DFHMDF POS=(04,35),LENGTH=0035,ATTRB=(PROT),COLOR=DEFAULT,    X
               HILIGHT=OFF
         DFHMDF POS=(04,71),LENGTH=0,ATTRB=(ASKIP,NORM)
         DFHMDF POS=(05,01),LENGTH=0005,ATTRB=(PROT,ASKIP),            X
               INITIAL='(ACD)',COLOR=BLUE,HILIGHT=OFF
         DFHMDF POS=(05,09),LENGTH=0015,ATTRB=(PROT,ASKIP),            X
               INITIAL='DOCUMENT TYPE :',COLOR=BLUE,HILIGHT=OFF
* 'DCMNT-TYPE-UT02'
ZFLD013  DFHMDF POS=(05,25),LENGTH=0003,ATTRB=(ASKIP,PROT),            X
               COLOR=DEFAULT,HILIGHT=OFF
         DFHMDF POS=(05,29),LENGTH=0,ATTRB=(ASKIP,NORM)
* 'DCMNT-DESC-UT02'
ZFLD014  DFHMDF POS=(05,35),LENGTH=0035,ATTRB=(PROT),COLOR=DEFAULT,    X
               HILIGHT=OFF
         DFHMDF POS=(05,71),LENGTH=0,ATTRB=(ASKIP,NORM)
         DFHMDF POS=(06,09),LENGTH=0015,ATTRB=(PROT,ASKIP),            X
               INITIAL='APPROVAL TMPLT:',COLOR=BLUE,HILIGHT=OFF
* 'APRVL-TMPLT-CODE-UT02'
ZFLD016  DFHMDF POS=(06,25),LENGTH=0003,ATTRB=(ASKIP,PROT),            X
               COLOR=DEFAULT,HILIGHT=OFF
         DFHMDF POS=(06,29),LENGTH=0,ATTRB=(ASKIP,NORM)
* 'APRVL-TMPLT-DESC-UT02'
ZFLD017  DFHMDF POS=(06,35),LENGTH=0035,ATTRB=(ASKIP,PROT),            X
               HILIGHT=OFF,COLOR=DEFAULT
         DFHMDF POS=(06,71),LENGTH=0,ATTRB=(ASKIP,NORM)
         DFHMDF POS=(10,02),LENGTH=0074,ATTRB=(PROT,ASKIP),            X
               INITIAL='ACT   LEVEL  APPROVAL                          X
                                  APPROVAL',COLOR=BLUE,HILIGHT=OFF
         DFHMDF POS=(11,01),LENGTH=0073,ATTRB=(PROT,ASKIP),            X
               INITIAL='(ACD)            ID                            X
                                    LIMIT',COLOR=BLUE,HILIGHT=OFF
* 'ACTN-CODE-UT02'
ZFLD018  DFHMDF POS=(12,03),LENGTH=0001,ATTRB=(UNPROT),COLOR=DEFAULT,  X
               HILIGHT=UNDERLINE
         DFHMDF POS=(12,05),LENGTH=0,ATTRB=(ASKIP,NORM)
* 'SEQ-NMBR-UT02'
ZFLD019  DFHMDF POS=(12,08),LENGTH=0004,ATTRB=(PROT),COLOR=BLUE,       X
               HILIGHT=OFF
         DFHMDF POS=(12,13),LENGTH=0,ATTRB=(ASKIP,NORM)
* 'APRVL-ID-UT02'
ZFLD020  DFHMDF POS=(12,15),LENGTH=0008,ATTRB=(UNPROT),COLOR=DEFAULT,  X
               HILIGHT=UNDERLINE
         DFHMDF POS=(12,24),LENGTH=0,ATTRB=(ASKIP,NORM)
* 'FULL-NAME-UT02'
ZFLD021  DFHMDF POS=(12,25),LENGTH=0035,ATTRB=(PROT),COLOR=TURQUOISE,  X
               HILIGHT=OFF
         DFHMDF POS=(12,61),LENGTH=0,ATTRB=(ASKIP,NORM)
* 'APRVL-LIMIT-UT02'
ZFLD022  DFHMDF POS=(12,63),LENGTH=0016,ATTRB=(UNPROT),COLOR=DEFAULT,  X
               HILIGHT=UNDERLINE
         DFHMDF POS=(12,80),LENGTH=0,ATTRB=(ASKIP,NORM)
         DFHMDF POS=(13,14),LENGTH=0010,ATTRB=(PROT,ASKIP),            X
               INITIAL='ALT APRVL:',COLOR=BLUE,HILIGHT=OFF
* 'ALTRNT-APRVL-CODE-UT02'  1
ZFLD023  DFHMDF POS=(13,25),LENGTH=0008,ATTRB=(UNPROT),COLOR=DEFAULT,  X
               HILIGHT=UNDERLINE
         DFHMDF POS=(13,34),LENGTH=0,ATTRB=(ASKIP,NORM)
* 'ALTRNT-NAME-UT02'
ZFLD024  DFHMDF POS=(13,35),LENGTH=0035,ATTRB=(PROT),COLOR=TURQUOISE,  X
               HILIGHT=OFF
         DFHMDF POS=(13,71),LENGTH=0,ATTRB=(ASKIP,NORM)
         DFHMDF POS=(14,23),LENGTH=0001,ATTRB=(PROT,ASKIP),            X
               INITIAL=':',COLOR=BLUE,HILIGHT=OFF
* 'ALTRNT-APRVL-CODE-UT02'  2
ZFLD025  DFHMDF POS=(14,25),LENGTH=0008,ATTRB=(UNPROT),COLOR=DEFAULT,  X
               HILIGHT=UNDERLINE
         DFHMDF POS=(14,34),LENGTH=0,ATTRB=(ASKIP,NORM)
* 'ALTRNT-NAME-UT02'
ZFLD026  DFHMDF POS=(14,35),LENGTH=0035,ATTRB=(PROT),COLOR=TURQUOISE,  X
               HILIGHT=OFF
         DFHMDF POS=(14,71),LENGTH=0,ATTRB=(ASKIP,NORM)
         DFHMDF POS=(15,23),LENGTH=0001,ATTRB=(PROT,ASKIP),            X
               INITIAL=':',COLOR=BLUE,HILIGHT=OFF
* 'ALTRNT-APRVL-CODE-UT02' 3
ZFLD027  DFHMDF POS=(15,25),LENGTH=0008,ATTRB=(UNPROT),COLOR=DEFAULT,  X
               HILIGHT=UNDERLINE
         DFHMDF POS=(15,34),LENGTH=0,ATTRB=(ASKIP,NORM)
* 'ALTRNT-NAME-UT02'
ZFLD028  DFHMDF POS=(15,35),LENGTH=0035,ATTRB=(PROT),COLOR=TURQUOISE,  X
               HILIGHT=OFF
         DFHMDF POS=(15,71),LENGTH=0,ATTRB=(ASKIP,NORM)
         DFHMDF POS=(16,23),LENGTH=0001,ATTRB=(PROT,ASKIP),            X
               INITIAL=':',COLOR=BLUE,HILIGHT=OFF
* 'ALTRNT-APRVL-CODE-UT02'  4
ZFLD029  DFHMDF POS=(16,25),LENGTH=0008,ATTRB=(UNPROT),COLOR=DEFAULT,  X
               HILIGHT=UNDERLINE
         DFHMDF POS=(16,34),LENGTH=0,ATTRB=(ASKIP,NORM)
* 'ALTRNT-NAME-UT02'
ZFLD030  DFHMDF POS=(16,35),LENGTH=0035,ATTRB=(PROT),COLOR=TURQUOISE,  X
               HILIGHT=OFF
         DFHMDF POS=(16,71),LENGTH=0,ATTRB=(ASKIP,NORM)
         DFHMDF POS=(17,23),LENGTH=0001,ATTRB=(PROT,ASKIP),            X
               INITIAL=':',COLOR=BLUE,HILIGHT=OFF
* 'ALTRNT-APRVL-CODE-UT02' 5
ZFLD031  DFHMDF POS=(17,25),LENGTH=0008,ATTRB=(UNPROT),COLOR=DEFAULT,  X
               HILIGHT=UNDERLINE
         DFHMDF POS=(17,34),LENGTH=0,ATTRB=(ASKIP,NORM)
* 'ALTRNT-NAME-UT02'
ZFLD032  DFHMDF POS=(17,35),LENGTH=0035,ATTRB=(PROT),COLOR=TURQUOISE,  X
               HILIGHT=OFF
         DFHMDF POS=(17,71),LENGTH=0,ATTRB=(ASKIP,NORM)
         DFHMDF POS=(18,23),LENGTH=0001,ATTRB=(PROT,ASKIP),            X
               INITIAL=':',COLOR=BLUE,HILIGHT=OFF
* 'ALTRNT-APRVL-CODE-UT02' 6
ZFLD033  DFHMDF POS=(18,25),LENGTH=0008,ATTRB=(UNPROT),COLOR=DEFAULT,  X
               HILIGHT=UNDERLINE
         DFHMDF POS=(18,34),LENGTH=0,ATTRB=(ASKIP,NORM)
* 'ALTRNT-NAME-UT02'
ZFLD034  DFHMDF POS=(18,35),LENGTH=0035,ATTRB=(PROT),COLOR=TURQUOISE,  X
               HILIGHT=OFF
         DFHMDF POS=(18,71),LENGTH=0,ATTRB=(ASKIP,NORM)
         DFHMDF POS=(19,23),LENGTH=0001,ATTRB=(PROT,ASKIP),            X
               INITIAL=':',COLOR=BLUE,HILIGHT=OFF
* 'ALTRNT-APRVL-CODE-UT02' 7
ZFLD035  DFHMDF POS=(19,25),LENGTH=0008,ATTRB=(UNPROT),COLOR=DEFAULT,  X
               HILIGHT=UNDERLINE
         DFHMDF POS=(19,34),LENGTH=0,ATTRB=(ASKIP,NORM)
* 'ALTRNT-NAME-UT02'
ZFLD036  DFHMDF POS=(19,35),LENGTH=0035,ATTRB=(PROT),COLOR=TURQUOISE,  X
               HILIGHT=OFF
         DFHMDF POS=(19,71),LENGTH=0,ATTRB=(ASKIP,NORM)
         DFHMDF POS=(20,23),LENGTH=0001,ATTRB=(PROT,ASKIP),            X
               INITIAL=':',COLOR=BLUE,HILIGHT=OFF
* 'ALTRNT-APRVL-CODE-UT02' 8
ZFLD037  DFHMDF POS=(20,25),LENGTH=0008,ATTRB=(UNPROT),COLOR=DEFAULT,  X
               HILIGHT=UNDERLINE
         DFHMDF POS=(20,34),LENGTH=0,ATTRB=(ASKIP,NORM)
* 'ALTRNT-NAME-UT02'
ZFLD038  DFHMDF POS=(20,35),LENGTH=0035,ATTRB=(PROT),COLOR=TURQUOISE,  X
               HILIGHT=OFF
         DFHMDF POS=(20,71),LENGTH=0,ATTRB=(ASKIP,NORM)
         DFHMDF POS=(21,23),LENGTH=0001,ATTRB=(PROT,ASKIP),            X
               INITIAL=':',COLOR=BLUE,HILIGHT=OFF
* 'ALTRNT-APRVL-CODE-UT02' 9
ZFLD039  DFHMDF POS=(21,25),LENGTH=0008,ATTRB=(UNPROT),COLOR=DEFAULT,  X
               HILIGHT=UNDERLINE
         DFHMDF POS=(21,34),LENGTH=0,ATTRB=(ASKIP,NORM)
* 'ALTRNT-NAME-UT02'
ZFLD044  DFHMDF POS=(21,35),LENGTH=0035,ATTRB=(PROT),COLOR=TURQUOISE,  X
               HILIGHT=OFF
         DFHMDF POS=(21,71),LENGTH=0,ATTRB=(ASKIP,NORM)
* 'DCLINK-MESSAGE'
ZFLD046  DFHMDF POS=(21,80),LENGTH=0160,ATTRB=(PROT,BRT),              X
               COLOR=DEFAULT,HILIGHT=OFF
         DFHMDF POS=(24,01),LENGTH=0012,ATTRB=(PROT,ASKIP,NUM),        X
               INITIAL='NEXT SCREEN:',COLOR=BLUE,HILIGHT=OFF
* 'AGR-PASSED-ONE'
ZFLD047  DFHMDF POS=(24,14),LENGTH=0030,ATTRB=(UNPROT),COLOR=DEFAULT,  X
               HILIGHT=UNDERLINE
         DFHMDF POS=(24,45),LENGTH=0009,ATTRB=(PROT,ASKIP),            X
               INITIAL='RESPONSE:',COLOR=BLUE,HILIGHT=OFF
* 'AGR-MAP-RESPONSE'
ZFLD048  DFHMDF POS=(24,55),LENGTH=0008,ATTRB=(UNPROT),COLOR=DEFAULT,  X
               HILIGHT=UNDERLINE
         DFHMDF POS=(24,64),LENGTH=0,ATTRB=(ASKIP,NORM)
* 'ERROR-TEXT-SY00'
ZFLD049  DFHMDF POS=(24,65),LENGTH=0014,ATTRB=(PROT,DRK),              X
               COLOR=DEFAULT,HILIGHT=OFF
         DFHMSD TYPE=FINAL
         END
