FUTMI13  DFHMSD TYPE=MAP,LANG=COBOL,TERM=3270,MODE=INOUT,              X
               TIOAPFX=YES,MAPATTS=(COLOR,HILIGHT),                    X
               DSATTS=(COLOR,HILIGHT)
FUTMI13  DFHMDI SIZE=(24,80),LINE=1,COLUMN=1,CTRL=FREEKB,TIOAPFX=YES
         DFHMDF POS=(01,01),LENGTH=0007,ATTRB=(PROT,ASKIP),            X
               INITIAL='FUTMI13',COLOR=BLUE,HILIGHT=OFF
* 'TRMNL-ID-SY00'
ZFLD002  DFHMDF POS=(01,10),LENGTH=0008,ATTRB=(PROT),COLOR=BLUE,       X
               HILIGHT=OFF
         DFHMDF POS=(01,19),LENGTH=0,ATTRB=(ASKIP,NORM)
* 'FULL-NAME-6001-SY00'
ZFLD003  DFHMDF POS=(01,23),LENGTH=0035,ATTRB=(PROT),COLOR=BLUE,       X
               HILIGHT=OFF
         DFHMDF POS=(01,59),LENGTH=0,ATTRB=(ASKIP,NORM)
* 'AGR-DATE'
ZFLD004  DFHMDF POS=(01,64),LENGTH=0008,ATTRB=(PROT),COLOR=BLUE,       X
               HILIGHT=OFF
* 'WORK-HH-MM-TIME-SY00'
ZFLD005  DFHMDF POS=(01,73),LENGTH=0005,ATTRB=(PROT),COLOR=BLUE,       X
               HILIGHT=OFF
* 'AM-PM-FLAG-SY00'
ZFLD006  DFHMDF POS=(01,79),LENGTH=0001,ATTRB=(PROT),COLOR=BLUE,       X
               HILIGHT=OFF
* 'AGR-USER-ID'
ZFLD007  DFHMDF POS=(02,01),LENGTH=0008,ATTRB=(PROT),COLOR=BLUE,       X
               HILIGHT=OFF
         DFHMDF POS=(02,10),LENGTH=0,ATTRB=(ASKIP,NORM)
* 'CURR-RSPNS-ID-SY00'
ZFLD008  DFHMDF POS=(02,21),LENGTH=0008,ATTRB=(PROT,BRT),              X
               COLOR=DEFAULT,HILIGHT=OFF
         DFHMDF POS=(02,30),LENGTH=0001,ATTRB=(PROT,ASKIP,BRT),        X
               INITIAL=':',COLOR=DEFAULT,HILIGHT=OFF
* 'AGR-FUNC-DESCRIPTION'
ZFLD009  DFHMDF POS=(02,32),LENGTH=0028,ATTRB=(PROT,BRT),              X
               COLOR=DEFAULT,HILIGHT=OFF
         DFHMDF POS=(02,61),LENGTH=0,ATTRB=(ASKIP,NORM)
* 'PAGE-STATUS-CODE-SY00'
ZFLD010  DFHMDF POS=(02,64),LENGTH=0010,ATTRB=(PROT,BRT),              X
               COLOR=DEFAULT,HILIGHT=OFF
         DFHMDF POS=(02,75),LENGTH=0,ATTRB=(ASKIP,NORM)
* 'DCSD-TEXT-SY01'
ZFLD011  DFHMDF POS=(03,52),LENGTH=0008,ATTRB=(PROT,DRK),              X
               COLOR=DEFAULT,HILIGHT=OFF
         DFHMDF POS=(03,61),LENGTH=0,ATTRB=(ASKIP,NORM)
* 'CNFDL-TEXT-SY01'
ZFLD012  DFHMDF POS=(03,62),LENGTH=0011,ATTRB=(PROT,DRK),              X
               COLOR=DEFAULT,HILIGHT=OFF
         DFHMDF POS=(03,74),LENGTH=0,ATTRB=(ASKIP,NORM)
* 'HOLDS-TEXT-SY01'
ZFLD013  DFHMDF POS=(03,75),LENGTH=0005,ATTRB=(PROT,DRK),              X
               COLOR=DEFAULT,HILIGHT=OFF
         DFHMDF POS=(04,01),LENGTH=0,ATTRB=(ASKIP,NORM)
         DFHMDF POS=(05,01),LENGTH=0015,ATTRB=(PROT,ASKIP),            X
               INITIAL='ADDRESS LINE 1:',COLOR=BLUE,HILIGHT=OFF
* 'LINE-ADR-1-KEY-UT13'
ZFLD014  DFHMDF POS=(05,17),LENGTH=0035,ATTRB=(UNPROT,IC),             X
               COLOR=DEFAULT,HILIGHT=UNDERLINE
         DFHMDF POS=(05,53),LENGTH=0,ATTRB=(ASKIP,NORM)
         DFHMDF POS=(05,55),LENGTH=0004,ATTRB=(PROT,ASKIP),            X
               INITIAL='P/E:',COLOR=BLUE,HILIGHT=OFF
* 'ENTY-PRSN-IND-UT13'
ZFLD015  DFHMDF POS=(05,60),LENGTH=0001,ATTRB=(UNPROT),COLOR=DEFAULT,  X
               HILIGHT=UNDERLINE
         DFHMDF POS=(05,62),LENGTH=0,ATTRB=(ASKIP,NORM)
* 'WORK-WORD-LIT-UT13'
ZFLD016  DFHMDF POS=(05,63),LENGTH=0006,ATTRB=(PROT),COLOR=BLUE,       X
               HILIGHT=OFF
         DFHMDF POS=(05,70),LENGTH=0,ATTRB=(ASKIP,NORM)
         DFHMDF POS=(06,01),LENGTH=0003,ATTRB=(PROT,ASKIP),            X
               INITIAL='ACT',COLOR=BLUE,HILIGHT=OFF
         DFHMDF POS=(07,01),LENGTH=0068,ATTRB=(PROT,ASKIP),            X
               INITIAL='(S) ID NUMBER                      ACH  ADR    X
                 ADDRESS INFORMATION',COLOR=BLUE,HILIGHT=OFF
* 'ACTN-CODE-UT13'
ZFLD017  DFHMDF POS=(08,02),LENGTH=0001,ATTRB=(UNPROT),COLOR=DEFAULT,  X
               HILIGHT=OFF
         DFHMDF POS=(08,04),LENGTH=0,ATTRB=(ASKIP,NORM)
* 'ID-NMBR-UT13'
ZFLD018  DFHMDF POS=(08,05),LENGTH=0009,ATTRB=(PROT),COLOR=TURQUOISE,  X
               HILIGHT=OFF
         DFHMDF POS=(08,15),LENGTH=0,ATTRB=(ASKIP,NORM)
* 'ACH-ADR-FLAG-UT13'
ZFLD019  DFHMDF POS=(08,37),LENGTH=0001,ATTRB=(PROT),COLOR=TURQUOISE,  X
               HILIGHT=OFF
         DFHMDF POS=(08,39),LENGTH=0,ATTRB=(ASKIP,NORM)
* 'ADR-TYPE-CODE-UT13'
ZFLD020  DFHMDF POS=(08,41),LENGTH=0002,ATTRB=(PROT),COLOR=TURQUOISE,  X
               HILIGHT=OFF
         DFHMDF POS=(08,44),LENGTH=0,ATTRB=(ASKIP,NORM)
* 'LINE-ADR-1-UT13'
ZFLD021  DFHMDF POS=(08,45),LENGTH=0035,ATTRB=(PROT),COLOR=TURQUOISE,  X
               HILIGHT=OFF
         DFHMDF POS=(09,01),LENGTH=0,ATTRB=(ASKIP,NORM)
* 'NAME-KEY-UT13'
ZFLD022  DFHMDF POS=(09,07),LENGTH=0035,ATTRB=(PROT),COLOR=TURQUOISE,  X
               HILIGHT=OFF
         DFHMDF POS=(09,43),LENGTH=0,ATTRB=(ASKIP,NORM)
* 'LINE-ADR-2-UT13'
ZFLD023  DFHMDF POS=(09,45),LENGTH=0035,ATTRB=(PROT),COLOR=TURQUOISE,  X
               HILIGHT=OFF
         DFHMDF POS=(10,01),LENGTH=0,ATTRB=(ASKIP,NORM)
* 'CITY-NAME-UT13'
ZFLD024  DFHMDF POS=(10,45),LENGTH=0018,ATTRB=(PROT),COLOR=TURQUOISE,  X
               HILIGHT=OFF
* 'STATE-CODE-UT13'
ZFLD025  DFHMDF POS=(10,64),LENGTH=0002,ATTRB=(PROT),COLOR=TURQUOISE,  X
               HILIGHT=OFF
* 'ZIP-CODE-UT13'
ZFLD026  DFHMDF POS=(10,67),LENGTH=0010,ATTRB=(PROT),COLOR=TURQUOISE,  X
               HILIGHT=OFF
         DFHMDF POS=(10,78),LENGTH=0,ATTRB=(ASKIP,NORM)
* 'ACTN-CODE-UT13'
ZFLD027  DFHMDF POS=(11,02),LENGTH=0001,ATTRB=(UNPROT),COLOR=DEFAULT,  X
               HILIGHT=OFF
         DFHMDF POS=(11,04),LENGTH=0,ATTRB=(ASKIP,NORM)
* 'ID-NMBR-UT13'
ZFLD028  DFHMDF POS=(11,05),LENGTH=0009,ATTRB=(PROT),COLOR=TURQUOISE,  X
               HILIGHT=OFF
         DFHMDF POS=(11,15),LENGTH=0,ATTRB=(ASKIP,NORM)
* 'ACH-ADR-FLAG-UT13'
ZFLD029  DFHMDF POS=(11,37),LENGTH=0001,ATTRB=(PROT),COLOR=TURQUOISE,  X
               HILIGHT=OFF
         DFHMDF POS=(11,39),LENGTH=0,ATTRB=(ASKIP,NORM)
* 'ADR-TYPE-CODE-UT13'
ZFLD030  DFHMDF POS=(11,41),LENGTH=0002,ATTRB=(PROT),COLOR=TURQUOISE,  X
               HILIGHT=OFF
         DFHMDF POS=(11,44),LENGTH=0,ATTRB=(ASKIP,NORM)
* 'LINE-ADR-1-UT13'
ZFLD031  DFHMDF POS=(11,45),LENGTH=0035,ATTRB=(PROT),COLOR=TURQUOISE,  X
               HILIGHT=OFF
         DFHMDF POS=(12,01),LENGTH=0,ATTRB=(ASKIP,NORM)
* 'NAME-KEY-UT13'
ZFLD032  DFHMDF POS=(12,07),LENGTH=0035,ATTRB=(PROT),COLOR=TURQUOISE,  X
               HILIGHT=OFF
         DFHMDF POS=(12,43),LENGTH=0,ATTRB=(ASKIP,NORM)
* 'LINE-ADR-2-UT13'
ZFLD033  DFHMDF POS=(12,45),LENGTH=0035,ATTRB=(PROT),COLOR=TURQUOISE,  X
               HILIGHT=OFF
         DFHMDF POS=(13,01),LENGTH=0,ATTRB=(ASKIP,NORM)
* 'CITY-NAME-UT13'
ZFLD034  DFHMDF POS=(13,45),LENGTH=0018,ATTRB=(PROT),COLOR=TURQUOISE,  X
               HILIGHT=OFF
* 'STATE-CODE-UT13'
ZFLD035  DFHMDF POS=(13,64),LENGTH=0002,ATTRB=(PROT),COLOR=TURQUOISE,  X
               HILIGHT=OFF
* 'ZIP-CODE-UT13'
ZFLD036  DFHMDF POS=(13,67),LENGTH=0010,ATTRB=(PROT),COLOR=TURQUOISE,  X
               HILIGHT=OFF
         DFHMDF POS=(13,78),LENGTH=0,ATTRB=(ASKIP,NORM)
* 'ACTN-CODE-UT13'
ZFLD037  DFHMDF POS=(14,02),LENGTH=0001,ATTRB=(UNPROT),COLOR=DEFAULT,  X
               HILIGHT=OFF
         DFHMDF POS=(14,04),LENGTH=0,ATTRB=(ASKIP,NORM)
* 'ID-NMBR-UT13'
ZFLD038  DFHMDF POS=(14,05),LENGTH=0009,ATTRB=(PROT),COLOR=TURQUOISE,  X
               HILIGHT=OFF
         DFHMDF POS=(14,15),LENGTH=0,ATTRB=(ASKIP,NORM)
* 'ACH-ADR-FLAG-UT13'
ZFLD039  DFHMDF POS=(14,37),LENGTH=0001,ATTRB=(PROT),COLOR=TURQUOISE,  X
               HILIGHT=OFF
         DFHMDF POS=(14,39),LENGTH=0,ATTRB=(ASKIP,NORM)
* 'ADR-TYPE-CODE-UT13'
ZFLD040  DFHMDF POS=(14,41),LENGTH=0002,ATTRB=(PROT),COLOR=TURQUOISE,  X
               HILIGHT=OFF
         DFHMDF POS=(14,44),LENGTH=0,ATTRB=(ASKIP,NORM)
* 'LINE-ADR-1-UT13'
ZFLD041  DFHMDF POS=(14,45),LENGTH=0035,ATTRB=(PROT),COLOR=TURQUOISE,  X
               HILIGHT=OFF
         DFHMDF POS=(15,01),LENGTH=0,ATTRB=(ASKIP,NORM)
* 'NAME-KEY-UT13'
ZFLD042  DFHMDF POS=(15,07),LENGTH=0035,ATTRB=(PROT),COLOR=TURQUOISE,  X
               HILIGHT=OFF
         DFHMDF POS=(15,43),LENGTH=0,ATTRB=(ASKIP,NORM)
* 'LINE-ADR-2-UT13'
ZFLD043  DFHMDF POS=(15,45),LENGTH=0035,ATTRB=(PROT),COLOR=TURQUOISE,  X
               HILIGHT=OFF
         DFHMDF POS=(16,01),LENGTH=0,ATTRB=(ASKIP,NORM)
* 'CITY-NAME-UT13'
ZFLD044  DFHMDF POS=(16,45),LENGTH=0018,ATTRB=(PROT),COLOR=TURQUOISE,  X
               HILIGHT=OFF
* 'STATE-CODE-UT13'
ZFLD045  DFHMDF POS=(16,64),LENGTH=0002,ATTRB=(PROT),COLOR=TURQUOISE,  X
               HILIGHT=OFF
* 'ZIP-CODE-UT13'
ZFLD046  DFHMDF POS=(16,67),LENGTH=0010,ATTRB=(PROT),COLOR=TURQUOISE,  X
               HILIGHT=OFF
         DFHMDF POS=(16,78),LENGTH=0,ATTRB=(ASKIP,NORM)
* 'ACTN-CODE-UT13'
ZFLD047  DFHMDF POS=(17,02),LENGTH=0001,ATTRB=(UNPROT),COLOR=DEFAULT,  X
               HILIGHT=OFF
         DFHMDF POS=(17,04),LENGTH=0,ATTRB=(ASKIP,NORM)
* 'ID-NMBR-UT13'
ZFLD048  DFHMDF POS=(17,05),LENGTH=0009,ATTRB=(PROT),COLOR=TURQUOISE,  X
               HILIGHT=OFF
         DFHMDF POS=(17,15),LENGTH=0,ATTRB=(ASKIP,NORM)
* 'ACH-ADR-FLAG-UT13'
ZFLD049  DFHMDF POS=(17,37),LENGTH=0001,ATTRB=(PROT),COLOR=TURQUOISE,  X
               HILIGHT=OFF
         DFHMDF POS=(17,39),LENGTH=0,ATTRB=(ASKIP,NORM)
* 'ADR-TYPE-CODE-UT13'
ZFLD050  DFHMDF POS=(17,41),LENGTH=0002,ATTRB=(PROT),COLOR=TURQUOISE,  X
               HILIGHT=OFF
         DFHMDF POS=(17,44),LENGTH=0,ATTRB=(ASKIP,NORM)
* 'LINE-ADR-1-UT13'
ZFLD051  DFHMDF POS=(17,45),LENGTH=0035,ATTRB=(PROT),COLOR=TURQUOISE,  X
               HILIGHT=OFF
         DFHMDF POS=(18,01),LENGTH=0,ATTRB=(ASKIP,NORM)
* 'NAME-KEY-UT13'
ZFLD052  DFHMDF POS=(18,07),LENGTH=0035,ATTRB=(PROT),COLOR=TURQUOISE,  X
               HILIGHT=OFF
         DFHMDF POS=(18,43),LENGTH=0,ATTRB=(ASKIP,NORM)
* 'LINE-ADR-2-UT13'
ZFLD053  DFHMDF POS=(18,45),LENGTH=0035,ATTRB=(PROT),COLOR=TURQUOISE,  X
               HILIGHT=OFF
         DFHMDF POS=(19,01),LENGTH=0,ATTRB=(ASKIP,NORM)
* 'CITY-NAME-UT13'
ZFLD054  DFHMDF POS=(19,45),LENGTH=0018,ATTRB=(PROT),COLOR=TURQUOISE,  X
               HILIGHT=OFF
* 'STATE-CODE-UT13'
ZFLD055  DFHMDF POS=(19,64),LENGTH=0002,ATTRB=(PROT),COLOR=TURQUOISE,  X
               HILIGHT=OFF
* 'ZIP-CODE-UT13'
ZFLD056  DFHMDF POS=(19,67),LENGTH=0010,ATTRB=(PROT),COLOR=TURQUOISE,  X
               HILIGHT=OFF
         DFHMDF POS=(19,78),LENGTH=0,ATTRB=(ASKIP,NORM)
* 'DCLINK-MESSAGE'
ZFLD057  DFHMDF POS=(21,80),LENGTH=0160,ATTRB=(PROT,BRT),              X
               COLOR=DEFAULT,HILIGHT=OFF
         DFHMDF POS=(24,01),LENGTH=0012,ATTRB=(PROT,ASKIP,NUM),        X
               INITIAL='NEXT SCREEN:',COLOR=BLUE,HILIGHT=OFF
* 'AGR-PASSED-ONE'
ZFLD058  DFHMDF POS=(24,14),LENGTH=0030,ATTRB=(UNPROT),COLOR=DEFAULT,  X
               HILIGHT=UNDERLINE
         DFHMDF POS=(24,45),LENGTH=0009,ATTRB=(PROT,ASKIP),            X
               INITIAL='RESPONSE:',COLOR=BLUE,HILIGHT=OFF
* 'AGR-MAP-RESPONSE'
ZFLD059  DFHMDF POS=(24,55),LENGTH=0008,ATTRB=(UNPROT),COLOR=DEFAULT,  X
               HILIGHT=UNDERLINE
         DFHMDF POS=(24,64),LENGTH=0,ATTRB=(ASKIP,NORM)
* 'ERROR-TEXT-SY00'
ZFLD060  DFHMDF POS=(24,65),LENGTH=0014,ATTRB=(PROT,DRK),              X
               COLOR=DEFAULT,HILIGHT=OFF
         DFHMSD TYPE=FINAL
         END
