FZYMI08  DFHMSD TYPE=MAP,LANG=COBOL,TERM=3270,MODE=INOUT,              X
               TIOAPFX=YES,MAPATTS=(COLOR,HILIGHT),                    X
               DSATTS=(COLOR,HILIGHT)
FZYMI08  DFHMDI SIZE=(24,80),LINE=1,COLUMN=1,CTRL=FREEKB,TIOAPFX=YES
         DFHMDF POS=(01,01),LENGTH=0007,ATTRB=(PROT),                  X
               INITIAL='FZYMI08',COLOR=BLUE,HILIGHT=OFF
* 'TRMNL-ID-SY00'
ZFLD002  DFHMDF POS=(01,10),LENGTH=0008,ATTRB=(PROT),COLOR=BLUE,       X
               HILIGHT=OFF
         DFHMDF POS=(01,19),LENGTH=0,ATTRB=(ASKIP,NORM)
* 'FULL-NAME-6001-SY00'
ZFLD003  DFHMDF POS=(01,23),LENGTH=0035,ATTRB=(PROT),COLOR=BLUE,       X
               HILIGHT=OFF
         DFHMDF POS=(01,59),LENGTH=0,ATTRB=(ASKIP,NORM)
* 'AGR-DATE'
ZFLD004  DFHMDF POS=(01,64),LENGTH=0008,ATTRB=(PROT),COLOR=BLUE,       X
               HILIGHT=OFF
* 'WORK-HH-MM-TIME-SY00'
ZFLD005  DFHMDF POS=(01,73),LENGTH=0005,ATTRB=(PROT),COLOR=BLUE,       X
               HILIGHT=OFF
* 'AM-PM-FLAG-SY00'
ZFLD006  DFHMDF POS=(01,79),LENGTH=0001,ATTRB=(PROT),COLOR=BLUE,       X
               HILIGHT=OFF
* 'AGR-USER-ID'
ZFLD007  DFHMDF POS=(02,01),LENGTH=0008,ATTRB=(PROT),COLOR=BLUE,       X
               HILIGHT=OFF
         DFHMDF POS=(02,10),LENGTH=0,ATTRB=(ASKIP,NORM)
         DFHMDF POS=(02,21),LENGTH=0008,ATTRB=(PROT,BRT),              X
               INITIAL='SECURITY',COLOR=DEFAULT,HILIGHT=OFF
         DFHMDF POS=(02,30),LENGTH=0001,ATTRB=(PROT,BRT),INITIAL=':',  X
               COLOR=DEFAULT,HILIGHT=OFF
         DFHMDF POS=(02,32),LENGTH=0018,ATTRB=(PROT,BRT),              X
               INITIAL='SECURITY VIOLATION',COLOR=DEFAULT,HILIGHT=OFF
* 'PAGE-STATUS-CODE-SY00'
ZFLD008  DFHMDF POS=(02,64),LENGTH=0010,ATTRB=(PROT,BRT),              X
               COLOR=DEFAULT,HILIGHT=OFF
         DFHMDF POS=(02,75),LENGTH=0,ATTRB=(ASKIP,NORM)
         DFHMDF POS=(09,09),LENGTH=0048,ATTRB=(PROT,BRT),              X
               INITIAL='YOU DO NOT HAVE PERMISSION FOR THIS TRANSACTIONX
               :',COLOR=DEFAULT,HILIGHT=OFF
* 'AGR-PASSED-THREE'
ZFLD009  DFHMDF POS=(09,58),LENGTH=0008,ATTRB=(PROT),COLOR=TURQUOISE,  X
               HILIGHT=OFF
         DFHMDF POS=(09,67),LENGTH=0,ATTRB=(ASKIP,NORM)
         DFHMDF POS=(11,21),LENGTH=0024,ATTRB=(PROT),                  X
               INITIAL='PRESS ENTER TO CONTINUE.',COLOR=BLUE,          X
               HILIGHT=OFF
* 'DCLINK-MESSAGE'
ZFLD010  DFHMDF POS=(21,80),LENGTH=0160,ATTRB=(PROT,BRT),              X
               COLOR=DEFAULT,HILIGHT=OFF
         DFHMDF POS=(24,01),LENGTH=0,ATTRB=(ASKIP,NORM)
         DFHMSD TYPE=FINAL
         END
